(footprint "SHOUHAN_MICROXNJ" (version 20211014) (generator pcbnew)
  (layer "F.Cu")
  (tedit 6235120B)
  (descr "<b>MICROXNJ-1</b><br>")
  (attr through_hole)
  (fp_text reference "REF**" (at -1.025 6.735) (layer "F.SilkS")
    (effects (font (size 1 1) (thickness 0.15)))
    (tstamp e419300a-5404-42ba-8c9b-e8cd5066ac8e)
  )
  (fp_text value "SHOUHAN_MICROXNJ" (at 5.96 8.235) (layer "F.Fab")
    (effects (font (size 1 1) (thickness 0.15)))
    (tstamp e9581bdc-0c32-481f-b3ec-f590264a37c8)
  )
  (fp_text user "PCB-EDGE" (at 4.35 -0.15) (layer "F.Fab")
    (effects (font (size 0.48 0.48) (thickness 0.15)))
    (tstamp 7167e0fb-15b0-446d-969c-ecf63e50097d)
  )
  (fp_line (start 3.6 3.14) (end 3.6 4.66) (layer "F.SilkS") (width 0.127) (tstamp 138f5600-7fba-4219-9f21-9ce4066a1d82))
  (fp_line (start -3.6 0) (end 3.6 0) (layer "F.SilkS") (width 0.127) (tstamp 24fbbd33-4896-414c-ba79-167809dd0e90))
  (fp_line (start -3.6 0.36) (end -3.6 0) (layer "F.SilkS") (width 0.127) (tstamp 2be498d5-e7b2-4098-b853-d60412f65c3b))
  (fp_line (start -3.6 4.66) (end -3.395 4.66) (layer "F.SilkS") (width 0.127) (tstamp 4ff71e44-dddb-450e-9f6f-fe3947968fd4))
  (fp_line (start 3.6 0) (end 3.6 0.36) (layer "F.SilkS") (width 0.127) (tstamp a281de60-7af0-498c-be0b-24572e88b490))
  (fp_line (start 3.6 4.66) (end 3.395 4.66) (layer "F.SilkS") (width 0.127) (tstamp b5691874-e380-4013-b466-13948504ae2f))
  (fp_line (start -3.6 3.14) (end -3.6 4.66) (layer "F.SilkS") (width 0.127) (tstamp f094eb5d-05c7-4c16-84d0-9d4665317bfb))
  (fp_circle (center 1.35 5.75) (end 1.45 5.75) (layer "F.SilkS") (width 0.2) (fill none) (tstamp eb79b938-dc23-4503-beb0-3634b653c9e4))
  (fp_line (start 4.385 -0.65) (end 4.385 5.3) (layer "F.CrtYd") (width 0.05) (tstamp 1cd08355-701e-4fba-886f-d48517dcccf5))
  (fp_line (start 4.385 5.3) (end -4.385 5.3) (layer "F.CrtYd") (width 0.05) (tstamp 2f8dfa45-14b0-4de4-b3b0-e7b73da81a0a))
  (fp_line (start -4.385 5.3) (end -4.385 -0.65) (layer "F.CrtYd") (width 0.05) (tstamp 84282cc7-416d-48c2-ae9f-c0149b35065e))
  (fp_line (start -4.385 -0.65) (end 4.385 -0.65) (layer "F.CrtYd") (width 0.05) (tstamp c25b90aa-c787-46a1-8b80-e5b9fd45039a))
  (fp_line (start -3.6 -0.4) (end 3.6 -0.4) (layer "F.Fab") (width 0.127) (tstamp 3c3e78d8-62d7-4020-ae7c-c489234b27d5))
  (fp_line (start -4.2 0) (end 6 0) (layer "F.Fab") (width 0.127) (tstamp 5b86cb50-e2ef-475e-93e3-77fea6b5a690))
  (fp_line (start 3.6 4.66) (end -3.6 4.66) (layer "F.Fab") (width 0.127) (tstamp 977371ef-232c-40b3-8805-7fed7909b206))
  (fp_line (start 3.6 -0.4) (end 3.6 4.66) (layer "F.Fab") (width 0.127) (tstamp 9caefee8-6dcd-4815-b6e5-c75999fb9c90))
  (fp_line (start -3.6 4.66) (end -3.6 -0.4) (layer "F.Fab") (width 0.127) (tstamp e3877396-3ff6-4b1d-9715-0d1a70961579))
  (fp_circle (center 1.35 5.75) (end 1.45 5.75) (layer "F.Fab") (width 0.2) (fill none) (tstamp c2f8c49f-d49f-49e2-940a-a7b9765ffdf0))
  (pad "1" smd rect (at 1.3 4.375 90) (size 1.25 0.4) (layers "F.Cu" "F.Paste" "F.Mask") (tstamp 55870dc1-a751-4fb1-a7eb-fe844b64659b))
  (pad "2" smd rect (at 0.65 4.375 90) (size 1.25 0.4) (layers "F.Cu" "F.Paste" "F.Mask") (tstamp eed5fd95-a7ce-441e-bbe1-d330431c5e6d))
  (pad "3" smd rect (at 0 4.375 90) (size 1.25 0.4) (layers "F.Cu" "F.Paste" "F.Mask") (tstamp 3d8ae180-8beb-4868-96bd-080dbdab2951))
  (pad "4" smd rect (at -0.65 4.375 90) (size 1.25 0.4) (layers "F.Cu" "F.Paste" "F.Mask") (tstamp 7a4a5c0e-c639-4f33-aa7f-cf5502abd572))
  (pad "5" smd rect (at -1.3 4.375 90) (size 1.25 0.4) (layers "F.Cu" "F.Paste" "F.Mask") (tstamp 75f982a1-6ab8-4209-a4a8-58e41c3ce9c1))
  (pad "6" smd rect (at -0.8 1.725 90) (size 1.35 0.6) (layers "F.Cu" "F.Paste" "F.Mask") (tstamp 077985bd-c8a6-43b8-af30-1141a8334306))
  (pad "6" thru_hole oval (at -3.6 1.75) (size 1.07 2.14) (drill oval 0.5 1.3) (layers *.Cu *.Mask) (tstamp 7badec54-dd0c-405a-acf1-25eff9460213))
  (pad "6" thru_hole oval (at 3.6 1.75) (size 1.07 2.14) (drill oval 0.5 1.3) (layers *.Cu *.Mask) (tstamp 946b1da9-be3d-46a5-8490-1a85862f3b88))
  (pad "6" thru_hole circle (at -2.425 4.4) (size 1.3 1.3) (drill 0.7) (layers *.Cu *.Mask) (tstamp ad541cb2-f097-4769-b1c0-c1cca23ca9bd))
  (pad "6" thru_hole circle (at 2.425 4.4) (size 1.3 1.3) (drill 0.7) (layers *.Cu *.Mask) (tstamp b5b863ac-a506-4b3e-baa9-6daff41ac83f))
  (pad "6" smd rect (at 0.8 1.725 90) (size 1.35 0.6) (layers "F.Cu" "F.Paste" "F.Mask") (tstamp ec1c193f-86ec-48fc-a26b-de8201d681ac))
  (model "C:/Users/Haymi/OneDrive/Desktop/UCT/EEE3088F/Git/eee3088F-HAT/CAD/USB3090-30-A--3DModel-STEP-56544.STEP"
    (offset (xyz 0 -2 0))
    (scale (xyz 1 1 1))
    (rotate (xyz -90 0 180))
  )
  (model "/Users/admin/Library/CloudStorage/OneDrive-UniversityofCapeTown/Third Year/Semester 1/EEE3088F/eee3088F-HAT/CAD/USB3090-30-A--3DModel-STEP-56544.STEP"
    (offset (xyz 0 -2 0))
    (scale (xyz 1 1 1))
    (rotate (xyz -90 0 180))
  )
)
