%TF.GenerationSoftware,KiCad,Pcbnew,(6.0.2)*%
%TF.CreationDate,2022-04-08T18:06:21+02:00*%
%TF.ProjectId,main,6d61696e-2e6b-4696-9361-645f70636258,V3.1*%
%TF.SameCoordinates,Original*%
%TF.FileFunction,Legend,Top*%
%TF.FilePolarity,Positive*%
%FSLAX46Y46*%
G04 Gerber Fmt 4.6, Leading zero omitted, Abs format (unit mm)*
G04 Created by KiCad (PCBNEW (6.0.2)) date 2022-04-08 18:06:21*
%MOMM*%
%LPD*%
G01*
G04 APERTURE LIST*
%ADD10C,0.100000*%
%ADD11C,0.250000*%
%ADD12C,0.200000*%
%ADD13C,0.150000*%
%ADD14C,0.300000*%
%ADD15C,0.125000*%
%ADD16C,0.120000*%
%ADD17C,0.127000*%
%ADD18C,0.160000*%
G04 APERTURE END LIST*
D10*
X173990000Y-91440000D02*
X184150000Y-91440000D01*
X184150000Y-91440000D02*
X184150000Y-101600000D01*
X184150000Y-101600000D02*
X173990000Y-101600000D01*
X173990000Y-101600000D02*
X173990000Y-91440000D01*
D11*
X96226380Y-111251904D02*
X96226380Y-110680476D01*
X97226380Y-110966190D02*
X96226380Y-110966190D01*
X96226380Y-110442380D02*
X97226380Y-109775714D01*
X96226380Y-109775714D02*
X97226380Y-110442380D01*
D12*
X189871333Y-80206571D02*
X189871333Y-79825619D01*
X190099904Y-80282761D02*
X189299904Y-80016095D01*
X190099904Y-79749428D01*
X189566571Y-79482761D02*
X190099904Y-79482761D01*
X189642761Y-79482761D02*
X189604666Y-79444666D01*
X189566571Y-79368476D01*
X189566571Y-79254190D01*
X189604666Y-79178000D01*
X189680857Y-79139904D01*
X190099904Y-79139904D01*
X190099904Y-78416095D02*
X189680857Y-78416095D01*
X189604666Y-78454190D01*
X189566571Y-78530380D01*
X189566571Y-78682761D01*
X189604666Y-78758952D01*
X190061809Y-78416095D02*
X190099904Y-78492285D01*
X190099904Y-78682761D01*
X190061809Y-78758952D01*
X189985619Y-78797047D01*
X189909428Y-78797047D01*
X189833238Y-78758952D01*
X189795142Y-78682761D01*
X189795142Y-78492285D01*
X189757047Y-78416095D01*
X189299904Y-77273238D02*
X189299904Y-77120857D01*
X189338000Y-77044666D01*
X189414190Y-76968476D01*
X189566571Y-76930380D01*
X189833238Y-76930380D01*
X189985619Y-76968476D01*
X190061809Y-77044666D01*
X190099904Y-77120857D01*
X190099904Y-77273238D01*
X190061809Y-77349428D01*
X189985619Y-77425619D01*
X189833238Y-77463714D01*
X189566571Y-77463714D01*
X189414190Y-77425619D01*
X189338000Y-77349428D01*
X189299904Y-77273238D01*
X189566571Y-76244666D02*
X190099904Y-76244666D01*
X189566571Y-76587523D02*
X189985619Y-76587523D01*
X190061809Y-76549428D01*
X190099904Y-76473238D01*
X190099904Y-76358952D01*
X190061809Y-76282761D01*
X190023714Y-76244666D01*
X189566571Y-75978000D02*
X189566571Y-75673238D01*
X189299904Y-75863714D02*
X189985619Y-75863714D01*
X190061809Y-75825619D01*
X190099904Y-75749428D01*
X190099904Y-75673238D01*
D13*
X184602380Y-120281428D02*
X183602380Y-120281428D01*
X183602380Y-120090952D01*
X183650000Y-119976666D01*
X183745238Y-119900476D01*
X183840476Y-119862380D01*
X184030952Y-119824285D01*
X184173809Y-119824285D01*
X184364285Y-119862380D01*
X184459523Y-119900476D01*
X184554761Y-119976666D01*
X184602380Y-120090952D01*
X184602380Y-120281428D01*
X184602380Y-119481428D02*
X183935714Y-119481428D01*
X183602380Y-119481428D02*
X183650000Y-119519523D01*
X183697619Y-119481428D01*
X183650000Y-119443333D01*
X183602380Y-119481428D01*
X183697619Y-119481428D01*
X183935714Y-118757619D02*
X184745238Y-118757619D01*
X184840476Y-118795714D01*
X184888095Y-118833809D01*
X184935714Y-118910000D01*
X184935714Y-119024285D01*
X184888095Y-119100476D01*
X184554761Y-118757619D02*
X184602380Y-118833809D01*
X184602380Y-118986190D01*
X184554761Y-119062380D01*
X184507142Y-119100476D01*
X184411904Y-119138571D01*
X184126190Y-119138571D01*
X184030952Y-119100476D01*
X183983333Y-119062380D01*
X183935714Y-118986190D01*
X183935714Y-118833809D01*
X183983333Y-118757619D01*
X184554761Y-117805238D02*
X184602380Y-117690952D01*
X184602380Y-117500476D01*
X184554761Y-117424285D01*
X184507142Y-117386190D01*
X184411904Y-117348095D01*
X184316666Y-117348095D01*
X184221428Y-117386190D01*
X184173809Y-117424285D01*
X184126190Y-117500476D01*
X184078571Y-117652857D01*
X184030952Y-117729047D01*
X183983333Y-117767142D01*
X183888095Y-117805238D01*
X183792857Y-117805238D01*
X183697619Y-117767142D01*
X183650000Y-117729047D01*
X183602380Y-117652857D01*
X183602380Y-117462380D01*
X183650000Y-117348095D01*
X184507142Y-116548095D02*
X184554761Y-116586190D01*
X184602380Y-116700476D01*
X184602380Y-116776666D01*
X184554761Y-116890952D01*
X184459523Y-116967142D01*
X184364285Y-117005238D01*
X184173809Y-117043333D01*
X184030952Y-117043333D01*
X183840476Y-117005238D01*
X183745238Y-116967142D01*
X183650000Y-116890952D01*
X183602380Y-116776666D01*
X183602380Y-116700476D01*
X183650000Y-116586190D01*
X183697619Y-116548095D01*
X184602380Y-115824285D02*
X184602380Y-116205238D01*
X183602380Y-116205238D01*
X184602380Y-124578857D02*
X183602380Y-124578857D01*
X183602380Y-124436000D01*
X183650000Y-124350285D01*
X183745238Y-124293142D01*
X183840476Y-124264571D01*
X184030952Y-124236000D01*
X184173809Y-124236000D01*
X184364285Y-124264571D01*
X184459523Y-124293142D01*
X184554761Y-124350285D01*
X184602380Y-124436000D01*
X184602380Y-124578857D01*
X184602380Y-123978857D02*
X183935714Y-123978857D01*
X183602380Y-123978857D02*
X183650000Y-124007428D01*
X183697619Y-123978857D01*
X183650000Y-123950285D01*
X183602380Y-123978857D01*
X183697619Y-123978857D01*
X183935714Y-123436000D02*
X184745238Y-123436000D01*
X184840476Y-123464571D01*
X184888095Y-123493142D01*
X184935714Y-123550285D01*
X184935714Y-123636000D01*
X184888095Y-123693142D01*
X184554761Y-123436000D02*
X184602380Y-123493142D01*
X184602380Y-123607428D01*
X184554761Y-123664571D01*
X184507142Y-123693142D01*
X184411904Y-123721714D01*
X184126190Y-123721714D01*
X184030952Y-123693142D01*
X183983333Y-123664571D01*
X183935714Y-123607428D01*
X183935714Y-123493142D01*
X183983333Y-123436000D01*
X184554761Y-122721714D02*
X184602380Y-122636000D01*
X184602380Y-122493142D01*
X184554761Y-122436000D01*
X184507142Y-122407428D01*
X184411904Y-122378857D01*
X184316666Y-122378857D01*
X184221428Y-122407428D01*
X184173809Y-122436000D01*
X184126190Y-122493142D01*
X184078571Y-122607428D01*
X184030952Y-122664571D01*
X183983333Y-122693142D01*
X183888095Y-122721714D01*
X183792857Y-122721714D01*
X183697619Y-122693142D01*
X183650000Y-122664571D01*
X183602380Y-122607428D01*
X183602380Y-122464571D01*
X183650000Y-122378857D01*
X184602380Y-122121714D02*
X183602380Y-122121714D01*
X183602380Y-121978857D01*
X183650000Y-121893142D01*
X183745238Y-121836000D01*
X183840476Y-121807428D01*
X184030952Y-121778857D01*
X184173809Y-121778857D01*
X184364285Y-121807428D01*
X184459523Y-121836000D01*
X184554761Y-121893142D01*
X184602380Y-121978857D01*
X184602380Y-122121714D01*
X184316666Y-121550285D02*
X184316666Y-121264571D01*
X184602380Y-121607428D02*
X183602380Y-121407428D01*
X184602380Y-121207428D01*
D11*
X123107380Y-135111904D02*
X123107380Y-134540476D01*
X124107380Y-134826190D02*
X123107380Y-134826190D01*
X123107380Y-134302380D02*
X124107380Y-133635714D01*
X123107380Y-133635714D02*
X124107380Y-134302380D01*
X123440714Y-132492857D02*
X123726428Y-131730952D01*
X124012142Y-132492857D01*
X124717380Y-137492857D02*
X124717380Y-136921428D01*
X125717380Y-137207142D02*
X124717380Y-137207142D01*
X124717380Y-136397619D02*
X124717380Y-136207142D01*
X124765000Y-136111904D01*
X124860238Y-136016666D01*
X125050714Y-135969047D01*
X125384047Y-135969047D01*
X125574523Y-136016666D01*
X125669761Y-136111904D01*
X125717380Y-136207142D01*
X125717380Y-136397619D01*
X125669761Y-136492857D01*
X125574523Y-136588095D01*
X125384047Y-136635714D01*
X125050714Y-136635714D01*
X124860238Y-136588095D01*
X124765000Y-136492857D01*
X124717380Y-136397619D01*
X125812619Y-135778571D02*
X125812619Y-135016666D01*
X125717380Y-134778571D02*
X124717380Y-134778571D01*
X125431666Y-134445238D01*
X124717380Y-134111904D01*
X125717380Y-134111904D01*
X125622142Y-133064285D02*
X125669761Y-133111904D01*
X125717380Y-133254761D01*
X125717380Y-133350000D01*
X125669761Y-133492857D01*
X125574523Y-133588095D01*
X125479285Y-133635714D01*
X125288809Y-133683333D01*
X125145952Y-133683333D01*
X124955476Y-133635714D01*
X124860238Y-133588095D01*
X124765000Y-133492857D01*
X124717380Y-133350000D01*
X124717380Y-133254761D01*
X124765000Y-133111904D01*
X124812619Y-133064285D01*
X124717380Y-132635714D02*
X125526904Y-132635714D01*
X125622142Y-132588095D01*
X125669761Y-132540476D01*
X125717380Y-132445238D01*
X125717380Y-132254761D01*
X125669761Y-132159523D01*
X125622142Y-132111904D01*
X125526904Y-132064285D01*
X124717380Y-132064285D01*
X125812619Y-131826190D02*
X125812619Y-131064285D01*
X125717380Y-130254761D02*
X125241190Y-130588095D01*
X125717380Y-130826190D02*
X124717380Y-130826190D01*
X124717380Y-130445238D01*
X124765000Y-130350000D01*
X124812619Y-130302380D01*
X124907857Y-130254761D01*
X125050714Y-130254761D01*
X125145952Y-130302380D01*
X125193571Y-130350000D01*
X125241190Y-130445238D01*
X125241190Y-130826190D01*
X124717380Y-129921428D02*
X125717380Y-129254761D01*
X124717380Y-129254761D02*
X125717380Y-129921428D01*
D13*
X180046380Y-64007904D02*
X180046380Y-63388857D01*
X180427333Y-63722190D01*
X180427333Y-63579333D01*
X180474952Y-63484095D01*
X180522571Y-63436476D01*
X180617809Y-63388857D01*
X180855904Y-63388857D01*
X180951142Y-63436476D01*
X180998761Y-63484095D01*
X181046380Y-63579333D01*
X181046380Y-63865047D01*
X180998761Y-63960285D01*
X180951142Y-64007904D01*
X180046380Y-63103142D02*
X181046380Y-62769809D01*
X180046380Y-62436476D01*
X179792380Y-129984476D02*
X179792380Y-130460666D01*
X180268571Y-130508285D01*
X180220952Y-130460666D01*
X180173333Y-130365428D01*
X180173333Y-130127333D01*
X180220952Y-130032095D01*
X180268571Y-129984476D01*
X180363809Y-129936857D01*
X180601904Y-129936857D01*
X180697142Y-129984476D01*
X180744761Y-130032095D01*
X180792380Y-130127333D01*
X180792380Y-130365428D01*
X180744761Y-130460666D01*
X180697142Y-130508285D01*
X179792380Y-129651142D02*
X180792380Y-129317809D01*
X179792380Y-128984476D01*
X184988476Y-108402380D02*
X184988476Y-107402380D01*
X185178952Y-107402380D01*
X185293238Y-107450000D01*
X185369428Y-107545238D01*
X185407523Y-107640476D01*
X185445619Y-107830952D01*
X185445619Y-107973809D01*
X185407523Y-108164285D01*
X185369428Y-108259523D01*
X185293238Y-108354761D01*
X185178952Y-108402380D01*
X184988476Y-108402380D01*
X185788476Y-108402380D02*
X185788476Y-107735714D01*
X185788476Y-107402380D02*
X185750380Y-107450000D01*
X185788476Y-107497619D01*
X185826571Y-107450000D01*
X185788476Y-107402380D01*
X185788476Y-107497619D01*
X186512285Y-107735714D02*
X186512285Y-108545238D01*
X186474190Y-108640476D01*
X186436095Y-108688095D01*
X186359904Y-108735714D01*
X186245619Y-108735714D01*
X186169428Y-108688095D01*
X186512285Y-108354761D02*
X186436095Y-108402380D01*
X186283714Y-108402380D01*
X186207523Y-108354761D01*
X186169428Y-108307142D01*
X186131333Y-108211904D01*
X186131333Y-107926190D01*
X186169428Y-107830952D01*
X186207523Y-107783333D01*
X186283714Y-107735714D01*
X186436095Y-107735714D01*
X186512285Y-107783333D01*
X187388476Y-107402380D02*
X187655142Y-108402380D01*
X187921809Y-107402380D01*
X188645619Y-108307142D02*
X188607523Y-108354761D01*
X188493238Y-108402380D01*
X188417047Y-108402380D01*
X188302761Y-108354761D01*
X188226571Y-108259523D01*
X188188476Y-108164285D01*
X188150380Y-107973809D01*
X188150380Y-107830952D01*
X188188476Y-107640476D01*
X188226571Y-107545238D01*
X188302761Y-107450000D01*
X188417047Y-107402380D01*
X188493238Y-107402380D01*
X188607523Y-107450000D01*
X188645619Y-107497619D01*
X189445619Y-108307142D02*
X189407523Y-108354761D01*
X189293238Y-108402380D01*
X189217047Y-108402380D01*
X189102761Y-108354761D01*
X189026571Y-108259523D01*
X188988476Y-108164285D01*
X188950380Y-107973809D01*
X188950380Y-107830952D01*
X188988476Y-107640476D01*
X189026571Y-107545238D01*
X189102761Y-107450000D01*
X189217047Y-107402380D01*
X189293238Y-107402380D01*
X189407523Y-107450000D01*
X189445619Y-107497619D01*
D12*
X91622571Y-117176285D02*
X91622571Y-117442952D01*
X92146380Y-117442952D02*
X91146380Y-117442952D01*
X91146380Y-117062000D01*
X91146380Y-116871523D02*
X91146380Y-116414380D01*
X92146380Y-116642952D02*
X91146380Y-116642952D01*
X92146380Y-116147714D02*
X91146380Y-116147714D01*
X91146380Y-115957238D01*
X91194000Y-115842952D01*
X91289238Y-115766761D01*
X91384476Y-115728666D01*
X91574952Y-115690571D01*
X91717809Y-115690571D01*
X91908285Y-115728666D01*
X92003523Y-115766761D01*
X92098761Y-115842952D01*
X92146380Y-115957238D01*
X92146380Y-116147714D01*
X92146380Y-115347714D02*
X91146380Y-115347714D01*
X91146380Y-113976285D02*
X91146380Y-114357238D01*
X91622571Y-114395333D01*
X91574952Y-114357238D01*
X91527333Y-114281047D01*
X91527333Y-114090571D01*
X91574952Y-114014380D01*
X91622571Y-113976285D01*
X91717809Y-113938190D01*
X91955904Y-113938190D01*
X92051142Y-113976285D01*
X92098761Y-114014380D01*
X92146380Y-114090571D01*
X92146380Y-114281047D01*
X92098761Y-114357238D01*
X92051142Y-114395333D01*
X91146380Y-113709619D02*
X92146380Y-113442952D01*
X91146380Y-113176285D01*
X93021333Y-72713904D02*
X93288000Y-73513904D01*
X93554666Y-72713904D01*
X94088000Y-73094857D02*
X94202285Y-73132952D01*
X94240380Y-73171047D01*
X94278476Y-73247238D01*
X94278476Y-73361523D01*
X94240380Y-73437714D01*
X94202285Y-73475809D01*
X94126095Y-73513904D01*
X93821333Y-73513904D01*
X93821333Y-72713904D01*
X94088000Y-72713904D01*
X94164190Y-72752000D01*
X94202285Y-72790095D01*
X94240380Y-72866285D01*
X94240380Y-72942476D01*
X94202285Y-73018666D01*
X94164190Y-73056761D01*
X94088000Y-73094857D01*
X93821333Y-73094857D01*
X94621333Y-72713904D02*
X94621333Y-73361523D01*
X94659428Y-73437714D01*
X94697523Y-73475809D01*
X94773714Y-73513904D01*
X94926095Y-73513904D01*
X95002285Y-73475809D01*
X95040380Y-73437714D01*
X95078476Y-73361523D01*
X95078476Y-72713904D01*
X95421333Y-73475809D02*
X95535619Y-73513904D01*
X95726095Y-73513904D01*
X95802285Y-73475809D01*
X95840380Y-73437714D01*
X95878476Y-73361523D01*
X95878476Y-73285333D01*
X95840380Y-73209142D01*
X95802285Y-73171047D01*
X95726095Y-73132952D01*
X95573714Y-73094857D01*
X95497523Y-73056761D01*
X95459428Y-73018666D01*
X95421333Y-72942476D01*
X95421333Y-72866285D01*
X95459428Y-72790095D01*
X95497523Y-72752000D01*
X95573714Y-72713904D01*
X95764190Y-72713904D01*
X95878476Y-72752000D01*
X122177285Y-132569047D02*
X121891571Y-131959523D01*
X121605857Y-132569047D01*
X121510619Y-134016666D02*
X121986809Y-133750000D01*
X121510619Y-133559523D02*
X122510619Y-133559523D01*
X122510619Y-133864285D01*
X122463000Y-133940476D01*
X122415380Y-133978571D01*
X122320142Y-134016666D01*
X122177285Y-134016666D01*
X122082047Y-133978571D01*
X122034428Y-133940476D01*
X121986809Y-133864285D01*
X121986809Y-133559523D01*
X122510619Y-134283333D02*
X121510619Y-134816666D01*
X122510619Y-134816666D02*
X121510619Y-134283333D01*
X120424428Y-129616666D02*
X120424428Y-129350000D01*
X119900619Y-129350000D02*
X120900619Y-129350000D01*
X120900619Y-129730952D01*
X119900619Y-130492857D02*
X120376809Y-130226190D01*
X119900619Y-130035714D02*
X120900619Y-130035714D01*
X120900619Y-130340476D01*
X120853000Y-130416666D01*
X120805380Y-130454761D01*
X120710142Y-130492857D01*
X120567285Y-130492857D01*
X120472047Y-130454761D01*
X120424428Y-130416666D01*
X120376809Y-130340476D01*
X120376809Y-130035714D01*
X120900619Y-130988095D02*
X120900619Y-131140476D01*
X120853000Y-131216666D01*
X120757761Y-131292857D01*
X120567285Y-131330952D01*
X120233952Y-131330952D01*
X120043476Y-131292857D01*
X119948238Y-131216666D01*
X119900619Y-131140476D01*
X119900619Y-130988095D01*
X119948238Y-130911904D01*
X120043476Y-130835714D01*
X120233952Y-130797619D01*
X120567285Y-130797619D01*
X120757761Y-130835714D01*
X120853000Y-130911904D01*
X120900619Y-130988095D01*
X119900619Y-131673809D02*
X120900619Y-131673809D01*
X120186333Y-131940476D01*
X120900619Y-132207142D01*
X119900619Y-132207142D01*
X119805380Y-132397619D02*
X119805380Y-133007142D01*
X119900619Y-133197619D02*
X120900619Y-133197619D01*
X120186333Y-133464285D01*
X120900619Y-133730952D01*
X119900619Y-133730952D01*
X119995857Y-134569047D02*
X119948238Y-134530952D01*
X119900619Y-134416666D01*
X119900619Y-134340476D01*
X119948238Y-134226190D01*
X120043476Y-134150000D01*
X120138714Y-134111904D01*
X120329190Y-134073809D01*
X120472047Y-134073809D01*
X120662523Y-134111904D01*
X120757761Y-134150000D01*
X120853000Y-134226190D01*
X120900619Y-134340476D01*
X120900619Y-134416666D01*
X120853000Y-134530952D01*
X120805380Y-134569047D01*
X120900619Y-134911904D02*
X120091095Y-134911904D01*
X119995857Y-134950000D01*
X119948238Y-134988095D01*
X119900619Y-135064285D01*
X119900619Y-135216666D01*
X119948238Y-135292857D01*
X119995857Y-135330952D01*
X120091095Y-135369047D01*
X120900619Y-135369047D01*
X119805380Y-135559523D02*
X119805380Y-136169047D01*
X120900619Y-136245238D02*
X120900619Y-136702380D01*
X119900619Y-136473809D02*
X120900619Y-136473809D01*
X120900619Y-136892857D02*
X119900619Y-137426190D01*
X120900619Y-137426190D02*
X119900619Y-136892857D01*
X93624476Y-63354000D02*
X93548285Y-63315904D01*
X93434000Y-63315904D01*
X93319714Y-63354000D01*
X93243523Y-63430190D01*
X93205428Y-63506380D01*
X93167333Y-63658761D01*
X93167333Y-63773047D01*
X93205428Y-63925428D01*
X93243523Y-64001619D01*
X93319714Y-64077809D01*
X93434000Y-64115904D01*
X93510190Y-64115904D01*
X93624476Y-64077809D01*
X93662571Y-64039714D01*
X93662571Y-63773047D01*
X93510190Y-63773047D01*
X94005428Y-64115904D02*
X94005428Y-63315904D01*
X94462571Y-64115904D01*
X94462571Y-63315904D01*
X94843523Y-64115904D02*
X94843523Y-63315904D01*
X95034000Y-63315904D01*
X95148285Y-63354000D01*
X95224476Y-63430190D01*
X95262571Y-63506380D01*
X95300666Y-63658761D01*
X95300666Y-63773047D01*
X95262571Y-63925428D01*
X95224476Y-64001619D01*
X95148285Y-64077809D01*
X95034000Y-64115904D01*
X94843523Y-64115904D01*
D14*
X176546190Y-95424761D02*
X176546190Y-97043809D01*
X176641428Y-97234285D01*
X176736666Y-97329523D01*
X176927142Y-97424761D01*
X177308095Y-97424761D01*
X177498571Y-97329523D01*
X177593809Y-97234285D01*
X177689047Y-97043809D01*
X177689047Y-95424761D01*
X178546190Y-97329523D02*
X178831904Y-97424761D01*
X179308095Y-97424761D01*
X179498571Y-97329523D01*
X179593809Y-97234285D01*
X179689047Y-97043809D01*
X179689047Y-96853333D01*
X179593809Y-96662857D01*
X179498571Y-96567619D01*
X179308095Y-96472380D01*
X178927142Y-96377142D01*
X178736666Y-96281904D01*
X178641428Y-96186666D01*
X178546190Y-95996190D01*
X178546190Y-95805714D01*
X178641428Y-95615238D01*
X178736666Y-95520000D01*
X178927142Y-95424761D01*
X179403333Y-95424761D01*
X179689047Y-95520000D01*
X181212857Y-96377142D02*
X181498571Y-96472380D01*
X181593809Y-96567619D01*
X181689047Y-96758095D01*
X181689047Y-97043809D01*
X181593809Y-97234285D01*
X181498571Y-97329523D01*
X181308095Y-97424761D01*
X180546190Y-97424761D01*
X180546190Y-95424761D01*
X181212857Y-95424761D01*
X181403333Y-95520000D01*
X181498571Y-95615238D01*
X181593809Y-95805714D01*
X181593809Y-95996190D01*
X181498571Y-96186666D01*
X181403333Y-96281904D01*
X181212857Y-96377142D01*
X180546190Y-96377142D01*
D12*
X189650666Y-75298000D02*
X189650666Y-74917047D01*
X189936380Y-75374190D02*
X188936380Y-75107523D01*
X189936380Y-74840857D01*
X189936380Y-74574190D02*
X188936380Y-74574190D01*
X189936380Y-74117047D01*
X188936380Y-74117047D01*
X189650666Y-73774190D02*
X189650666Y-73393238D01*
X189936380Y-73850380D02*
X188936380Y-73583714D01*
X189936380Y-73317047D01*
X188936380Y-72555142D02*
X189936380Y-72288476D01*
X188936380Y-72021809D01*
X189841142Y-71298000D02*
X189888761Y-71336095D01*
X189936380Y-71450380D01*
X189936380Y-71526571D01*
X189888761Y-71640857D01*
X189793523Y-71717047D01*
X189698285Y-71755142D01*
X189507809Y-71793238D01*
X189364952Y-71793238D01*
X189174476Y-71755142D01*
X189079238Y-71717047D01*
X188984000Y-71640857D01*
X188936380Y-71526571D01*
X188936380Y-71450380D01*
X188984000Y-71336095D01*
X189031619Y-71298000D01*
X189841142Y-70498000D02*
X189888761Y-70536095D01*
X189936380Y-70650380D01*
X189936380Y-70726571D01*
X189888761Y-70840857D01*
X189793523Y-70917047D01*
X189698285Y-70955142D01*
X189507809Y-70993238D01*
X189364952Y-70993238D01*
X189174476Y-70955142D01*
X189079238Y-70917047D01*
X188984000Y-70840857D01*
X188936380Y-70726571D01*
X188936380Y-70650380D01*
X188984000Y-70536095D01*
X189031619Y-70498000D01*
X151898666Y-132949904D02*
X151898666Y-132149904D01*
X152165333Y-132721333D01*
X152432000Y-132149904D01*
X152432000Y-132949904D01*
X152812952Y-132530857D02*
X153079619Y-132530857D01*
X153193904Y-132949904D02*
X152812952Y-132949904D01*
X152812952Y-132149904D01*
X153193904Y-132149904D01*
X153536761Y-132949904D02*
X153536761Y-132149904D01*
X153803428Y-132721333D01*
X154070095Y-132149904D01*
X154070095Y-132949904D01*
X154946285Y-132149904D02*
X155212952Y-132949904D01*
X155479619Y-132149904D01*
X156203428Y-132873714D02*
X156165333Y-132911809D01*
X156051047Y-132949904D01*
X155974857Y-132949904D01*
X155860571Y-132911809D01*
X155784380Y-132835619D01*
X155746285Y-132759428D01*
X155708190Y-132607047D01*
X155708190Y-132492761D01*
X155746285Y-132340380D01*
X155784380Y-132264190D01*
X155860571Y-132188000D01*
X155974857Y-132149904D01*
X156051047Y-132149904D01*
X156165333Y-132188000D01*
X156203428Y-132226095D01*
X157003428Y-132873714D02*
X156965333Y-132911809D01*
X156851047Y-132949904D01*
X156774857Y-132949904D01*
X156660571Y-132911809D01*
X156584380Y-132835619D01*
X156546285Y-132759428D01*
X156508190Y-132607047D01*
X156508190Y-132492761D01*
X156546285Y-132340380D01*
X156584380Y-132264190D01*
X156660571Y-132188000D01*
X156774857Y-132149904D01*
X156851047Y-132149904D01*
X156965333Y-132188000D01*
X157003428Y-132226095D01*
X91288000Y-81349904D02*
X91288000Y-81997523D01*
X91326095Y-82073714D01*
X91364190Y-82111809D01*
X91440380Y-82149904D01*
X91592761Y-82149904D01*
X91668952Y-82111809D01*
X91707047Y-82073714D01*
X91745142Y-81997523D01*
X91745142Y-81349904D01*
X92088000Y-82111809D02*
X92202285Y-82149904D01*
X92392761Y-82149904D01*
X92468952Y-82111809D01*
X92507047Y-82073714D01*
X92545142Y-81997523D01*
X92545142Y-81921333D01*
X92507047Y-81845142D01*
X92468952Y-81807047D01*
X92392761Y-81768952D01*
X92240380Y-81730857D01*
X92164190Y-81692761D01*
X92126095Y-81654666D01*
X92088000Y-81578476D01*
X92088000Y-81502285D01*
X92126095Y-81426095D01*
X92164190Y-81388000D01*
X92240380Y-81349904D01*
X92430857Y-81349904D01*
X92545142Y-81388000D01*
X93154666Y-81730857D02*
X93268952Y-81768952D01*
X93307047Y-81807047D01*
X93345142Y-81883238D01*
X93345142Y-81997523D01*
X93307047Y-82073714D01*
X93268952Y-82111809D01*
X93192761Y-82149904D01*
X92888000Y-82149904D01*
X92888000Y-81349904D01*
X93154666Y-81349904D01*
X93230857Y-81388000D01*
X93268952Y-81426095D01*
X93307047Y-81502285D01*
X93307047Y-81578476D01*
X93268952Y-81654666D01*
X93230857Y-81692761D01*
X93154666Y-81730857D01*
X92888000Y-81730857D01*
X94297523Y-82149904D02*
X94297523Y-81349904D01*
X94488000Y-81349904D01*
X94602285Y-81388000D01*
X94678476Y-81464190D01*
X94716571Y-81540380D01*
X94754666Y-81692761D01*
X94754666Y-81807047D01*
X94716571Y-81959428D01*
X94678476Y-82035619D01*
X94602285Y-82111809D01*
X94488000Y-82149904D01*
X94297523Y-82149904D01*
X95402285Y-82111809D02*
X95326095Y-82149904D01*
X95173714Y-82149904D01*
X95097523Y-82111809D01*
X95059428Y-82035619D01*
X95059428Y-81730857D01*
X95097523Y-81654666D01*
X95173714Y-81616571D01*
X95326095Y-81616571D01*
X95402285Y-81654666D01*
X95440380Y-81730857D01*
X95440380Y-81807047D01*
X95059428Y-81883238D01*
X95668952Y-81616571D02*
X95973714Y-81616571D01*
X95783238Y-81349904D02*
X95783238Y-82035619D01*
X95821333Y-82111809D01*
X95897523Y-82149904D01*
X95973714Y-82149904D01*
X96545142Y-82111809D02*
X96468952Y-82149904D01*
X96316571Y-82149904D01*
X96240380Y-82111809D01*
X96202285Y-82035619D01*
X96202285Y-81730857D01*
X96240380Y-81654666D01*
X96316571Y-81616571D01*
X96468952Y-81616571D01*
X96545142Y-81654666D01*
X96583238Y-81730857D01*
X96583238Y-81807047D01*
X96202285Y-81883238D01*
X97268952Y-82111809D02*
X97192761Y-82149904D01*
X97040380Y-82149904D01*
X96964190Y-82111809D01*
X96926095Y-82073714D01*
X96888000Y-81997523D01*
X96888000Y-81768952D01*
X96926095Y-81692761D01*
X96964190Y-81654666D01*
X97040380Y-81616571D01*
X97192761Y-81616571D01*
X97268952Y-81654666D01*
X97497523Y-81616571D02*
X97802285Y-81616571D01*
X97611809Y-81349904D02*
X97611809Y-82035619D01*
X97649904Y-82111809D01*
X97726095Y-82149904D01*
X97802285Y-82149904D01*
D11*
X97226380Y-106084666D02*
X96750190Y-106418000D01*
X97226380Y-106656095D02*
X96226380Y-106656095D01*
X96226380Y-106275142D01*
X96274000Y-106179904D01*
X96321619Y-106132285D01*
X96416857Y-106084666D01*
X96559714Y-106084666D01*
X96654952Y-106132285D01*
X96702571Y-106179904D01*
X96750190Y-106275142D01*
X96750190Y-106656095D01*
X96226380Y-105751333D02*
X97226380Y-105084666D01*
X96226380Y-105084666D02*
X97226380Y-105751333D01*
D13*
X174712380Y-64231714D02*
X175712380Y-64031714D01*
X174712380Y-63831714D01*
X175188571Y-63431714D02*
X175236190Y-63346000D01*
X175283809Y-63317428D01*
X175379047Y-63288857D01*
X175521904Y-63288857D01*
X175617142Y-63317428D01*
X175664761Y-63346000D01*
X175712380Y-63403142D01*
X175712380Y-63631714D01*
X174712380Y-63631714D01*
X174712380Y-63431714D01*
X174760000Y-63374571D01*
X174807619Y-63346000D01*
X174902857Y-63317428D01*
X174998095Y-63317428D01*
X175093333Y-63346000D01*
X175140952Y-63374571D01*
X175188571Y-63431714D01*
X175188571Y-63631714D01*
X175426666Y-63060285D02*
X175426666Y-62774571D01*
X175712380Y-63117428D02*
X174712380Y-62917428D01*
X175712380Y-62717428D01*
X174712380Y-62603142D02*
X174712380Y-62260285D01*
X175712380Y-62431714D02*
X174712380Y-62431714D01*
X186334476Y-128786000D02*
X186258285Y-128738380D01*
X186144000Y-128738380D01*
X186029714Y-128786000D01*
X185953523Y-128881238D01*
X185915428Y-128976476D01*
X185877333Y-129166952D01*
X185877333Y-129309809D01*
X185915428Y-129500285D01*
X185953523Y-129595523D01*
X186029714Y-129690761D01*
X186144000Y-129738380D01*
X186220190Y-129738380D01*
X186334476Y-129690761D01*
X186372571Y-129643142D01*
X186372571Y-129309809D01*
X186220190Y-129309809D01*
X186715428Y-129738380D02*
X186715428Y-128738380D01*
X187172571Y-129738380D01*
X187172571Y-128738380D01*
X187553523Y-129738380D02*
X187553523Y-128738380D01*
X187744000Y-128738380D01*
X187858285Y-128786000D01*
X187934476Y-128881238D01*
X187972571Y-128976476D01*
X188010666Y-129166952D01*
X188010666Y-129309809D01*
X187972571Y-129500285D01*
X187934476Y-129595523D01*
X187858285Y-129690761D01*
X187744000Y-129738380D01*
X187553523Y-129738380D01*
D12*
X91687904Y-87699904D02*
X91687904Y-88347523D01*
X91726000Y-88423714D01*
X91764095Y-88461809D01*
X91840285Y-88499904D01*
X91992666Y-88499904D01*
X92068857Y-88461809D01*
X92106952Y-88423714D01*
X92145047Y-88347523D01*
X92145047Y-87699904D01*
X92487904Y-88461809D02*
X92602190Y-88499904D01*
X92792666Y-88499904D01*
X92868857Y-88461809D01*
X92906952Y-88423714D01*
X92945047Y-88347523D01*
X92945047Y-88271333D01*
X92906952Y-88195142D01*
X92868857Y-88157047D01*
X92792666Y-88118952D01*
X92640285Y-88080857D01*
X92564095Y-88042761D01*
X92526000Y-88004666D01*
X92487904Y-87928476D01*
X92487904Y-87852285D01*
X92526000Y-87776095D01*
X92564095Y-87738000D01*
X92640285Y-87699904D01*
X92830761Y-87699904D01*
X92945047Y-87738000D01*
X93554571Y-88080857D02*
X93668857Y-88118952D01*
X93706952Y-88157047D01*
X93745047Y-88233238D01*
X93745047Y-88347523D01*
X93706952Y-88423714D01*
X93668857Y-88461809D01*
X93592666Y-88499904D01*
X93287904Y-88499904D01*
X93287904Y-87699904D01*
X93554571Y-87699904D01*
X93630761Y-87738000D01*
X93668857Y-87776095D01*
X93706952Y-87852285D01*
X93706952Y-87928476D01*
X93668857Y-88004666D01*
X93630761Y-88042761D01*
X93554571Y-88080857D01*
X93287904Y-88080857D01*
X95078380Y-87699904D02*
X94697428Y-87699904D01*
X94659333Y-88080857D01*
X94697428Y-88042761D01*
X94773619Y-88004666D01*
X94964095Y-88004666D01*
X95040285Y-88042761D01*
X95078380Y-88080857D01*
X95116476Y-88157047D01*
X95116476Y-88347523D01*
X95078380Y-88423714D01*
X95040285Y-88461809D01*
X94964095Y-88499904D01*
X94773619Y-88499904D01*
X94697428Y-88461809D01*
X94659333Y-88423714D01*
X95345047Y-87699904D02*
X95611714Y-88499904D01*
X95878380Y-87699904D01*
D13*
%TO.C,D2*%
X186205904Y-85537380D02*
X186205904Y-84537380D01*
X186444000Y-84537380D01*
X186586857Y-84585000D01*
X186682095Y-84680238D01*
X186729714Y-84775476D01*
X186777333Y-84965952D01*
X186777333Y-85108809D01*
X186729714Y-85299285D01*
X186682095Y-85394523D01*
X186586857Y-85489761D01*
X186444000Y-85537380D01*
X186205904Y-85537380D01*
X187158285Y-84632619D02*
X187205904Y-84585000D01*
X187301142Y-84537380D01*
X187539238Y-84537380D01*
X187634476Y-84585000D01*
X187682095Y-84632619D01*
X187729714Y-84727857D01*
X187729714Y-84823095D01*
X187682095Y-84965952D01*
X187110666Y-85537380D01*
X187729714Y-85537380D01*
%TO.C,TP2*%
X91202380Y-72111904D02*
X91202380Y-71540476D01*
X92202380Y-71826190D02*
X91202380Y-71826190D01*
X92202380Y-71207142D02*
X91202380Y-71207142D01*
X91202380Y-70826190D01*
X91250000Y-70730952D01*
X91297619Y-70683333D01*
X91392857Y-70635714D01*
X91535714Y-70635714D01*
X91630952Y-70683333D01*
X91678571Y-70730952D01*
X91726190Y-70826190D01*
X91726190Y-71207142D01*
X91297619Y-70254761D02*
X91250000Y-70207142D01*
X91202380Y-70111904D01*
X91202380Y-69873809D01*
X91250000Y-69778571D01*
X91297619Y-69730952D01*
X91392857Y-69683333D01*
X91488095Y-69683333D01*
X91630952Y-69730952D01*
X92202380Y-70302380D01*
X92202380Y-69683333D01*
%TO.C,C4*%
X156551333Y-105259142D02*
X156503714Y-105306761D01*
X156360857Y-105354380D01*
X156265619Y-105354380D01*
X156122761Y-105306761D01*
X156027523Y-105211523D01*
X155979904Y-105116285D01*
X155932285Y-104925809D01*
X155932285Y-104782952D01*
X155979904Y-104592476D01*
X156027523Y-104497238D01*
X156122761Y-104402000D01*
X156265619Y-104354380D01*
X156360857Y-104354380D01*
X156503714Y-104402000D01*
X156551333Y-104449619D01*
X157408476Y-104687714D02*
X157408476Y-105354380D01*
X157170380Y-104306761D02*
X156932285Y-105021047D01*
X157551333Y-105021047D01*
%TO.C,TP12*%
X91146380Y-107656095D02*
X91146380Y-107084666D01*
X92146380Y-107370380D02*
X91146380Y-107370380D01*
X92146380Y-106751333D02*
X91146380Y-106751333D01*
X91146380Y-106370380D01*
X91194000Y-106275142D01*
X91241619Y-106227523D01*
X91336857Y-106179904D01*
X91479714Y-106179904D01*
X91574952Y-106227523D01*
X91622571Y-106275142D01*
X91670190Y-106370380D01*
X91670190Y-106751333D01*
X92146380Y-105227523D02*
X92146380Y-105798952D01*
X92146380Y-105513238D02*
X91146380Y-105513238D01*
X91289238Y-105608476D01*
X91384476Y-105703714D01*
X91432095Y-105798952D01*
X91241619Y-104846571D02*
X91194000Y-104798952D01*
X91146380Y-104703714D01*
X91146380Y-104465619D01*
X91194000Y-104370380D01*
X91241619Y-104322761D01*
X91336857Y-104275142D01*
X91432095Y-104275142D01*
X91574952Y-104322761D01*
X92146380Y-104894190D01*
X92146380Y-104275142D01*
%TO.C,R16*%
X98925142Y-83002380D02*
X98591809Y-82526190D01*
X98353714Y-83002380D02*
X98353714Y-82002380D01*
X98734666Y-82002380D01*
X98829904Y-82050000D01*
X98877523Y-82097619D01*
X98925142Y-82192857D01*
X98925142Y-82335714D01*
X98877523Y-82430952D01*
X98829904Y-82478571D01*
X98734666Y-82526190D01*
X98353714Y-82526190D01*
X99877523Y-83002380D02*
X99306095Y-83002380D01*
X99591809Y-83002380D02*
X99591809Y-82002380D01*
X99496571Y-82145238D01*
X99401333Y-82240476D01*
X99306095Y-82288095D01*
X100734666Y-82002380D02*
X100544190Y-82002380D01*
X100448952Y-82050000D01*
X100401333Y-82097619D01*
X100306095Y-82240476D01*
X100258476Y-82430952D01*
X100258476Y-82811904D01*
X100306095Y-82907142D01*
X100353714Y-82954761D01*
X100448952Y-83002380D01*
X100639428Y-83002380D01*
X100734666Y-82954761D01*
X100782285Y-82907142D01*
X100829904Y-82811904D01*
X100829904Y-82573809D01*
X100782285Y-82478571D01*
X100734666Y-82430952D01*
X100639428Y-82383333D01*
X100448952Y-82383333D01*
X100353714Y-82430952D01*
X100306095Y-82478571D01*
X100258476Y-82573809D01*
%TO.C,R6*%
X162901333Y-103576380D02*
X162568000Y-103100190D01*
X162329904Y-103576380D02*
X162329904Y-102576380D01*
X162710857Y-102576380D01*
X162806095Y-102624000D01*
X162853714Y-102671619D01*
X162901333Y-102766857D01*
X162901333Y-102909714D01*
X162853714Y-103004952D01*
X162806095Y-103052571D01*
X162710857Y-103100190D01*
X162329904Y-103100190D01*
X163758476Y-102576380D02*
X163568000Y-102576380D01*
X163472761Y-102624000D01*
X163425142Y-102671619D01*
X163329904Y-102814476D01*
X163282285Y-103004952D01*
X163282285Y-103385904D01*
X163329904Y-103481142D01*
X163377523Y-103528761D01*
X163472761Y-103576380D01*
X163663238Y-103576380D01*
X163758476Y-103528761D01*
X163806095Y-103481142D01*
X163853714Y-103385904D01*
X163853714Y-103147809D01*
X163806095Y-103052571D01*
X163758476Y-103004952D01*
X163663238Y-102957333D01*
X163472761Y-102957333D01*
X163377523Y-103004952D01*
X163329904Y-103052571D01*
X163282285Y-103147809D01*
%TO.C,R14*%
X183385714Y-77761904D02*
X183119047Y-77380952D01*
X182928571Y-77761904D02*
X182928571Y-76961904D01*
X183233333Y-76961904D01*
X183309523Y-77000000D01*
X183347619Y-77038095D01*
X183385714Y-77114285D01*
X183385714Y-77228571D01*
X183347619Y-77304761D01*
X183309523Y-77342857D01*
X183233333Y-77380952D01*
X182928571Y-77380952D01*
X184147619Y-77761904D02*
X183690476Y-77761904D01*
X183919047Y-77761904D02*
X183919047Y-76961904D01*
X183842857Y-77076190D01*
X183766666Y-77152380D01*
X183690476Y-77190476D01*
X184833333Y-77228571D02*
X184833333Y-77761904D01*
X184642857Y-76923809D02*
X184452380Y-77495238D01*
X184947619Y-77495238D01*
%TO.C,D6*%
X104592380Y-91670095D02*
X103592380Y-91670095D01*
X103592380Y-91432000D01*
X103640000Y-91289142D01*
X103735238Y-91193904D01*
X103830476Y-91146285D01*
X104020952Y-91098666D01*
X104163809Y-91098666D01*
X104354285Y-91146285D01*
X104449523Y-91193904D01*
X104544761Y-91289142D01*
X104592380Y-91432000D01*
X104592380Y-91670095D01*
X103592380Y-90241523D02*
X103592380Y-90432000D01*
X103640000Y-90527238D01*
X103687619Y-90574857D01*
X103830476Y-90670095D01*
X104020952Y-90717714D01*
X104401904Y-90717714D01*
X104497142Y-90670095D01*
X104544761Y-90622476D01*
X104592380Y-90527238D01*
X104592380Y-90336761D01*
X104544761Y-90241523D01*
X104497142Y-90193904D01*
X104401904Y-90146285D01*
X104163809Y-90146285D01*
X104068571Y-90193904D01*
X104020952Y-90241523D01*
X103973333Y-90336761D01*
X103973333Y-90527238D01*
X104020952Y-90622476D01*
X104068571Y-90670095D01*
X104163809Y-90717714D01*
%TO.C,R15*%
X104157142Y-84952380D02*
X103823809Y-84476190D01*
X103585714Y-84952380D02*
X103585714Y-83952380D01*
X103966666Y-83952380D01*
X104061904Y-84000000D01*
X104109523Y-84047619D01*
X104157142Y-84142857D01*
X104157142Y-84285714D01*
X104109523Y-84380952D01*
X104061904Y-84428571D01*
X103966666Y-84476190D01*
X103585714Y-84476190D01*
X105109523Y-84952380D02*
X104538095Y-84952380D01*
X104823809Y-84952380D02*
X104823809Y-83952380D01*
X104728571Y-84095238D01*
X104633333Y-84190476D01*
X104538095Y-84238095D01*
X106014285Y-83952380D02*
X105538095Y-83952380D01*
X105490476Y-84428571D01*
X105538095Y-84380952D01*
X105633333Y-84333333D01*
X105871428Y-84333333D01*
X105966666Y-84380952D01*
X106014285Y-84428571D01*
X106061904Y-84523809D01*
X106061904Y-84761904D01*
X106014285Y-84857142D01*
X105966666Y-84904761D01*
X105871428Y-84952380D01*
X105633333Y-84952380D01*
X105538095Y-84904761D01*
X105490476Y-84857142D01*
%TO.C,R13*%
X158440380Y-110116857D02*
X157964190Y-110450190D01*
X158440380Y-110688285D02*
X157440380Y-110688285D01*
X157440380Y-110307333D01*
X157488000Y-110212095D01*
X157535619Y-110164476D01*
X157630857Y-110116857D01*
X157773714Y-110116857D01*
X157868952Y-110164476D01*
X157916571Y-110212095D01*
X157964190Y-110307333D01*
X157964190Y-110688285D01*
X158440380Y-109164476D02*
X158440380Y-109735904D01*
X158440380Y-109450190D02*
X157440380Y-109450190D01*
X157583238Y-109545428D01*
X157678476Y-109640666D01*
X157726095Y-109735904D01*
X157440380Y-108831142D02*
X157440380Y-108212095D01*
X157821333Y-108545428D01*
X157821333Y-108402571D01*
X157868952Y-108307333D01*
X157916571Y-108259714D01*
X158011809Y-108212095D01*
X158249904Y-108212095D01*
X158345142Y-108259714D01*
X158392761Y-108307333D01*
X158440380Y-108402571D01*
X158440380Y-108688285D01*
X158392761Y-108783523D01*
X158345142Y-108831142D01*
%TO.C,TP9*%
X189190380Y-111243904D02*
X189190380Y-110672476D01*
X190190380Y-110958190D02*
X189190380Y-110958190D01*
X190190380Y-110339142D02*
X189190380Y-110339142D01*
X189190380Y-109958190D01*
X189238000Y-109862952D01*
X189285619Y-109815333D01*
X189380857Y-109767714D01*
X189523714Y-109767714D01*
X189618952Y-109815333D01*
X189666571Y-109862952D01*
X189714190Y-109958190D01*
X189714190Y-110339142D01*
X190190380Y-109291523D02*
X190190380Y-109101047D01*
X190142761Y-109005809D01*
X190095142Y-108958190D01*
X189952285Y-108862952D01*
X189761809Y-108815333D01*
X189380857Y-108815333D01*
X189285619Y-108862952D01*
X189238000Y-108910571D01*
X189190380Y-109005809D01*
X189190380Y-109196285D01*
X189238000Y-109291523D01*
X189285619Y-109339142D01*
X189380857Y-109386761D01*
X189618952Y-109386761D01*
X189714190Y-109339142D01*
X189761809Y-109291523D01*
X189809428Y-109196285D01*
X189809428Y-109005809D01*
X189761809Y-108910571D01*
X189714190Y-108862952D01*
X189618952Y-108815333D01*
%TO.C,U4*%
X93788095Y-102802380D02*
X93788095Y-103611904D01*
X93835714Y-103707142D01*
X93883333Y-103754761D01*
X93978571Y-103802380D01*
X94169047Y-103802380D01*
X94264285Y-103754761D01*
X94311904Y-103707142D01*
X94359523Y-103611904D01*
X94359523Y-102802380D01*
X95264285Y-103135714D02*
X95264285Y-103802380D01*
X95026190Y-102754761D02*
X94788095Y-103469047D01*
X95407142Y-103469047D01*
%TO.C,TP8*%
X189190380Y-119879904D02*
X189190380Y-119308476D01*
X190190380Y-119594190D02*
X189190380Y-119594190D01*
X190190380Y-118975142D02*
X189190380Y-118975142D01*
X189190380Y-118594190D01*
X189238000Y-118498952D01*
X189285619Y-118451333D01*
X189380857Y-118403714D01*
X189523714Y-118403714D01*
X189618952Y-118451333D01*
X189666571Y-118498952D01*
X189714190Y-118594190D01*
X189714190Y-118975142D01*
X189618952Y-117832285D02*
X189571333Y-117927523D01*
X189523714Y-117975142D01*
X189428476Y-118022761D01*
X189380857Y-118022761D01*
X189285619Y-117975142D01*
X189238000Y-117927523D01*
X189190380Y-117832285D01*
X189190380Y-117641809D01*
X189238000Y-117546571D01*
X189285619Y-117498952D01*
X189380857Y-117451333D01*
X189428476Y-117451333D01*
X189523714Y-117498952D01*
X189571333Y-117546571D01*
X189618952Y-117641809D01*
X189618952Y-117832285D01*
X189666571Y-117927523D01*
X189714190Y-117975142D01*
X189809428Y-118022761D01*
X189999904Y-118022761D01*
X190095142Y-117975142D01*
X190142761Y-117927523D01*
X190190380Y-117832285D01*
X190190380Y-117641809D01*
X190142761Y-117546571D01*
X190095142Y-117498952D01*
X189999904Y-117451333D01*
X189809428Y-117451333D01*
X189714190Y-117498952D01*
X189666571Y-117546571D01*
X189618952Y-117641809D01*
%TO.C,R11*%
X177707142Y-69652380D02*
X177373809Y-69176190D01*
X177135714Y-69652380D02*
X177135714Y-68652380D01*
X177516666Y-68652380D01*
X177611904Y-68700000D01*
X177659523Y-68747619D01*
X177707142Y-68842857D01*
X177707142Y-68985714D01*
X177659523Y-69080952D01*
X177611904Y-69128571D01*
X177516666Y-69176190D01*
X177135714Y-69176190D01*
X178659523Y-69652380D02*
X178088095Y-69652380D01*
X178373809Y-69652380D02*
X178373809Y-68652380D01*
X178278571Y-68795238D01*
X178183333Y-68890476D01*
X178088095Y-68938095D01*
X179611904Y-69652380D02*
X179040476Y-69652380D01*
X179326190Y-69652380D02*
X179326190Y-68652380D01*
X179230952Y-68795238D01*
X179135714Y-68890476D01*
X179040476Y-68938095D01*
%TO.C,TP17*%
X152761904Y-137120380D02*
X153333333Y-137120380D01*
X153047619Y-138120380D02*
X153047619Y-137120380D01*
X153666666Y-138120380D02*
X153666666Y-137120380D01*
X154047619Y-137120380D01*
X154142857Y-137168000D01*
X154190476Y-137215619D01*
X154238095Y-137310857D01*
X154238095Y-137453714D01*
X154190476Y-137548952D01*
X154142857Y-137596571D01*
X154047619Y-137644190D01*
X153666666Y-137644190D01*
X155190476Y-138120380D02*
X154619047Y-138120380D01*
X154904761Y-138120380D02*
X154904761Y-137120380D01*
X154809523Y-137263238D01*
X154714285Y-137358476D01*
X154619047Y-137406095D01*
X155523809Y-137120380D02*
X156190476Y-137120380D01*
X155761904Y-138120380D01*
%TO.C,C7*%
X105259142Y-101911666D02*
X105306761Y-101959285D01*
X105354380Y-102102142D01*
X105354380Y-102197380D01*
X105306761Y-102340238D01*
X105211523Y-102435476D01*
X105116285Y-102483095D01*
X104925809Y-102530714D01*
X104782952Y-102530714D01*
X104592476Y-102483095D01*
X104497238Y-102435476D01*
X104402000Y-102340238D01*
X104354380Y-102197380D01*
X104354380Y-102102142D01*
X104402000Y-101959285D01*
X104449619Y-101911666D01*
X104354380Y-101578333D02*
X104354380Y-100911666D01*
X105354380Y-101340238D01*
%TO.C,R8*%
X176433333Y-79752380D02*
X176100000Y-79276190D01*
X175861904Y-79752380D02*
X175861904Y-78752380D01*
X176242857Y-78752380D01*
X176338095Y-78800000D01*
X176385714Y-78847619D01*
X176433333Y-78942857D01*
X176433333Y-79085714D01*
X176385714Y-79180952D01*
X176338095Y-79228571D01*
X176242857Y-79276190D01*
X175861904Y-79276190D01*
X177004761Y-79180952D02*
X176909523Y-79133333D01*
X176861904Y-79085714D01*
X176814285Y-78990476D01*
X176814285Y-78942857D01*
X176861904Y-78847619D01*
X176909523Y-78800000D01*
X177004761Y-78752380D01*
X177195238Y-78752380D01*
X177290476Y-78800000D01*
X177338095Y-78847619D01*
X177385714Y-78942857D01*
X177385714Y-78990476D01*
X177338095Y-79085714D01*
X177290476Y-79133333D01*
X177195238Y-79180952D01*
X177004761Y-79180952D01*
X176909523Y-79228571D01*
X176861904Y-79276190D01*
X176814285Y-79371428D01*
X176814285Y-79561904D01*
X176861904Y-79657142D01*
X176909523Y-79704761D01*
X177004761Y-79752380D01*
X177195238Y-79752380D01*
X177290476Y-79704761D01*
X177338095Y-79657142D01*
X177385714Y-79561904D01*
X177385714Y-79371428D01*
X177338095Y-79276190D01*
X177290476Y-79228571D01*
X177195238Y-79180952D01*
%TO.C,D4*%
X151561904Y-85002380D02*
X151561904Y-84002380D01*
X151800000Y-84002380D01*
X151942857Y-84050000D01*
X152038095Y-84145238D01*
X152085714Y-84240476D01*
X152133333Y-84430952D01*
X152133333Y-84573809D01*
X152085714Y-84764285D01*
X152038095Y-84859523D01*
X151942857Y-84954761D01*
X151800000Y-85002380D01*
X151561904Y-85002380D01*
X152990476Y-84335714D02*
X152990476Y-85002380D01*
X152752380Y-83954761D02*
X152514285Y-84669047D01*
X153133333Y-84669047D01*
%TO.C,U5*%
X108438095Y-107752380D02*
X108438095Y-108561904D01*
X108485714Y-108657142D01*
X108533333Y-108704761D01*
X108628571Y-108752380D01*
X108819047Y-108752380D01*
X108914285Y-108704761D01*
X108961904Y-108657142D01*
X109009523Y-108561904D01*
X109009523Y-107752380D01*
X109961904Y-107752380D02*
X109485714Y-107752380D01*
X109438095Y-108228571D01*
X109485714Y-108180952D01*
X109580952Y-108133333D01*
X109819047Y-108133333D01*
X109914285Y-108180952D01*
X109961904Y-108228571D01*
X110009523Y-108323809D01*
X110009523Y-108561904D01*
X109961904Y-108657142D01*
X109914285Y-108704761D01*
X109819047Y-108752380D01*
X109580952Y-108752380D01*
X109485714Y-108704761D01*
X109438095Y-108657142D01*
%TO.C,C1*%
X148833333Y-81907142D02*
X148785714Y-81954761D01*
X148642857Y-82002380D01*
X148547619Y-82002380D01*
X148404761Y-81954761D01*
X148309523Y-81859523D01*
X148261904Y-81764285D01*
X148214285Y-81573809D01*
X148214285Y-81430952D01*
X148261904Y-81240476D01*
X148309523Y-81145238D01*
X148404761Y-81050000D01*
X148547619Y-81002380D01*
X148642857Y-81002380D01*
X148785714Y-81050000D01*
X148833333Y-81097619D01*
X149785714Y-82002380D02*
X149214285Y-82002380D01*
X149500000Y-82002380D02*
X149500000Y-81002380D01*
X149404761Y-81145238D01*
X149309523Y-81240476D01*
X149214285Y-81288095D01*
%TO.C,R3*%
X159633333Y-83652380D02*
X159300000Y-83176190D01*
X159061904Y-83652380D02*
X159061904Y-82652380D01*
X159442857Y-82652380D01*
X159538095Y-82700000D01*
X159585714Y-82747619D01*
X159633333Y-82842857D01*
X159633333Y-82985714D01*
X159585714Y-83080952D01*
X159538095Y-83128571D01*
X159442857Y-83176190D01*
X159061904Y-83176190D01*
X159966666Y-82652380D02*
X160585714Y-82652380D01*
X160252380Y-83033333D01*
X160395238Y-83033333D01*
X160490476Y-83080952D01*
X160538095Y-83128571D01*
X160585714Y-83223809D01*
X160585714Y-83461904D01*
X160538095Y-83557142D01*
X160490476Y-83604761D01*
X160395238Y-83652380D01*
X160109523Y-83652380D01*
X160014285Y-83604761D01*
X159966666Y-83557142D01*
%TO.C,U6*%
X141533353Y-128864488D02*
X141533353Y-129675331D01*
X141581050Y-129770725D01*
X141628746Y-129818421D01*
X141724140Y-129866118D01*
X141914926Y-129866118D01*
X142010320Y-129818421D01*
X142058016Y-129770725D01*
X142105713Y-129675331D01*
X142105713Y-128864488D01*
X143011950Y-128864488D02*
X142821163Y-128864488D01*
X142725770Y-128912185D01*
X142678073Y-128959881D01*
X142582680Y-129102971D01*
X142534983Y-129293758D01*
X142534983Y-129675331D01*
X142582680Y-129770725D01*
X142630376Y-129818421D01*
X142725770Y-129866118D01*
X142916556Y-129866118D01*
X143011950Y-129818421D01*
X143059646Y-129770725D01*
X143107343Y-129675331D01*
X143107343Y-129436848D01*
X143059646Y-129341455D01*
X143011950Y-129293758D01*
X142916556Y-129246061D01*
X142725770Y-129246061D01*
X142630376Y-129293758D01*
X142582680Y-129341455D01*
X142534983Y-129436848D01*
%TO.C,R12*%
X182467857Y-70252380D02*
X182217857Y-69776190D01*
X182039285Y-70252380D02*
X182039285Y-69252380D01*
X182325000Y-69252380D01*
X182396428Y-69300000D01*
X182432142Y-69347619D01*
X182467857Y-69442857D01*
X182467857Y-69585714D01*
X182432142Y-69680952D01*
X182396428Y-69728571D01*
X182325000Y-69776190D01*
X182039285Y-69776190D01*
X183182142Y-70252380D02*
X182753571Y-70252380D01*
X182967857Y-70252380D02*
X182967857Y-69252380D01*
X182896428Y-69395238D01*
X182825000Y-69490476D01*
X182753571Y-69538095D01*
X183467857Y-69347619D02*
X183503571Y-69300000D01*
X183575000Y-69252380D01*
X183753571Y-69252380D01*
X183825000Y-69300000D01*
X183860714Y-69347619D01*
X183896428Y-69442857D01*
X183896428Y-69538095D01*
X183860714Y-69680952D01*
X183432142Y-70252380D01*
X183896428Y-70252380D01*
%TO.C,U2*%
X164588095Y-98302380D02*
X164588095Y-99111904D01*
X164635714Y-99207142D01*
X164683333Y-99254761D01*
X164778571Y-99302380D01*
X164969047Y-99302380D01*
X165064285Y-99254761D01*
X165111904Y-99207142D01*
X165159523Y-99111904D01*
X165159523Y-98302380D01*
X165588095Y-98397619D02*
X165635714Y-98350000D01*
X165730952Y-98302380D01*
X165969047Y-98302380D01*
X166064285Y-98350000D01*
X166111904Y-98397619D01*
X166159523Y-98492857D01*
X166159523Y-98588095D01*
X166111904Y-98730952D01*
X165540476Y-99302380D01*
X166159523Y-99302380D01*
%TO.C,R24*%
X162933142Y-107894380D02*
X162599809Y-107418190D01*
X162361714Y-107894380D02*
X162361714Y-106894380D01*
X162742666Y-106894380D01*
X162837904Y-106942000D01*
X162885523Y-106989619D01*
X162933142Y-107084857D01*
X162933142Y-107227714D01*
X162885523Y-107322952D01*
X162837904Y-107370571D01*
X162742666Y-107418190D01*
X162361714Y-107418190D01*
X163314095Y-106989619D02*
X163361714Y-106942000D01*
X163456952Y-106894380D01*
X163695047Y-106894380D01*
X163790285Y-106942000D01*
X163837904Y-106989619D01*
X163885523Y-107084857D01*
X163885523Y-107180095D01*
X163837904Y-107322952D01*
X163266476Y-107894380D01*
X163885523Y-107894380D01*
X164742666Y-107227714D02*
X164742666Y-107894380D01*
X164504571Y-106846761D02*
X164266476Y-107561047D01*
X164885523Y-107561047D01*
%TO.C,J2*%
X181966666Y-78452380D02*
X181966666Y-79166666D01*
X181919047Y-79309523D01*
X181823809Y-79404761D01*
X181680952Y-79452380D01*
X181585714Y-79452380D01*
X182395238Y-78547619D02*
X182442857Y-78500000D01*
X182538095Y-78452380D01*
X182776190Y-78452380D01*
X182871428Y-78500000D01*
X182919047Y-78547619D01*
X182966666Y-78642857D01*
X182966666Y-78738095D01*
X182919047Y-78880952D01*
X182347619Y-79452380D01*
X182966666Y-79452380D01*
%TO.C,R23*%
X132532380Y-136532857D02*
X132056190Y-136866190D01*
X132532380Y-137104285D02*
X131532380Y-137104285D01*
X131532380Y-136723333D01*
X131580000Y-136628095D01*
X131627619Y-136580476D01*
X131722857Y-136532857D01*
X131865714Y-136532857D01*
X131960952Y-136580476D01*
X132008571Y-136628095D01*
X132056190Y-136723333D01*
X132056190Y-137104285D01*
X131627619Y-136151904D02*
X131580000Y-136104285D01*
X131532380Y-136009047D01*
X131532380Y-135770952D01*
X131580000Y-135675714D01*
X131627619Y-135628095D01*
X131722857Y-135580476D01*
X131818095Y-135580476D01*
X131960952Y-135628095D01*
X132532380Y-136199523D01*
X132532380Y-135580476D01*
X131532380Y-135247142D02*
X131532380Y-134628095D01*
X131913333Y-134961428D01*
X131913333Y-134818571D01*
X131960952Y-134723333D01*
X132008571Y-134675714D01*
X132103809Y-134628095D01*
X132341904Y-134628095D01*
X132437142Y-134675714D01*
X132484761Y-134723333D01*
X132532380Y-134818571D01*
X132532380Y-135104285D01*
X132484761Y-135199523D01*
X132437142Y-135247142D01*
%TO.C,Q2*%
X182665619Y-109823238D02*
X182618000Y-109918476D01*
X182522761Y-110013714D01*
X182379904Y-110156571D01*
X182332285Y-110251809D01*
X182332285Y-110347047D01*
X182570380Y-110299428D02*
X182522761Y-110394666D01*
X182427523Y-110489904D01*
X182237047Y-110537523D01*
X181903714Y-110537523D01*
X181713238Y-110489904D01*
X181618000Y-110394666D01*
X181570380Y-110299428D01*
X181570380Y-110108952D01*
X181618000Y-110013714D01*
X181713238Y-109918476D01*
X181903714Y-109870857D01*
X182237047Y-109870857D01*
X182427523Y-109918476D01*
X182522761Y-110013714D01*
X182570380Y-110108952D01*
X182570380Y-110299428D01*
X181665619Y-109489904D02*
X181618000Y-109442285D01*
X181570380Y-109347047D01*
X181570380Y-109108952D01*
X181618000Y-109013714D01*
X181665619Y-108966095D01*
X181760857Y-108918476D01*
X181856095Y-108918476D01*
X181998952Y-108966095D01*
X182570380Y-109537523D01*
X182570380Y-108918476D01*
%TO.C,TP6*%
X189302380Y-123943904D02*
X189302380Y-123372476D01*
X190302380Y-123658190D02*
X189302380Y-123658190D01*
X190302380Y-123039142D02*
X189302380Y-123039142D01*
X189302380Y-122658190D01*
X189350000Y-122562952D01*
X189397619Y-122515333D01*
X189492857Y-122467714D01*
X189635714Y-122467714D01*
X189730952Y-122515333D01*
X189778571Y-122562952D01*
X189826190Y-122658190D01*
X189826190Y-123039142D01*
X189302380Y-121610571D02*
X189302380Y-121801047D01*
X189350000Y-121896285D01*
X189397619Y-121943904D01*
X189540476Y-122039142D01*
X189730952Y-122086761D01*
X190111904Y-122086761D01*
X190207142Y-122039142D01*
X190254761Y-121991523D01*
X190302380Y-121896285D01*
X190302380Y-121705809D01*
X190254761Y-121610571D01*
X190207142Y-121562952D01*
X190111904Y-121515333D01*
X189873809Y-121515333D01*
X189778571Y-121562952D01*
X189730952Y-121610571D01*
X189683333Y-121705809D01*
X189683333Y-121896285D01*
X189730952Y-121991523D01*
X189778571Y-122039142D01*
X189873809Y-122086761D01*
%TO.C,R10*%
X179697142Y-105736380D02*
X179363809Y-105260190D01*
X179125714Y-105736380D02*
X179125714Y-104736380D01*
X179506666Y-104736380D01*
X179601904Y-104784000D01*
X179649523Y-104831619D01*
X179697142Y-104926857D01*
X179697142Y-105069714D01*
X179649523Y-105164952D01*
X179601904Y-105212571D01*
X179506666Y-105260190D01*
X179125714Y-105260190D01*
X180649523Y-105736380D02*
X180078095Y-105736380D01*
X180363809Y-105736380D02*
X180363809Y-104736380D01*
X180268571Y-104879238D01*
X180173333Y-104974476D01*
X180078095Y-105022095D01*
X181268571Y-104736380D02*
X181363809Y-104736380D01*
X181459047Y-104784000D01*
X181506666Y-104831619D01*
X181554285Y-104926857D01*
X181601904Y-105117333D01*
X181601904Y-105355428D01*
X181554285Y-105545904D01*
X181506666Y-105641142D01*
X181459047Y-105688761D01*
X181363809Y-105736380D01*
X181268571Y-105736380D01*
X181173333Y-105688761D01*
X181125714Y-105641142D01*
X181078095Y-105545904D01*
X181030476Y-105355428D01*
X181030476Y-105117333D01*
X181078095Y-104926857D01*
X181125714Y-104831619D01*
X181173333Y-104784000D01*
X181268571Y-104736380D01*
%TO.C,D3*%
X155461904Y-102802380D02*
X155461904Y-101802380D01*
X155700000Y-101802380D01*
X155842857Y-101850000D01*
X155938095Y-101945238D01*
X155985714Y-102040476D01*
X156033333Y-102230952D01*
X156033333Y-102373809D01*
X155985714Y-102564285D01*
X155938095Y-102659523D01*
X155842857Y-102754761D01*
X155700000Y-102802380D01*
X155461904Y-102802380D01*
X156366666Y-101802380D02*
X156985714Y-101802380D01*
X156652380Y-102183333D01*
X156795238Y-102183333D01*
X156890476Y-102230952D01*
X156938095Y-102278571D01*
X156985714Y-102373809D01*
X156985714Y-102611904D01*
X156938095Y-102707142D01*
X156890476Y-102754761D01*
X156795238Y-102802380D01*
X156509523Y-102802380D01*
X156414285Y-102754761D01*
X156366666Y-102707142D01*
%TO.C,R4*%
X159633333Y-87002380D02*
X159300000Y-86526190D01*
X159061904Y-87002380D02*
X159061904Y-86002380D01*
X159442857Y-86002380D01*
X159538095Y-86050000D01*
X159585714Y-86097619D01*
X159633333Y-86192857D01*
X159633333Y-86335714D01*
X159585714Y-86430952D01*
X159538095Y-86478571D01*
X159442857Y-86526190D01*
X159061904Y-86526190D01*
X160490476Y-86335714D02*
X160490476Y-87002380D01*
X160252380Y-85954761D02*
X160014285Y-86669047D01*
X160633333Y-86669047D01*
%TO.C,TP5*%
X189252380Y-128007904D02*
X189252380Y-127436476D01*
X190252380Y-127722190D02*
X189252380Y-127722190D01*
X190252380Y-127103142D02*
X189252380Y-127103142D01*
X189252380Y-126722190D01*
X189300000Y-126626952D01*
X189347619Y-126579333D01*
X189442857Y-126531714D01*
X189585714Y-126531714D01*
X189680952Y-126579333D01*
X189728571Y-126626952D01*
X189776190Y-126722190D01*
X189776190Y-127103142D01*
X189252380Y-125626952D02*
X189252380Y-126103142D01*
X189728571Y-126150761D01*
X189680952Y-126103142D01*
X189633333Y-126007904D01*
X189633333Y-125769809D01*
X189680952Y-125674571D01*
X189728571Y-125626952D01*
X189823809Y-125579333D01*
X190061904Y-125579333D01*
X190157142Y-125626952D01*
X190204761Y-125674571D01*
X190252380Y-125769809D01*
X190252380Y-126007904D01*
X190204761Y-126103142D01*
X190157142Y-126150761D01*
%TO.C,R22*%
X135049642Y-138120380D02*
X134716309Y-137644190D01*
X134478214Y-138120380D02*
X134478214Y-137120380D01*
X134859166Y-137120380D01*
X134954404Y-137168000D01*
X135002023Y-137215619D01*
X135049642Y-137310857D01*
X135049642Y-137453714D01*
X135002023Y-137548952D01*
X134954404Y-137596571D01*
X134859166Y-137644190D01*
X134478214Y-137644190D01*
X135430595Y-137215619D02*
X135478214Y-137168000D01*
X135573452Y-137120380D01*
X135811547Y-137120380D01*
X135906785Y-137168000D01*
X135954404Y-137215619D01*
X136002023Y-137310857D01*
X136002023Y-137406095D01*
X135954404Y-137548952D01*
X135382976Y-138120380D01*
X136002023Y-138120380D01*
X136382976Y-137215619D02*
X136430595Y-137168000D01*
X136525833Y-137120380D01*
X136763928Y-137120380D01*
X136859166Y-137168000D01*
X136906785Y-137215619D01*
X136954404Y-137310857D01*
X136954404Y-137406095D01*
X136906785Y-137548952D01*
X136335357Y-138120380D01*
X136954404Y-138120380D01*
%TO.C,TP13*%
X91146380Y-112228095D02*
X91146380Y-111656666D01*
X92146380Y-111942380D02*
X91146380Y-111942380D01*
X92146380Y-111323333D02*
X91146380Y-111323333D01*
X91146380Y-110942380D01*
X91194000Y-110847142D01*
X91241619Y-110799523D01*
X91336857Y-110751904D01*
X91479714Y-110751904D01*
X91574952Y-110799523D01*
X91622571Y-110847142D01*
X91670190Y-110942380D01*
X91670190Y-111323333D01*
X92146380Y-109799523D02*
X92146380Y-110370952D01*
X92146380Y-110085238D02*
X91146380Y-110085238D01*
X91289238Y-110180476D01*
X91384476Y-110275714D01*
X91432095Y-110370952D01*
X91146380Y-109466190D02*
X91146380Y-108847142D01*
X91527333Y-109180476D01*
X91527333Y-109037619D01*
X91574952Y-108942380D01*
X91622571Y-108894761D01*
X91717809Y-108847142D01*
X91955904Y-108847142D01*
X92051142Y-108894761D01*
X92098761Y-108942380D01*
X92146380Y-109037619D01*
X92146380Y-109323333D01*
X92098761Y-109418571D01*
X92051142Y-109466190D01*
%TO.C,TP15*%
X91146380Y-86320095D02*
X91146380Y-85748666D01*
X92146380Y-86034380D02*
X91146380Y-86034380D01*
X92146380Y-85415333D02*
X91146380Y-85415333D01*
X91146380Y-85034380D01*
X91194000Y-84939142D01*
X91241619Y-84891523D01*
X91336857Y-84843904D01*
X91479714Y-84843904D01*
X91574952Y-84891523D01*
X91622571Y-84939142D01*
X91670190Y-85034380D01*
X91670190Y-85415333D01*
X92146380Y-83891523D02*
X92146380Y-84462952D01*
X92146380Y-84177238D02*
X91146380Y-84177238D01*
X91289238Y-84272476D01*
X91384476Y-84367714D01*
X91432095Y-84462952D01*
X91146380Y-82986761D02*
X91146380Y-83462952D01*
X91622571Y-83510571D01*
X91574952Y-83462952D01*
X91527333Y-83367714D01*
X91527333Y-83129619D01*
X91574952Y-83034380D01*
X91622571Y-82986761D01*
X91717809Y-82939142D01*
X91955904Y-82939142D01*
X92051142Y-82986761D01*
X92098761Y-83034380D01*
X92146380Y-83129619D01*
X92146380Y-83367714D01*
X92098761Y-83462952D01*
X92051142Y-83510571D01*
%TO.C,C6*%
X112007142Y-112166666D02*
X112054761Y-112214285D01*
X112102380Y-112357142D01*
X112102380Y-112452380D01*
X112054761Y-112595238D01*
X111959523Y-112690476D01*
X111864285Y-112738095D01*
X111673809Y-112785714D01*
X111530952Y-112785714D01*
X111340476Y-112738095D01*
X111245238Y-112690476D01*
X111150000Y-112595238D01*
X111102380Y-112452380D01*
X111102380Y-112357142D01*
X111150000Y-112214285D01*
X111197619Y-112166666D01*
X111102380Y-111309523D02*
X111102380Y-111500000D01*
X111150000Y-111595238D01*
X111197619Y-111642857D01*
X111340476Y-111738095D01*
X111530952Y-111785714D01*
X111911904Y-111785714D01*
X112007142Y-111738095D01*
X112054761Y-111690476D01*
X112102380Y-111595238D01*
X112102380Y-111404761D01*
X112054761Y-111309523D01*
X112007142Y-111261904D01*
X111911904Y-111214285D01*
X111673809Y-111214285D01*
X111578571Y-111261904D01*
X111530952Y-111309523D01*
X111483333Y-111404761D01*
X111483333Y-111595238D01*
X111530952Y-111690476D01*
X111578571Y-111738095D01*
X111673809Y-111785714D01*
%TO.C,L1*%
X157932380Y-98972666D02*
X157932380Y-99448857D01*
X156932380Y-99448857D01*
X157932380Y-98115523D02*
X157932380Y-98686952D01*
X157932380Y-98401238D02*
X156932380Y-98401238D01*
X157075238Y-98496476D01*
X157170476Y-98591714D01*
X157218095Y-98686952D01*
%TO.C,J1*%
X182616666Y-64702380D02*
X182616666Y-65416666D01*
X182569047Y-65559523D01*
X182473809Y-65654761D01*
X182330952Y-65702380D01*
X182235714Y-65702380D01*
X183616666Y-65702380D02*
X183045238Y-65702380D01*
X183330952Y-65702380D02*
X183330952Y-64702380D01*
X183235714Y-64845238D01*
X183140476Y-64940476D01*
X183045238Y-64988095D01*
%TO.C,R19*%
X101973142Y-79192380D02*
X101639809Y-78716190D01*
X101401714Y-79192380D02*
X101401714Y-78192380D01*
X101782666Y-78192380D01*
X101877904Y-78240000D01*
X101925523Y-78287619D01*
X101973142Y-78382857D01*
X101973142Y-78525714D01*
X101925523Y-78620952D01*
X101877904Y-78668571D01*
X101782666Y-78716190D01*
X101401714Y-78716190D01*
X102925523Y-79192380D02*
X102354095Y-79192380D01*
X102639809Y-79192380D02*
X102639809Y-78192380D01*
X102544571Y-78335238D01*
X102449333Y-78430476D01*
X102354095Y-78478095D01*
X103401714Y-79192380D02*
X103592190Y-79192380D01*
X103687428Y-79144761D01*
X103735047Y-79097142D01*
X103830285Y-78954285D01*
X103877904Y-78763809D01*
X103877904Y-78382857D01*
X103830285Y-78287619D01*
X103782666Y-78240000D01*
X103687428Y-78192380D01*
X103496952Y-78192380D01*
X103401714Y-78240000D01*
X103354095Y-78287619D01*
X103306476Y-78382857D01*
X103306476Y-78620952D01*
X103354095Y-78716190D01*
X103401714Y-78763809D01*
X103496952Y-78811428D01*
X103687428Y-78811428D01*
X103782666Y-78763809D01*
X103830285Y-78716190D01*
X103877904Y-78620952D01*
%TO.C,R25*%
X130167142Y-133548380D02*
X129833809Y-133072190D01*
X129595714Y-133548380D02*
X129595714Y-132548380D01*
X129976666Y-132548380D01*
X130071904Y-132596000D01*
X130119523Y-132643619D01*
X130167142Y-132738857D01*
X130167142Y-132881714D01*
X130119523Y-132976952D01*
X130071904Y-133024571D01*
X129976666Y-133072190D01*
X129595714Y-133072190D01*
X130548095Y-132643619D02*
X130595714Y-132596000D01*
X130690952Y-132548380D01*
X130929047Y-132548380D01*
X131024285Y-132596000D01*
X131071904Y-132643619D01*
X131119523Y-132738857D01*
X131119523Y-132834095D01*
X131071904Y-132976952D01*
X130500476Y-133548380D01*
X131119523Y-133548380D01*
X132024285Y-132548380D02*
X131548095Y-132548380D01*
X131500476Y-133024571D01*
X131548095Y-132976952D01*
X131643333Y-132929333D01*
X131881428Y-132929333D01*
X131976666Y-132976952D01*
X132024285Y-133024571D01*
X132071904Y-133119809D01*
X132071904Y-133357904D01*
X132024285Y-133453142D01*
X131976666Y-133500761D01*
X131881428Y-133548380D01*
X131643333Y-133548380D01*
X131548095Y-133500761D01*
X131500476Y-133453142D01*
%TO.C,R21*%
X171315142Y-112720380D02*
X170981809Y-112244190D01*
X170743714Y-112720380D02*
X170743714Y-111720380D01*
X171124666Y-111720380D01*
X171219904Y-111768000D01*
X171267523Y-111815619D01*
X171315142Y-111910857D01*
X171315142Y-112053714D01*
X171267523Y-112148952D01*
X171219904Y-112196571D01*
X171124666Y-112244190D01*
X170743714Y-112244190D01*
X171696095Y-111815619D02*
X171743714Y-111768000D01*
X171838952Y-111720380D01*
X172077047Y-111720380D01*
X172172285Y-111768000D01*
X172219904Y-111815619D01*
X172267523Y-111910857D01*
X172267523Y-112006095D01*
X172219904Y-112148952D01*
X171648476Y-112720380D01*
X172267523Y-112720380D01*
X173219904Y-112720380D02*
X172648476Y-112720380D01*
X172934190Y-112720380D02*
X172934190Y-111720380D01*
X172838952Y-111863238D01*
X172743714Y-111958476D01*
X172648476Y-112006095D01*
%TO.C,R1*%
X178583333Y-89702380D02*
X178250000Y-89226190D01*
X178011904Y-89702380D02*
X178011904Y-88702380D01*
X178392857Y-88702380D01*
X178488095Y-88750000D01*
X178535714Y-88797619D01*
X178583333Y-88892857D01*
X178583333Y-89035714D01*
X178535714Y-89130952D01*
X178488095Y-89178571D01*
X178392857Y-89226190D01*
X178011904Y-89226190D01*
X179535714Y-89702380D02*
X178964285Y-89702380D01*
X179250000Y-89702380D02*
X179250000Y-88702380D01*
X179154761Y-88845238D01*
X179059523Y-88940476D01*
X178964285Y-88988095D01*
%TO.C,D7*%
X164869904Y-93402380D02*
X164869904Y-92402380D01*
X165108000Y-92402380D01*
X165250857Y-92450000D01*
X165346095Y-92545238D01*
X165393714Y-92640476D01*
X165441333Y-92830952D01*
X165441333Y-92973809D01*
X165393714Y-93164285D01*
X165346095Y-93259523D01*
X165250857Y-93354761D01*
X165108000Y-93402380D01*
X164869904Y-93402380D01*
X165774666Y-92402380D02*
X166441333Y-92402380D01*
X166012761Y-93402380D01*
%TO.C,GL1*%
X184680952Y-62750000D02*
X184585714Y-62702380D01*
X184442857Y-62702380D01*
X184300000Y-62750000D01*
X184204761Y-62845238D01*
X184157142Y-62940476D01*
X184109523Y-63130952D01*
X184109523Y-63273809D01*
X184157142Y-63464285D01*
X184204761Y-63559523D01*
X184300000Y-63654761D01*
X184442857Y-63702380D01*
X184538095Y-63702380D01*
X184680952Y-63654761D01*
X184728571Y-63607142D01*
X184728571Y-63273809D01*
X184538095Y-63273809D01*
X185633333Y-63702380D02*
X185157142Y-63702380D01*
X185157142Y-62702380D01*
X186490476Y-63702380D02*
X185919047Y-63702380D01*
X186204761Y-63702380D02*
X186204761Y-62702380D01*
X186109523Y-62845238D01*
X186014285Y-62940476D01*
X185919047Y-62988095D01*
D15*
%TO.C,C5*%
X184582571Y-111843333D02*
X184606380Y-111867142D01*
X184630190Y-111938571D01*
X184630190Y-111986190D01*
X184606380Y-112057619D01*
X184558761Y-112105238D01*
X184511142Y-112129047D01*
X184415904Y-112152857D01*
X184344476Y-112152857D01*
X184249238Y-112129047D01*
X184201619Y-112105238D01*
X184154000Y-112057619D01*
X184130190Y-111986190D01*
X184130190Y-111938571D01*
X184154000Y-111867142D01*
X184177809Y-111843333D01*
X184130190Y-111390952D02*
X184130190Y-111629047D01*
X184368285Y-111652857D01*
X184344476Y-111629047D01*
X184320666Y-111581428D01*
X184320666Y-111462380D01*
X184344476Y-111414761D01*
X184368285Y-111390952D01*
X184415904Y-111367142D01*
X184534952Y-111367142D01*
X184582571Y-111390952D01*
X184606380Y-111414761D01*
X184630190Y-111462380D01*
X184630190Y-111581428D01*
X184606380Y-111629047D01*
X184582571Y-111652857D01*
D13*
%TO.C,R20*%
X164607142Y-134564380D02*
X164273809Y-134088190D01*
X164035714Y-134564380D02*
X164035714Y-133564380D01*
X164416666Y-133564380D01*
X164511904Y-133612000D01*
X164559523Y-133659619D01*
X164607142Y-133754857D01*
X164607142Y-133897714D01*
X164559523Y-133992952D01*
X164511904Y-134040571D01*
X164416666Y-134088190D01*
X164035714Y-134088190D01*
X164988095Y-133659619D02*
X165035714Y-133612000D01*
X165130952Y-133564380D01*
X165369047Y-133564380D01*
X165464285Y-133612000D01*
X165511904Y-133659619D01*
X165559523Y-133754857D01*
X165559523Y-133850095D01*
X165511904Y-133992952D01*
X164940476Y-134564380D01*
X165559523Y-134564380D01*
X166178571Y-133564380D02*
X166273809Y-133564380D01*
X166369047Y-133612000D01*
X166416666Y-133659619D01*
X166464285Y-133754857D01*
X166511904Y-133945333D01*
X166511904Y-134183428D01*
X166464285Y-134373904D01*
X166416666Y-134469142D01*
X166369047Y-134516761D01*
X166273809Y-134564380D01*
X166178571Y-134564380D01*
X166083333Y-134516761D01*
X166035714Y-134469142D01*
X165988095Y-134373904D01*
X165940476Y-134183428D01*
X165940476Y-133945333D01*
X165988095Y-133754857D01*
X166035714Y-133659619D01*
X166083333Y-133612000D01*
X166178571Y-133564380D01*
%TO.C,D5*%
X100641904Y-98697380D02*
X100641904Y-97697380D01*
X100880000Y-97697380D01*
X101022857Y-97745000D01*
X101118095Y-97840238D01*
X101165714Y-97935476D01*
X101213333Y-98125952D01*
X101213333Y-98268809D01*
X101165714Y-98459285D01*
X101118095Y-98554523D01*
X101022857Y-98649761D01*
X100880000Y-98697380D01*
X100641904Y-98697380D01*
X102118095Y-97697380D02*
X101641904Y-97697380D01*
X101594285Y-98173571D01*
X101641904Y-98125952D01*
X101737142Y-98078333D01*
X101975238Y-98078333D01*
X102070476Y-98125952D01*
X102118095Y-98173571D01*
X102165714Y-98268809D01*
X102165714Y-98506904D01*
X102118095Y-98602142D01*
X102070476Y-98649761D01*
X101975238Y-98697380D01*
X101737142Y-98697380D01*
X101641904Y-98649761D01*
X101594285Y-98602142D01*
%TO.C,C8*%
X147083333Y-134957142D02*
X147035714Y-135004761D01*
X146892857Y-135052380D01*
X146797619Y-135052380D01*
X146654761Y-135004761D01*
X146559523Y-134909523D01*
X146511904Y-134814285D01*
X146464285Y-134623809D01*
X146464285Y-134480952D01*
X146511904Y-134290476D01*
X146559523Y-134195238D01*
X146654761Y-134100000D01*
X146797619Y-134052380D01*
X146892857Y-134052380D01*
X147035714Y-134100000D01*
X147083333Y-134147619D01*
X147654761Y-134480952D02*
X147559523Y-134433333D01*
X147511904Y-134385714D01*
X147464285Y-134290476D01*
X147464285Y-134242857D01*
X147511904Y-134147619D01*
X147559523Y-134100000D01*
X147654761Y-134052380D01*
X147845238Y-134052380D01*
X147940476Y-134100000D01*
X147988095Y-134147619D01*
X148035714Y-134242857D01*
X148035714Y-134290476D01*
X147988095Y-134385714D01*
X147940476Y-134433333D01*
X147845238Y-134480952D01*
X147654761Y-134480952D01*
X147559523Y-134528571D01*
X147511904Y-134576190D01*
X147464285Y-134671428D01*
X147464285Y-134861904D01*
X147511904Y-134957142D01*
X147559523Y-135004761D01*
X147654761Y-135052380D01*
X147845238Y-135052380D01*
X147940476Y-135004761D01*
X147988095Y-134957142D01*
X148035714Y-134861904D01*
X148035714Y-134671428D01*
X147988095Y-134576190D01*
X147940476Y-134528571D01*
X147845238Y-134480952D01*
%TO.C,J4*%
X179752666Y-124166380D02*
X179752666Y-124880666D01*
X179705047Y-125023523D01*
X179609809Y-125118761D01*
X179466952Y-125166380D01*
X179371714Y-125166380D01*
X180657428Y-124499714D02*
X180657428Y-125166380D01*
X180419333Y-124118761D02*
X180181238Y-124833047D01*
X180800285Y-124833047D01*
%TO.C,R5*%
X166203333Y-101290380D02*
X165870000Y-100814190D01*
X165631904Y-101290380D02*
X165631904Y-100290380D01*
X166012857Y-100290380D01*
X166108095Y-100338000D01*
X166155714Y-100385619D01*
X166203333Y-100480857D01*
X166203333Y-100623714D01*
X166155714Y-100718952D01*
X166108095Y-100766571D01*
X166012857Y-100814190D01*
X165631904Y-100814190D01*
X167108095Y-100290380D02*
X166631904Y-100290380D01*
X166584285Y-100766571D01*
X166631904Y-100718952D01*
X166727142Y-100671333D01*
X166965238Y-100671333D01*
X167060476Y-100718952D01*
X167108095Y-100766571D01*
X167155714Y-100861809D01*
X167155714Y-101099904D01*
X167108095Y-101195142D01*
X167060476Y-101242761D01*
X166965238Y-101290380D01*
X166727142Y-101290380D01*
X166631904Y-101242761D01*
X166584285Y-101195142D01*
%TO.C,C2*%
X171533333Y-93007142D02*
X171485714Y-93054761D01*
X171342857Y-93102380D01*
X171247619Y-93102380D01*
X171104761Y-93054761D01*
X171009523Y-92959523D01*
X170961904Y-92864285D01*
X170914285Y-92673809D01*
X170914285Y-92530952D01*
X170961904Y-92340476D01*
X171009523Y-92245238D01*
X171104761Y-92150000D01*
X171247619Y-92102380D01*
X171342857Y-92102380D01*
X171485714Y-92150000D01*
X171533333Y-92197619D01*
X171914285Y-92197619D02*
X171961904Y-92150000D01*
X172057142Y-92102380D01*
X172295238Y-92102380D01*
X172390476Y-92150000D01*
X172438095Y-92197619D01*
X172485714Y-92292857D01*
X172485714Y-92388095D01*
X172438095Y-92530952D01*
X171866666Y-93102380D01*
X172485714Y-93102380D01*
%TO.C,J3*%
X179752666Y-119086380D02*
X179752666Y-119800666D01*
X179705047Y-119943523D01*
X179609809Y-120038761D01*
X179466952Y-120086380D01*
X179371714Y-120086380D01*
X180133619Y-119086380D02*
X180752666Y-119086380D01*
X180419333Y-119467333D01*
X180562190Y-119467333D01*
X180657428Y-119514952D01*
X180705047Y-119562571D01*
X180752666Y-119657809D01*
X180752666Y-119895904D01*
X180705047Y-119991142D01*
X180657428Y-120038761D01*
X180562190Y-120086380D01*
X180276476Y-120086380D01*
X180181238Y-120038761D01*
X180133619Y-119991142D01*
%TO.C,U1*%
X164788095Y-82202380D02*
X164788095Y-83011904D01*
X164835714Y-83107142D01*
X164883333Y-83154761D01*
X164978571Y-83202380D01*
X165169047Y-83202380D01*
X165264285Y-83154761D01*
X165311904Y-83107142D01*
X165359523Y-83011904D01*
X165359523Y-82202380D01*
X166359523Y-83202380D02*
X165788095Y-83202380D01*
X166073809Y-83202380D02*
X166073809Y-82202380D01*
X165978571Y-82345238D01*
X165883333Y-82440476D01*
X165788095Y-82488095D01*
%TO.C,R9*%
X163409333Y-114498380D02*
X163076000Y-114022190D01*
X162837904Y-114498380D02*
X162837904Y-113498380D01*
X163218857Y-113498380D01*
X163314095Y-113546000D01*
X163361714Y-113593619D01*
X163409333Y-113688857D01*
X163409333Y-113831714D01*
X163361714Y-113926952D01*
X163314095Y-113974571D01*
X163218857Y-114022190D01*
X162837904Y-114022190D01*
X163885523Y-114498380D02*
X164076000Y-114498380D01*
X164171238Y-114450761D01*
X164218857Y-114403142D01*
X164314095Y-114260285D01*
X164361714Y-114069809D01*
X164361714Y-113688857D01*
X164314095Y-113593619D01*
X164266476Y-113546000D01*
X164171238Y-113498380D01*
X163980761Y-113498380D01*
X163885523Y-113546000D01*
X163837904Y-113593619D01*
X163790285Y-113688857D01*
X163790285Y-113926952D01*
X163837904Y-114022190D01*
X163885523Y-114069809D01*
X163980761Y-114117428D01*
X164171238Y-114117428D01*
X164266476Y-114069809D01*
X164314095Y-114022190D01*
X164361714Y-113926952D01*
%TO.C,Q1*%
X150654761Y-89497619D02*
X150559523Y-89450000D01*
X150464285Y-89354761D01*
X150321428Y-89211904D01*
X150226190Y-89164285D01*
X150130952Y-89164285D01*
X150178571Y-89402380D02*
X150083333Y-89354761D01*
X149988095Y-89259523D01*
X149940476Y-89069047D01*
X149940476Y-88735714D01*
X149988095Y-88545238D01*
X150083333Y-88450000D01*
X150178571Y-88402380D01*
X150369047Y-88402380D01*
X150464285Y-88450000D01*
X150559523Y-88545238D01*
X150607142Y-88735714D01*
X150607142Y-89069047D01*
X150559523Y-89259523D01*
X150464285Y-89354761D01*
X150369047Y-89402380D01*
X150178571Y-89402380D01*
X151559523Y-89402380D02*
X150988095Y-89402380D01*
X151273809Y-89402380D02*
X151273809Y-88402380D01*
X151178571Y-88545238D01*
X151083333Y-88640476D01*
X150988095Y-88688095D01*
%TO.C,R17*%
X96893142Y-87452380D02*
X96559809Y-86976190D01*
X96321714Y-87452380D02*
X96321714Y-86452380D01*
X96702666Y-86452380D01*
X96797904Y-86500000D01*
X96845523Y-86547619D01*
X96893142Y-86642857D01*
X96893142Y-86785714D01*
X96845523Y-86880952D01*
X96797904Y-86928571D01*
X96702666Y-86976190D01*
X96321714Y-86976190D01*
X97845523Y-87452380D02*
X97274095Y-87452380D01*
X97559809Y-87452380D02*
X97559809Y-86452380D01*
X97464571Y-86595238D01*
X97369333Y-86690476D01*
X97274095Y-86738095D01*
X98178857Y-86452380D02*
X98845523Y-86452380D01*
X98416952Y-87452380D01*
%TO.C,D1*%
X186205904Y-91887380D02*
X186205904Y-90887380D01*
X186444000Y-90887380D01*
X186586857Y-90935000D01*
X186682095Y-91030238D01*
X186729714Y-91125476D01*
X186777333Y-91315952D01*
X186777333Y-91458809D01*
X186729714Y-91649285D01*
X186682095Y-91744523D01*
X186586857Y-91839761D01*
X186444000Y-91887380D01*
X186205904Y-91887380D01*
X187729714Y-91887380D02*
X187158285Y-91887380D01*
X187444000Y-91887380D02*
X187444000Y-90887380D01*
X187348761Y-91030238D01*
X187253523Y-91125476D01*
X187158285Y-91173095D01*
%TO.C,TP1*%
X91202380Y-67461904D02*
X91202380Y-66890476D01*
X92202380Y-67176190D02*
X91202380Y-67176190D01*
X92202380Y-66557142D02*
X91202380Y-66557142D01*
X91202380Y-66176190D01*
X91250000Y-66080952D01*
X91297619Y-66033333D01*
X91392857Y-65985714D01*
X91535714Y-65985714D01*
X91630952Y-66033333D01*
X91678571Y-66080952D01*
X91726190Y-66176190D01*
X91726190Y-66557142D01*
X92202380Y-65033333D02*
X92202380Y-65604761D01*
X92202380Y-65319047D02*
X91202380Y-65319047D01*
X91345238Y-65414285D01*
X91440476Y-65509523D01*
X91488095Y-65604761D01*
%TO.C,R2*%
X175093333Y-83002380D02*
X174760000Y-82526190D01*
X174521904Y-83002380D02*
X174521904Y-82002380D01*
X174902857Y-82002380D01*
X174998095Y-82050000D01*
X175045714Y-82097619D01*
X175093333Y-82192857D01*
X175093333Y-82335714D01*
X175045714Y-82430952D01*
X174998095Y-82478571D01*
X174902857Y-82526190D01*
X174521904Y-82526190D01*
X175474285Y-82097619D02*
X175521904Y-82050000D01*
X175617142Y-82002380D01*
X175855238Y-82002380D01*
X175950476Y-82050000D01*
X175998095Y-82097619D01*
X176045714Y-82192857D01*
X176045714Y-82288095D01*
X175998095Y-82430952D01*
X175426666Y-83002380D01*
X176045714Y-83002380D01*
%TO.C,U3*%
X188488380Y-111663523D02*
X188488380Y-112181619D01*
X188518857Y-112242571D01*
X188549333Y-112273047D01*
X188610285Y-112303523D01*
X188732190Y-112303523D01*
X188793142Y-112273047D01*
X188823619Y-112242571D01*
X188854095Y-112181619D01*
X188854095Y-111663523D01*
X189097904Y-111663523D02*
X189494095Y-111663523D01*
X189280761Y-111907333D01*
X189372190Y-111907333D01*
X189433142Y-111937809D01*
X189463619Y-111968285D01*
X189494095Y-112029238D01*
X189494095Y-112181619D01*
X189463619Y-112242571D01*
X189433142Y-112273047D01*
X189372190Y-112303523D01*
X189189333Y-112303523D01*
X189128380Y-112273047D01*
X189097904Y-112242571D01*
%TO.C,TP14*%
X91146380Y-92438095D02*
X91146380Y-91866666D01*
X92146380Y-92152380D02*
X91146380Y-92152380D01*
X92146380Y-91533333D02*
X91146380Y-91533333D01*
X91146380Y-91152380D01*
X91194000Y-91057142D01*
X91241619Y-91009523D01*
X91336857Y-90961904D01*
X91479714Y-90961904D01*
X91574952Y-91009523D01*
X91622571Y-91057142D01*
X91670190Y-91152380D01*
X91670190Y-91533333D01*
X92146380Y-90009523D02*
X92146380Y-90580952D01*
X92146380Y-90295238D02*
X91146380Y-90295238D01*
X91289238Y-90390476D01*
X91384476Y-90485714D01*
X91432095Y-90580952D01*
X91479714Y-89152380D02*
X92146380Y-89152380D01*
X91098761Y-89390476D02*
X91813047Y-89628571D01*
X91813047Y-89009523D01*
%TO.C,R18*%
X96718380Y-120276857D02*
X96242190Y-120610190D01*
X96718380Y-120848285D02*
X95718380Y-120848285D01*
X95718380Y-120467333D01*
X95766000Y-120372095D01*
X95813619Y-120324476D01*
X95908857Y-120276857D01*
X96051714Y-120276857D01*
X96146952Y-120324476D01*
X96194571Y-120372095D01*
X96242190Y-120467333D01*
X96242190Y-120848285D01*
X96718380Y-119324476D02*
X96718380Y-119895904D01*
X96718380Y-119610190D02*
X95718380Y-119610190D01*
X95861238Y-119705428D01*
X95956476Y-119800666D01*
X96004095Y-119895904D01*
X96146952Y-118753047D02*
X96099333Y-118848285D01*
X96051714Y-118895904D01*
X95956476Y-118943523D01*
X95908857Y-118943523D01*
X95813619Y-118895904D01*
X95766000Y-118848285D01*
X95718380Y-118753047D01*
X95718380Y-118562571D01*
X95766000Y-118467333D01*
X95813619Y-118419714D01*
X95908857Y-118372095D01*
X95956476Y-118372095D01*
X96051714Y-118419714D01*
X96099333Y-118467333D01*
X96146952Y-118562571D01*
X96146952Y-118753047D01*
X96194571Y-118848285D01*
X96242190Y-118895904D01*
X96337428Y-118943523D01*
X96527904Y-118943523D01*
X96623142Y-118895904D01*
X96670761Y-118848285D01*
X96718380Y-118753047D01*
X96718380Y-118562571D01*
X96670761Y-118467333D01*
X96623142Y-118419714D01*
X96527904Y-118372095D01*
X96337428Y-118372095D01*
X96242190Y-118419714D01*
X96194571Y-118467333D01*
X96146952Y-118562571D01*
%TO.C,R7*%
X170521333Y-114498380D02*
X170188000Y-114022190D01*
X169949904Y-114498380D02*
X169949904Y-113498380D01*
X170330857Y-113498380D01*
X170426095Y-113546000D01*
X170473714Y-113593619D01*
X170521333Y-113688857D01*
X170521333Y-113831714D01*
X170473714Y-113926952D01*
X170426095Y-113974571D01*
X170330857Y-114022190D01*
X169949904Y-114022190D01*
X170854666Y-113498380D02*
X171521333Y-113498380D01*
X171092761Y-114498380D01*
%TO.C,C3*%
X166633333Y-95957142D02*
X166585714Y-96004761D01*
X166442857Y-96052380D01*
X166347619Y-96052380D01*
X166204761Y-96004761D01*
X166109523Y-95909523D01*
X166061904Y-95814285D01*
X166014285Y-95623809D01*
X166014285Y-95480952D01*
X166061904Y-95290476D01*
X166109523Y-95195238D01*
X166204761Y-95100000D01*
X166347619Y-95052380D01*
X166442857Y-95052380D01*
X166585714Y-95100000D01*
X166633333Y-95147619D01*
X166966666Y-95052380D02*
X167585714Y-95052380D01*
X167252380Y-95433333D01*
X167395238Y-95433333D01*
X167490476Y-95480952D01*
X167538095Y-95528571D01*
X167585714Y-95623809D01*
X167585714Y-95861904D01*
X167538095Y-95957142D01*
X167490476Y-96004761D01*
X167395238Y-96052380D01*
X167109523Y-96052380D01*
X167014285Y-96004761D01*
X166966666Y-95957142D01*
D16*
%TO.C,D2*%
X185864000Y-80472000D02*
X185708000Y-80472000D01*
X188180000Y-80472000D02*
X188024000Y-80472000D01*
X188023837Y-83073130D02*
G75*
G03*
X188024000Y-80991039I-1079837J1041130D01*
G01*
X188022608Y-83704335D02*
G75*
G03*
X188179516Y-80472000I-1078609J1672335D01*
G01*
X185864000Y-80991039D02*
G75*
G03*
X185864163Y-83073130I1080000J-1040961D01*
G01*
X185708484Y-80472000D02*
G75*
G03*
X185865392Y-83704335I1235517J-1560000D01*
G01*
%TO.C,TP2*%
X95684000Y-70580000D02*
G75*
G03*
X95684000Y-70580000I-1450000J0D01*
G01*
%TO.C,C4*%
X160281252Y-105730000D02*
X159758748Y-105730000D01*
X160281252Y-104260000D02*
X159758748Y-104260000D01*
%TO.C,TP12*%
X95684000Y-105918000D02*
G75*
G03*
X95684000Y-105918000I-1450000J0D01*
G01*
%TO.C,R14*%
X183161000Y-74448936D02*
X183161000Y-74903064D01*
X184631000Y-74448936D02*
X184631000Y-74903064D01*
%TO.C,D6*%
X99846000Y-90082000D02*
X102396000Y-90082000D01*
X99846000Y-91782000D02*
X102396000Y-91782000D01*
X99846000Y-90082000D02*
X99846000Y-91782000D01*
%TO.C,R13*%
X159285000Y-109701064D02*
X159285000Y-109246936D01*
X160755000Y-109701064D02*
X160755000Y-109246936D01*
%TO.C,TP9*%
X188394000Y-110490000D02*
G75*
G03*
X188394000Y-110490000I-1450000J0D01*
G01*
D17*
%TO.C,U4*%
X90856000Y-94326750D02*
X91216000Y-94326750D01*
X91216000Y-101526750D02*
X90856000Y-101526750D01*
X90856000Y-101526750D02*
X90856000Y-94326750D01*
D12*
X95756000Y-96176750D02*
G75*
G03*
X95756000Y-96176750I-50000J0D01*
G01*
D16*
%TO.C,TP8*%
X188394000Y-118618000D02*
G75*
G03*
X188394000Y-118618000I-1450000J0D01*
G01*
%TO.C,TP17*%
X155882000Y-135128000D02*
G75*
G03*
X155882000Y-135128000I-1450000J0D01*
G01*
%TO.C,R8*%
X173508936Y-78513000D02*
X173963064Y-78513000D01*
X173508936Y-79983000D02*
X173963064Y-79983000D01*
%TO.C,D4*%
X153582000Y-86082000D02*
X153582000Y-83532000D01*
X155282000Y-86082000D02*
X155282000Y-83532000D01*
X153582000Y-86082000D02*
X155282000Y-86082000D01*
%TO.C,U5*%
X97810000Y-108331000D02*
X97810000Y-110281000D01*
X97810000Y-108331000D02*
X97810000Y-106381000D01*
X107930000Y-108331000D02*
X107930000Y-104881000D01*
X107930000Y-108331000D02*
X107930000Y-110281000D01*
%TO.C,C1*%
X152361252Y-80765000D02*
X151838748Y-80765000D01*
X152361252Y-82235000D02*
X151838748Y-82235000D01*
D17*
%TO.C,U6*%
X144246500Y-130265000D02*
X140346500Y-130265000D01*
X144246500Y-135165000D02*
X140346500Y-135165000D01*
X145860000Y-135215000D02*
G75*
G03*
X145860000Y-135215000I-63500J0D01*
G01*
D16*
%TO.C,R12*%
X182906936Y-72363000D02*
X183361064Y-72363000D01*
X182906936Y-70893000D02*
X183361064Y-70893000D01*
%TO.C,U2*%
X163993000Y-99606000D02*
X163993000Y-98006000D01*
X161093000Y-98006000D02*
X161093000Y-99606000D01*
D18*
X160423000Y-99806000D02*
G75*
G03*
X160423000Y-99806000I-80000J0D01*
G01*
D16*
%TO.C,R24*%
X163348936Y-108739000D02*
X163803064Y-108739000D01*
X163348936Y-110209000D02*
X163803064Y-110209000D01*
%TO.C,J2*%
X179070000Y-77530000D02*
X97730000Y-77530000D01*
X181670000Y-76200000D02*
X181670000Y-77530000D01*
X179070000Y-74870000D02*
X179070000Y-77530000D01*
X179070000Y-74870000D02*
X97730000Y-74870000D01*
X181670000Y-77530000D02*
X180340000Y-77530000D01*
X97730000Y-74870000D02*
X97730000Y-77530000D01*
%TO.C,Q2*%
X178018000Y-110744000D02*
X178018000Y-110094000D01*
X181138000Y-110744000D02*
X181138000Y-111394000D01*
X178018000Y-110744000D02*
X178018000Y-112419000D01*
X181138000Y-110744000D02*
X181138000Y-110094000D01*
%TO.C,TP6*%
X188394000Y-122682000D02*
G75*
G03*
X188394000Y-122682000I-1450000J0D01*
G01*
%TO.C,R10*%
X180112936Y-107669000D02*
X180567064Y-107669000D01*
X180112936Y-106199000D02*
X180567064Y-106199000D01*
%TO.C,D3*%
X160504000Y-103212000D02*
X160504000Y-101512000D01*
X160504000Y-103212000D02*
X157954000Y-103212000D01*
X160504000Y-101512000D02*
X157954000Y-101512000D01*
%TO.C,TP5*%
X188394000Y-126746000D02*
G75*
G03*
X188394000Y-126746000I-1450000J0D01*
G01*
%TO.C,TP13*%
X95684000Y-110490000D02*
G75*
G03*
X95684000Y-110490000I-1450000J0D01*
G01*
%TO.C,TP15*%
X95684000Y-84582000D02*
G75*
G03*
X95684000Y-84582000I-1450000J0D01*
G01*
%TO.C,C6*%
X110209000Y-112209252D02*
X110209000Y-111686748D01*
X108739000Y-112209252D02*
X108739000Y-111686748D01*
D17*
%TO.C,L1*%
X159924000Y-98406000D02*
X159924000Y-99206000D01*
X158724000Y-98406000D02*
X158724000Y-99206000D01*
D16*
%TO.C,J1*%
X179070000Y-64710000D02*
X179070000Y-67370000D01*
X179070000Y-67370000D02*
X97730000Y-67370000D01*
X97730000Y-64710000D02*
X97730000Y-67370000D01*
X180340000Y-64710000D02*
X181670000Y-64710000D01*
X181670000Y-64710000D02*
X181670000Y-66040000D01*
X179070000Y-64710000D02*
X97730000Y-64710000D01*
%TO.C,R19*%
X102388936Y-80037000D02*
X102843064Y-80037000D01*
X102388936Y-81507000D02*
X102843064Y-81507000D01*
%TO.C,TP11*%
X188394000Y-77470000D02*
G75*
G03*
X188394000Y-77470000I-1450000J0D01*
G01*
%TO.C,R21*%
X171476936Y-109755000D02*
X171931064Y-109755000D01*
X171476936Y-111225000D02*
X171931064Y-111225000D01*
%TO.C,R1*%
X180059064Y-88111000D02*
X179604936Y-88111000D01*
X180059064Y-86641000D02*
X179604936Y-86641000D01*
%TO.C,D7*%
X164108000Y-92036000D02*
X166658000Y-92036000D01*
X164108000Y-90336000D02*
X164108000Y-92036000D01*
X164108000Y-90336000D02*
X166658000Y-90336000D01*
%TO.C,R20*%
X165430564Y-135409000D02*
X164976436Y-135409000D01*
X165430564Y-136879000D02*
X164976436Y-136879000D01*
%TO.C,D5*%
X102880000Y-97370000D02*
X100330000Y-97370000D01*
X102880000Y-97370000D02*
X102880000Y-95670000D01*
X102880000Y-95670000D02*
X100330000Y-95670000D01*
%TO.C,J4*%
X179070000Y-125670000D02*
X179070000Y-128330000D01*
X179070000Y-125670000D02*
X97730000Y-125670000D01*
X180340000Y-125670000D02*
X181670000Y-125670000D01*
X97730000Y-125670000D02*
X97730000Y-128330000D01*
X181670000Y-125670000D02*
X181670000Y-127000000D01*
X179070000Y-128330000D02*
X97730000Y-128330000D01*
%TO.C,C2*%
X169410748Y-89943000D02*
X169933252Y-89943000D01*
X169410748Y-91413000D02*
X169933252Y-91413000D01*
%TO.C,J3*%
X179070000Y-115510000D02*
X179070000Y-118170000D01*
X97730000Y-115510000D02*
X97730000Y-118170000D01*
X181670000Y-116840000D02*
X181670000Y-118170000D01*
X179070000Y-118170000D02*
X97730000Y-118170000D01*
X181670000Y-118170000D02*
X180340000Y-118170000D01*
X179070000Y-115510000D02*
X97730000Y-115510000D01*
D17*
%TO.C,U1*%
X163608000Y-83810000D02*
X167608000Y-83810000D01*
X163608000Y-88910000D02*
X167608000Y-88910000D01*
D12*
X161263000Y-83855000D02*
G75*
G03*
X161263000Y-83855000I-100000J0D01*
G01*
D16*
%TO.C,R9*%
X163803064Y-113003000D02*
X163348936Y-113003000D01*
X163803064Y-111533000D02*
X163348936Y-111533000D01*
%TO.C,Q1*%
X154178000Y-87086000D02*
X153528000Y-87086000D01*
X154178000Y-90206000D02*
X153528000Y-90206000D01*
X154178000Y-90206000D02*
X155853000Y-90206000D01*
X154178000Y-87086000D02*
X154828000Y-87086000D01*
%TO.C,R17*%
X96801000Y-89785564D02*
X96801000Y-89331436D01*
X98271000Y-89785564D02*
X98271000Y-89331436D01*
%TO.C,D1*%
X188024000Y-89698000D02*
X188180000Y-89698000D01*
X185708000Y-89698000D02*
X185864000Y-89698000D01*
X188024000Y-89178961D02*
G75*
G03*
X188023837Y-87096870I-1080000J1040961D01*
G01*
X185864163Y-87096870D02*
G75*
G03*
X185864000Y-89178961I1079837J-1041130D01*
G01*
X188179516Y-89698000D02*
G75*
G03*
X188022608Y-86465665I-1235517J1560000D01*
G01*
X185865392Y-86465665D02*
G75*
G03*
X185708484Y-89698000I1078609J-1672335D01*
G01*
%TO.C,TP1*%
X95684000Y-66120000D02*
G75*
G03*
X95684000Y-66120000I-1450000J0D01*
G01*
%TO.C,R2*%
X175709064Y-83621000D02*
X175254936Y-83621000D01*
X175709064Y-85091000D02*
X175254936Y-85091000D01*
D10*
%TO.C,U3*%
X185952000Y-115800000D02*
X188952000Y-115800000D01*
X188952000Y-112800000D02*
X185952000Y-112800000D01*
D12*
X189852000Y-115550000D02*
G75*
G03*
X189852000Y-115550000I-100000J0D01*
G01*
D16*
%TO.C,TP10*%
X188394000Y-73406000D02*
G75*
G03*
X188394000Y-73406000I-1450000J0D01*
G01*
%TO.C,TP16*%
X95684000Y-115316000D02*
G75*
G03*
X95684000Y-115316000I-1450000J0D01*
G01*
%TO.C,TP14*%
X95684000Y-90500000D02*
G75*
G03*
X95684000Y-90500000I-1450000J0D01*
G01*
%TO.C,R18*%
X93499000Y-119303436D02*
X93499000Y-119757564D01*
X94969000Y-119303436D02*
X94969000Y-119757564D01*
%TO.C,R7*%
X167666936Y-114527000D02*
X168121064Y-114527000D01*
X167666936Y-113057000D02*
X168121064Y-113057000D01*
%TO.C,C3*%
X163634748Y-94769000D02*
X164157252Y-94769000D01*
X163634748Y-96239000D02*
X164157252Y-96239000D01*
%TD*%
M02*
