(footprint "CAPC1608X90" (version 20211014) (generator pcbnew)
  (layer "F.Cu")
  (tedit 62338C66)
  (descr "<b>CAPACITOR</b>")
  (attr through_hole)
  (fp_text reference "REF**" (at -0.235808 -1.239253) (layer "F.SilkS")
    (effects (font (size 0.474067 0.474067) (thickness 0.15)))
    (tstamp a16dbf15-8f5b-4766-b048-90ba89efcc02)
  )
  (fp_text value "CAPC1608X90" (at 1.567319 1.206787) (layer "F.Fab")
    (effects (font (size 0.473139 0.473139) (thickness 0.15)))
    (tstamp 5de5a872-aa15-495b-b53b-b8a64bbfa4f0)
  )
  (fp_line (start -0.15 0.45) (end 0.15 0.45) (layer "F.SilkS") (width 0.127) (tstamp 3f206607-332e-4c96-8963-5302804f476f))
  (fp_line (start -0.15 -0.45) (end 0.15 -0.45) (layer "F.SilkS") (width 0.127) (tstamp 6d646c30-feab-4e3e-adf0-5427b73b5f08))
  (fp_line (start 1.673 0.783) (end -1.673 0.783) (layer "F.CrtYd") (width 0.0508) (tstamp 6e21d8a8-05db-450e-863d-764ba51b5b58))
  (fp_line (start -1.673 -0.783) (end 1.673 -0.783) (layer "F.CrtYd") (width 0.0508) (tstamp 6e416a78-df14-48ee-9842-e6e24081191e))
  (fp_line (start 1.673 -0.783) (end 1.673 0.783) (layer "F.CrtYd") (width 0.0508) (tstamp b2f7301d-582c-4990-a060-4a71ef08c6eb))
  (fp_line (start -1.673 0.783) (end -1.673 -0.783) (layer "F.CrtYd") (width 0.0508) (tstamp fa574bf3-ac2e-449d-91be-bcb1e35bdaba))
  (fp_line (start -0.356 0.419) (end 0.356 0.419) (layer "F.Fab") (width 0.1016) (tstamp 1d6518e1-cfe9-4078-adc2-cf8e6477b5cb))
  (fp_line (start -0.356 -0.432) (end 0.356 -0.432) (layer "F.Fab") (width 0.1016) (tstamp cf45f134-35c0-4b31-91e7-048e45f34bf8))
  (fp_poly (pts
      (xy -0.838606 -0.4801)
      (xy -0.3381 -0.4801)
      (xy -0.3381 0.470129)
      (xy -0.838606 0.470129)
    ) (layer "F.Fab") (width 0.01) (fill solid) (tstamp 0df798c0-963e-4340-a737-18e50763521e))
  (fp_poly (pts
      (xy 0.330881 -0.4801)
      (xy 0.8303 -0.4801)
      (xy 0.8303 0.470869)
      (xy 0.330881 0.470869)
    ) (layer "F.Fab") (width 0.01) (fill solid) (tstamp 8e1983d7-818b-423d-95d2-7f219e4f6ba3))
  (pad "1" smd rect (at -0.85 0) (size 1.1 1) (layers "F.Cu" "F.Paste" "F.Mask") (tstamp 6579642b-a152-47f7-af0e-0d8866bdfcb8))
  (pad "2" smd rect (at 0.85 0) (size 1.1 1) (layers "F.Cu" "F.Paste" "F.Mask") (tstamp eac540a2-0555-4530-b9cb-9b037a65c0a7))
)
