(footprint "SOP127P600X175-9N" (version 20211014) (generator pcbnew)
  (layer "F.Cu")
  (tedit 623382F9)
  (attr through_hole)
  (fp_text reference "REF**" (at -0.795 -3.362) (layer "F.SilkS")
    (effects (font (size 1 1) (thickness 0.15)))
    (tstamp 42dd1fad-d6e1-4a22-bcd7-61c29a70aea6)
  )
  (fp_text value "SOP127P600X175-9N" (at 6.825 3.362) (layer "F.Fab")
    (effects (font (size 1 1) (thickness 0.15)))
    (tstamp 2a891096-042c-4004-b161-8bd2c0b59fd7)
  )
  (fp_poly (pts
      (xy -0.645 -0.82)
      (xy 0.645 -0.82)
      (xy 0.645 0.82)
      (xy -0.645 0.82)
    ) (layer "F.Paste") (width 0.01) (fill solid) (tstamp a1f64cc6-dc73-41aa-a86c-99d2c0c7e9e8))
  (fp_line (start -2 -2.55) (end 2 -2.55) (layer "F.SilkS") (width 0.127) (tstamp 99e5628a-8c61-4f9d-aa6e-5b585271b505))
  (fp_line (start -2 2.55) (end 2 2.55) (layer "F.SilkS") (width 0.127) (tstamp 9f289b4a-cc82-473b-9973-1ab4c36355f8))
  (fp_circle (center -4.445 -2.505) (end -4.345 -2.505) (layer "F.SilkS") (width 0.2) (fill none) (tstamp c27162ce-dec2-4696-8422-f740d31716cf))
  (fp_line (start -3.71 -2.8) (end 3.71 -2.8) (layer "F.CrtYd") (width 0.05) (tstamp 328b655f-3682-4d72-b986-09747092cdfb))
  (fp_line (start -3.71 -2.8) (end -3.71 2.8) (layer "F.CrtYd") (width 0.05) (tstamp 7dd46673-4551-4937-beee-2ea3f888f7bc))
  (fp_line (start 3.71 -2.8) (end 3.71 2.8) (layer "F.CrtYd") (width 0.05) (tstamp bade9875-e59b-4d52-b529-c48d7c265fc4))
  (fp_line (start -3.71 2.8) (end 3.71 2.8) (layer "F.CrtYd") (width 0.05) (tstamp d46f6682-7aa3-41f8-8dfe-bfed3b1f9948))
  (fp_line (start 2 -2.55) (end 2 2.55) (layer "F.Fab") (width 0.127) (tstamp 11ccd497-2713-4d03-8a7a-1dbd53fbc1f7))
  (fp_line (start -2 -2.55) (end -2 2.55) (layer "F.Fab") (width 0.127) (tstamp 46c31fef-8b6d-4892-b7d6-1b9818ed82f5))
  (fp_line (start -2 2.55) (end 2 2.55) (layer "F.Fab") (width 0.127) (tstamp c7050574-27e1-4a80-9dab-24805663409e))
  (fp_line (start -2 -2.55) (end 2 -2.55) (layer "F.Fab") (width 0.127) (tstamp c9af433b-c759-435f-b23f-8e61bde22221))
  (fp_circle (center -4.445 -2.505) (end -4.345 -2.505) (layer "F.Fab") (width 0.2) (fill none) (tstamp 058fedcc-704d-4293-8197-34a17ef8dc07))
  (pad "1" smd roundrect (at -2.475 -1.905) (size 1.97 0.6) (layers "F.Cu" "F.Paste" "F.Mask") (roundrect_rratio 0.07) (tstamp 771145ed-2e00-4172-ac95-37a36c6a35ce))
  (pad "2" smd roundrect (at -2.475 -0.635) (size 1.97 0.6) (layers "F.Cu" "F.Paste" "F.Mask") (roundrect_rratio 0.07) (tstamp b81cd904-69d1-4c8b-81f2-302fdf1cfeb0))
  (pad "3" smd roundrect (at -2.475 0.635) (size 1.97 0.6) (layers "F.Cu" "F.Paste" "F.Mask") (roundrect_rratio 0.07) (tstamp a27ad806-2f49-493b-a712-5cefb34fea4e))
  (pad "4" smd roundrect (at -2.475 1.905) (size 1.97 0.6) (layers "F.Cu" "F.Paste" "F.Mask") (roundrect_rratio 0.07) (tstamp 920d067c-09ea-4120-b810-77cbd11822fb))
  (pad "5" smd roundrect (at 2.475 1.905) (size 1.97 0.6) (layers "F.Cu" "F.Paste" "F.Mask") (roundrect_rratio 0.07) (tstamp 2629f374-664b-4a6a-877f-847eba3a2928))
  (pad "6" smd roundrect (at 2.475 0.635) (size 1.97 0.6) (layers "F.Cu" "F.Paste" "F.Mask") (roundrect_rratio 0.07) (tstamp e096fb6c-9c86-457b-8f2e-4be4f1ee308e))
  (pad "7" smd roundrect (at 2.475 -0.635) (size 1.97 0.6) (layers "F.Cu" "F.Paste" "F.Mask") (roundrect_rratio 0.07) (tstamp 4e26d1df-a557-446c-8724-16a2959e6714))
  (pad "8" smd roundrect (at 2.475 -1.905) (size 1.97 0.6) (layers "F.Cu" "F.Paste" "F.Mask") (roundrect_rratio 0.07) (tstamp 3bd1d24a-0ba6-444e-896e-ab4ac7dd5127))
  (pad "9" smd rect (at 0 0) (size 2.413 3.302) (layers "F.Cu" "F.Mask") (tstamp 5417d93e-ea72-4615-a825-50b48895bd92))
)
