(kicad_sch (version 20211123) (generator eeschema)

  (uuid ae78189d-79c7-41a0-b77c-3bb766898352)

  (paper "A4")

  (title_block
    (title "Sensor HAT: Sensor Schematic")
    (date "2022-03-10")
    (rev "V03.0")
    (company "Univeristy of Cape Town")
    (comment 1 "Author: Hamish McKenzie")
  )

  (lib_symbols
    (symbol "Connector:TestPoint" (pin_numbers hide) (pin_names (offset 0.762) hide) (in_bom yes) (on_board yes)
      (property "Reference" "TP" (id 0) (at 0 6.858 0)
        (effects (font (size 1.27 1.27)))
      )
      (property "Value" "TestPoint" (id 1) (at 0 5.08 0)
        (effects (font (size 1.27 1.27)))
      )
      (property "Footprint" "" (id 2) (at 5.08 0 0)
        (effects (font (size 1.27 1.27)) hide)
      )
      (property "Datasheet" "~" (id 3) (at 5.08 0 0)
        (effects (font (size 1.27 1.27)) hide)
      )
      (property "ki_keywords" "test point tp" (id 4) (at 0 0 0)
        (effects (font (size 1.27 1.27)) hide)
      )
      (property "ki_description" "test point" (id 5) (at 0 0 0)
        (effects (font (size 1.27 1.27)) hide)
      )
      (property "ki_fp_filters" "Pin* Test*" (id 6) (at 0 0 0)
        (effects (font (size 1.27 1.27)) hide)
      )
      (symbol "TestPoint_0_1"
        (circle (center 0 3.302) (radius 0.762)
          (stroke (width 0) (type default) (color 0 0 0 0))
          (fill (type none))
        )
      )
      (symbol "TestPoint_1_1"
        (pin passive line (at 0 0 90) (length 2.54)
          (name "1" (effects (font (size 1.27 1.27))))
          (number "1" (effects (font (size 1.27 1.27))))
        )
      )
    )
    (symbol "Custom:R_PHOTO" (pin_numbers hide) (pin_names (offset 0)) (in_bom yes) (on_board yes)
      (property "Reference" "GL1" (id 0) (at 1.778 1.1684 0)
        (effects (font (size 1.27 1.27)) (justify left))
      )
      (property "Value" "R_PHOTO" (id 1) (at 1.778 -1.143 0)
        (effects (font (size 1.27 1.27)) (justify left))
      )
      (property "Footprint" "" (id 2) (at 1.27 -6.35 90)
        (effects (font (size 1.27 1.27)) (justify left) hide)
      )
      (property "Datasheet" "~" (id 3) (at 0 -1.27 0)
        (effects (font (size 1.27 1.27)) hide)
      )
      (property "ki_fp_filters" "*LDR* R?LDR*" (id 4) (at 0 0 0)
        (effects (font (size 1.27 1.27)) hide)
      )
      (symbol "R_PHOTO_0_1"
        (rectangle (start -1.016 2.54) (end 1.016 -2.54)
          (stroke (width 0.254) (type default) (color 0 0 0 0))
          (fill (type none))
        )
        (polyline
          (pts
            (xy -1.524 -2.286)
            (xy -4.064 0.254)
          )
          (stroke (width 0) (type default) (color 0 0 0 0))
          (fill (type none))
        )
        (polyline
          (pts
            (xy -1.524 -2.286)
            (xy -2.286 -2.286)
          )
          (stroke (width 0) (type default) (color 0 0 0 0))
          (fill (type none))
        )
        (polyline
          (pts
            (xy -1.524 -2.286)
            (xy -1.524 -1.524)
          )
          (stroke (width 0) (type default) (color 0 0 0 0))
          (fill (type none))
        )
        (polyline
          (pts
            (xy -1.524 -0.762)
            (xy -4.064 1.778)
          )
          (stroke (width 0) (type default) (color 0 0 0 0))
          (fill (type none))
        )
        (polyline
          (pts
            (xy -1.524 -0.762)
            (xy -2.286 -0.762)
          )
          (stroke (width 0) (type default) (color 0 0 0 0))
          (fill (type none))
        )
        (polyline
          (pts
            (xy -1.524 -0.762)
            (xy -1.524 0)
          )
          (stroke (width 0) (type default) (color 0 0 0 0))
          (fill (type none))
        )
      )
      (symbol "R_PHOTO_1_1"
        (pin passive line (at 0 3.81 270) (length 1.27)
          (name "~" (effects (font (size 1.27 1.27))))
          (number "1" (effects (font (size 1.27 1.27))))
        )
        (pin passive line (at 0 -3.81 90) (length 1.27)
          (name "~" (effects (font (size 1.27 1.27))))
          (number "2" (effects (font (size 1.27 1.27))))
        )
      )
    )
    (symbol "Custom:SHT20" (pin_names (offset 1.016)) (in_bom yes) (on_board yes)
      (property "Reference" "U3" (id 0) (at 0 14.986 0)
        (effects (font (size 1.27 1.27)))
      )
      (property "Value" "SHT20" (id 1) (at 0 12.446 0)
        (effects (font (size 1.27 1.27)))
      )
      (property "Footprint" "3088HAT:XDCR_SHT20" (id 2) (at -17.78 -1.27 90)
        (effects (font (size 1.27 1.27)) hide)
      )
      (property "Datasheet" "https://datasheet.lcsc.com/lcsc/1809192317_Sensirion-SHT20_C53865.pdf" (id 3) (at 0 19.05 0)
        (effects (font (size 1.27 1.27)) hide)
      )
      (property "LCSC" "C53865" (id 4) (at 0 0 0)
        (effects (font (size 1.27 1.27)) hide)
      )
      (property "Price" "2.0753" (id 5) (at 0 -3.81 0)
        (effects (font (size 1.27 1.27)) hide)
      )
      (property "Extended" "Y" (id 6) (at 0 -6.35 0)
        (effects (font (size 1.27 1.27)) hide)
      )
      (symbol "SHT20_0_1"
        (rectangle (start -10.16 -10.668) (end 9.906 9.398)
          (stroke (width 0) (type default) (color 0 0 0 0))
          (fill (type background))
        )
        (rectangle (start -6.223 6.477) (end 6.096 3.175)
          (stroke (width 0) (type default) (color 0 0 0 0))
          (fill (type none))
        )
      )
      (symbol "SHT20_1_1"
        (pin bidirectional line (at -12.573 -6.096 0) (length 2.54)
          (name "SDA" (effects (font (size 1.27 1.27))))
          (number "1" (effects (font (size 1.27 1.27))))
        )
        (pin bidirectional line (at -12.573 0.127 0) (length 2.54)
          (name "VSS" (effects (font (size 1.27 1.27))))
          (number "2" (effects (font (size 1.27 1.27))))
        )
        (pin no_connect line (at -12.7 5.08 0) (length 2.54)
          (name "~" (effects (font (size 1.27 1.27))))
          (number "3" (effects (font (size 1.27 1.27))))
        )
        (pin no_connect line (at 12.573 6.223 180) (length 2.54)
          (name "~" (effects (font (size 1.27 1.27))))
          (number "4" (effects (font (size 1.27 1.27))))
        )
        (pin power_in line (at 12.7 0 180) (length 2.54)
          (name "VDD" (effects (font (size 1.27 1.27))))
          (number "5" (effects (font (size 1.27 1.27))))
        )
        (pin bidirectional line (at 12.573 -5.842 180) (length 2.54)
          (name "SCL" (effects (font (size 1.27 1.27))))
          (number "6" (effects (font (size 1.27 1.27))))
        )
        (pin no_connect line (at 0 -13.208 90) (length 2.54)
          (name "Die_Pad" (effects (font (size 1.27 1.27))))
          (number "7" (effects (font (size 1.27 1.27))))
        )
      )
    )
    (symbol "Device:C" (pin_numbers hide) (pin_names (offset 0.254)) (in_bom yes) (on_board yes)
      (property "Reference" "C" (id 0) (at 0.635 2.54 0)
        (effects (font (size 1.27 1.27)) (justify left))
      )
      (property "Value" "C" (id 1) (at 0.635 -2.54 0)
        (effects (font (size 1.27 1.27)) (justify left))
      )
      (property "Footprint" "" (id 2) (at 0.9652 -3.81 0)
        (effects (font (size 1.27 1.27)) hide)
      )
      (property "Datasheet" "~" (id 3) (at 0 0 0)
        (effects (font (size 1.27 1.27)) hide)
      )
      (property "ki_keywords" "cap capacitor" (id 4) (at 0 0 0)
        (effects (font (size 1.27 1.27)) hide)
      )
      (property "ki_description" "Unpolarized capacitor" (id 5) (at 0 0 0)
        (effects (font (size 1.27 1.27)) hide)
      )
      (property "ki_fp_filters" "C_*" (id 6) (at 0 0 0)
        (effects (font (size 1.27 1.27)) hide)
      )
      (symbol "C_0_1"
        (polyline
          (pts
            (xy -2.032 -0.762)
            (xy 2.032 -0.762)
          )
          (stroke (width 0.508) (type default) (color 0 0 0 0))
          (fill (type none))
        )
        (polyline
          (pts
            (xy -2.032 0.762)
            (xy 2.032 0.762)
          )
          (stroke (width 0.508) (type default) (color 0 0 0 0))
          (fill (type none))
        )
      )
      (symbol "C_1_1"
        (pin passive line (at 0 3.81 270) (length 2.794)
          (name "~" (effects (font (size 1.27 1.27))))
          (number "1" (effects (font (size 1.27 1.27))))
        )
        (pin passive line (at 0 -3.81 90) (length 2.794)
          (name "~" (effects (font (size 1.27 1.27))))
          (number "2" (effects (font (size 1.27 1.27))))
        )
      )
    )
    (symbol "Device:R_Small_US" (pin_numbers hide) (pin_names (offset 0.254) hide) (in_bom yes) (on_board yes)
      (property "Reference" "R" (id 0) (at 0.762 0.508 0)
        (effects (font (size 1.27 1.27)) (justify left))
      )
      (property "Value" "R_Small_US" (id 1) (at 0.762 -1.016 0)
        (effects (font (size 1.27 1.27)) (justify left))
      )
      (property "Footprint" "" (id 2) (at 0 0 0)
        (effects (font (size 1.27 1.27)) hide)
      )
      (property "Datasheet" "~" (id 3) (at 0 0 0)
        (effects (font (size 1.27 1.27)) hide)
      )
      (property "ki_keywords" "r resistor" (id 4) (at 0 0 0)
        (effects (font (size 1.27 1.27)) hide)
      )
      (property "ki_description" "Resistor, small US symbol" (id 5) (at 0 0 0)
        (effects (font (size 1.27 1.27)) hide)
      )
      (property "ki_fp_filters" "R_*" (id 6) (at 0 0 0)
        (effects (font (size 1.27 1.27)) hide)
      )
      (symbol "R_Small_US_1_1"
        (polyline
          (pts
            (xy 0 0)
            (xy 1.016 -0.381)
            (xy 0 -0.762)
            (xy -1.016 -1.143)
            (xy 0 -1.524)
          )
          (stroke (width 0) (type default) (color 0 0 0 0))
          (fill (type none))
        )
        (polyline
          (pts
            (xy 0 1.524)
            (xy 1.016 1.143)
            (xy 0 0.762)
            (xy -1.016 0.381)
            (xy 0 0)
          )
          (stroke (width 0) (type default) (color 0 0 0 0))
          (fill (type none))
        )
        (pin passive line (at 0 2.54 270) (length 1.016)
          (name "~" (effects (font (size 1.27 1.27))))
          (number "1" (effects (font (size 1.27 1.27))))
        )
        (pin passive line (at 0 -2.54 90) (length 1.016)
          (name "~" (effects (font (size 1.27 1.27))))
          (number "2" (effects (font (size 1.27 1.27))))
        )
      )
    )
    (symbol "Device:R_US" (pin_numbers hide) (pin_names (offset 0)) (in_bom yes) (on_board yes)
      (property "Reference" "R" (id 0) (at 2.54 0 90)
        (effects (font (size 1.27 1.27)))
      )
      (property "Value" "R_US" (id 1) (at -2.54 0 90)
        (effects (font (size 1.27 1.27)))
      )
      (property "Footprint" "" (id 2) (at 1.016 -0.254 90)
        (effects (font (size 1.27 1.27)) hide)
      )
      (property "Datasheet" "~" (id 3) (at 0 0 0)
        (effects (font (size 1.27 1.27)) hide)
      )
      (property "ki_keywords" "R res resistor" (id 4) (at 0 0 0)
        (effects (font (size 1.27 1.27)) hide)
      )
      (property "ki_description" "Resistor, US symbol" (id 5) (at 0 0 0)
        (effects (font (size 1.27 1.27)) hide)
      )
      (property "ki_fp_filters" "R_*" (id 6) (at 0 0 0)
        (effects (font (size 1.27 1.27)) hide)
      )
      (symbol "R_US_0_1"
        (polyline
          (pts
            (xy 0 -2.286)
            (xy 0 -2.54)
          )
          (stroke (width 0) (type default) (color 0 0 0 0))
          (fill (type none))
        )
        (polyline
          (pts
            (xy 0 2.286)
            (xy 0 2.54)
          )
          (stroke (width 0) (type default) (color 0 0 0 0))
          (fill (type none))
        )
        (polyline
          (pts
            (xy 0 -0.762)
            (xy 1.016 -1.143)
            (xy 0 -1.524)
            (xy -1.016 -1.905)
            (xy 0 -2.286)
          )
          (stroke (width 0) (type default) (color 0 0 0 0))
          (fill (type none))
        )
        (polyline
          (pts
            (xy 0 0.762)
            (xy 1.016 0.381)
            (xy 0 0)
            (xy -1.016 -0.381)
            (xy 0 -0.762)
          )
          (stroke (width 0) (type default) (color 0 0 0 0))
          (fill (type none))
        )
        (polyline
          (pts
            (xy 0 2.286)
            (xy 1.016 1.905)
            (xy 0 1.524)
            (xy -1.016 1.143)
            (xy 0 0.762)
          )
          (stroke (width 0) (type default) (color 0 0 0 0))
          (fill (type none))
        )
      )
      (symbol "R_US_1_1"
        (pin passive line (at 0 3.81 270) (length 1.27)
          (name "~" (effects (font (size 1.27 1.27))))
          (number "1" (effects (font (size 1.27 1.27))))
        )
        (pin passive line (at 0 -3.81 90) (length 1.27)
          (name "~" (effects (font (size 1.27 1.27))))
          (number "2" (effects (font (size 1.27 1.27))))
        )
      )
    )
    (symbol "Transistor_FET:AO3401A" (pin_names hide) (in_bom yes) (on_board yes)
      (property "Reference" "Q" (id 0) (at 5.08 1.905 0)
        (effects (font (size 1.27 1.27)) (justify left))
      )
      (property "Value" "AO3401A" (id 1) (at 5.08 0 0)
        (effects (font (size 1.27 1.27)) (justify left))
      )
      (property "Footprint" "Package_TO_SOT_SMD:SOT-23" (id 2) (at 5.08 -1.905 0)
        (effects (font (size 1.27 1.27) italic) (justify left) hide)
      )
      (property "Datasheet" "http://www.aosmd.com/pdfs/datasheet/AO3401A.pdf" (id 3) (at 0 0 0)
        (effects (font (size 1.27 1.27)) (justify left) hide)
      )
      (property "ki_keywords" "P-Channel MOSFET" (id 4) (at 0 0 0)
        (effects (font (size 1.27 1.27)) hide)
      )
      (property "ki_description" "-4.0A Id, -30V Vds, P-Channel MOSFET, SOT-23" (id 5) (at 0 0 0)
        (effects (font (size 1.27 1.27)) hide)
      )
      (property "ki_fp_filters" "SOT?23*" (id 6) (at 0 0 0)
        (effects (font (size 1.27 1.27)) hide)
      )
      (symbol "AO3401A_0_1"
        (polyline
          (pts
            (xy 0.254 0)
            (xy -2.54 0)
          )
          (stroke (width 0) (type default) (color 0 0 0 0))
          (fill (type none))
        )
        (polyline
          (pts
            (xy 0.254 1.905)
            (xy 0.254 -1.905)
          )
          (stroke (width 0.254) (type default) (color 0 0 0 0))
          (fill (type none))
        )
        (polyline
          (pts
            (xy 0.762 -1.27)
            (xy 0.762 -2.286)
          )
          (stroke (width 0.254) (type default) (color 0 0 0 0))
          (fill (type none))
        )
        (polyline
          (pts
            (xy 0.762 0.508)
            (xy 0.762 -0.508)
          )
          (stroke (width 0.254) (type default) (color 0 0 0 0))
          (fill (type none))
        )
        (polyline
          (pts
            (xy 0.762 2.286)
            (xy 0.762 1.27)
          )
          (stroke (width 0.254) (type default) (color 0 0 0 0))
          (fill (type none))
        )
        (polyline
          (pts
            (xy 2.54 2.54)
            (xy 2.54 1.778)
          )
          (stroke (width 0) (type default) (color 0 0 0 0))
          (fill (type none))
        )
        (polyline
          (pts
            (xy 2.54 -2.54)
            (xy 2.54 0)
            (xy 0.762 0)
          )
          (stroke (width 0) (type default) (color 0 0 0 0))
          (fill (type none))
        )
        (polyline
          (pts
            (xy 0.762 1.778)
            (xy 3.302 1.778)
            (xy 3.302 -1.778)
            (xy 0.762 -1.778)
          )
          (stroke (width 0) (type default) (color 0 0 0 0))
          (fill (type none))
        )
        (polyline
          (pts
            (xy 2.286 0)
            (xy 1.27 0.381)
            (xy 1.27 -0.381)
            (xy 2.286 0)
          )
          (stroke (width 0) (type default) (color 0 0 0 0))
          (fill (type outline))
        )
        (polyline
          (pts
            (xy 2.794 -0.508)
            (xy 2.921 -0.381)
            (xy 3.683 -0.381)
            (xy 3.81 -0.254)
          )
          (stroke (width 0) (type default) (color 0 0 0 0))
          (fill (type none))
        )
        (polyline
          (pts
            (xy 3.302 -0.381)
            (xy 2.921 0.254)
            (xy 3.683 0.254)
            (xy 3.302 -0.381)
          )
          (stroke (width 0) (type default) (color 0 0 0 0))
          (fill (type none))
        )
        (circle (center 1.651 0) (radius 2.794)
          (stroke (width 0.254) (type default) (color 0 0 0 0))
          (fill (type none))
        )
        (circle (center 2.54 -1.778) (radius 0.254)
          (stroke (width 0) (type default) (color 0 0 0 0))
          (fill (type outline))
        )
        (circle (center 2.54 1.778) (radius 0.254)
          (stroke (width 0) (type default) (color 0 0 0 0))
          (fill (type outline))
        )
      )
      (symbol "AO3401A_1_1"
        (pin input line (at -5.08 0 0) (length 2.54)
          (name "G" (effects (font (size 1.27 1.27))))
          (number "1" (effects (font (size 1.27 1.27))))
        )
        (pin passive line (at 2.54 -5.08 90) (length 2.54)
          (name "S" (effects (font (size 1.27 1.27))))
          (number "2" (effects (font (size 1.27 1.27))))
        )
        (pin passive line (at 2.54 5.08 270) (length 2.54)
          (name "D" (effects (font (size 1.27 1.27))))
          (number "3" (effects (font (size 1.27 1.27))))
        )
      )
    )
    (symbol "power:GND" (power) (pin_names (offset 0)) (in_bom yes) (on_board yes)
      (property "Reference" "#PWR" (id 0) (at 0 -6.35 0)
        (effects (font (size 1.27 1.27)) hide)
      )
      (property "Value" "GND" (id 1) (at 0 -3.81 0)
        (effects (font (size 1.27 1.27)))
      )
      (property "Footprint" "" (id 2) (at 0 0 0)
        (effects (font (size 1.27 1.27)) hide)
      )
      (property "Datasheet" "" (id 3) (at 0 0 0)
        (effects (font (size 1.27 1.27)) hide)
      )
      (property "ki_keywords" "power-flag" (id 4) (at 0 0 0)
        (effects (font (size 1.27 1.27)) hide)
      )
      (property "ki_description" "Power symbol creates a global label with name \"GND\" , ground" (id 5) (at 0 0 0)
        (effects (font (size 1.27 1.27)) hide)
      )
      (symbol "GND_0_1"
        (polyline
          (pts
            (xy 0 0)
            (xy 0 -1.27)
            (xy 1.27 -1.27)
            (xy 0 -2.54)
            (xy -1.27 -1.27)
            (xy 0 -1.27)
          )
          (stroke (width 0) (type default) (color 0 0 0 0))
          (fill (type none))
        )
      )
      (symbol "GND_1_1"
        (pin power_in line (at 0 0 270) (length 0) hide
          (name "GND" (effects (font (size 1.27 1.27))))
          (number "1" (effects (font (size 1.27 1.27))))
        )
      )
    )
  )

  (junction (at 22.0726 73.9902) (diameter 0) (color 0 0 0 0)
    (uuid 0987ad8c-550b-4e78-a536-6eb165e8523e)
  )
  (junction (at 211.582 110.744) (diameter 0) (color 0 0 0 0)
    (uuid 169e3cbe-60cd-4bb4-ba50-905db7f4c05a)
  )
  (junction (at 60.7314 66.802) (diameter 0) (color 0 0 0 0)
    (uuid 1f1a3f76-a6b8-4ae6-8add-ee6a614cf7cf)
  )
  (junction (at 103.124 60.706) (diameter 0) (color 0 0 0 0)
    (uuid 1f5d4ad0-b21c-4f22-8e92-29c7e33c6a53)
  )
  (junction (at 60.579 60.579) (diameter 0) (color 0 0 0 0)
    (uuid 3e55b518-246d-48fa-a29b-5809955f4cf3)
  )
  (junction (at 70.866 66.802) (diameter 0) (color 0 0 0 0)
    (uuid 4ac589f9-4150-42a5-ba76-4caa59693252)
  )
  (junction (at 230.632 110.744) (diameter 0) (color 0 0 0 0)
    (uuid 719f2f0d-7267-499f-9fab-74d18d7cec61)
  )
  (junction (at 60.7314 78.1304) (diameter 0) (color 0 0 0 0)
    (uuid 83e79a70-1ec7-4176-afba-197af1d7c7b7)
  )
  (junction (at 100.33 66.548) (diameter 0) (color 0 0 0 0)
    (uuid 9b1f50c5-5e44-4b69-b1e8-007f7009cf41)
  )
  (junction (at 211.582 108.839) (diameter 0) (color 0 0 0 0)
    (uuid ae0d7f52-25db-435f-8736-0bdf43070b16)
  )
  (junction (at 112.7252 66.548) (diameter 0) (color 0 0 0 0)
    (uuid cfd0e1f1-e80e-4456-b17a-c9a96f9e8d55)
  )
  (junction (at 112.7252 82.4484) (diameter 0) (color 0 0 0 0)
    (uuid d12e97d0-f4a3-44f9-bb87-20f62c666bf5)
  )
  (junction (at 107.2896 60.706) (diameter 0) (color 0 0 0 0)
    (uuid df37c112-b4d8-41b5-891e-7b19bfdea3d6)
  )
  (junction (at 66.802 60.579) (diameter 0) (color 0 0 0 0)
    (uuid f509f99b-15d1-4459-8cc6-2cbf19b64d2d)
  )

  (polyline (pts (xy 174.6758 17.3482) (xy 174.6758 64.2366))
    (stroke (width 0) (type default) (color 0 0 0 0))
    (uuid 04d532d5-3cbd-4b91-80b2-0273d6c78ca3)
  )

  (wire (pts (xy 211.582 110.744) (xy 219.71 110.744))
    (stroke (width 0) (type default) (color 0 0 0 0))
    (uuid 051d2f62-3f27-408e-b047-752cb3da43c8)
  )
  (wire (pts (xy 153.5684 82.4484) (xy 153.5684 60.706))
    (stroke (width 0) (type default) (color 0 0 0 0))
    (uuid 0e9f942e-04a2-4967-a20f-0322f433a2b7)
  )
  (polyline (pts (xy 282.9306 64.2366) (xy 174.6758 64.2366))
    (stroke (width 0) (type default) (color 0 0 0 0))
    (uuid 1f1e1e97-5723-4cfe-81e4-7e85aa57002c)
  )
  (polyline (pts (xy 144.653 140.589) (xy 27.432 140.589))
    (stroke (width 0) (type default) (color 0 0 0 0))
    (uuid 1f598075-2912-4e24-9012-545ee025b662)
  )

  (wire (pts (xy 227.33 42.926) (xy 227.33 48.006))
    (stroke (width 0) (type default) (color 0 0 0 0))
    (uuid 216734a0-cb3a-4c93-a256-fdc45cc9f7e3)
  )
  (wire (pts (xy 112.7252 82.4484) (xy 153.5684 82.4484))
    (stroke (width 0) (type default) (color 0 0 0 0))
    (uuid 25448647-7995-44ef-8973-5bf455b67ead)
  )
  (wire (pts (xy 60.7314 78.105) (xy 60.7314 78.1304))
    (stroke (width 0) (type default) (color 0 0 0 0))
    (uuid 280e303b-6cb0-4a63-ad86-38ea386bc34f)
  )
  (wire (pts (xy 107.2896 42.164) (xy 107.2896 60.706))
    (stroke (width 0) (type default) (color 0 0 0 0))
    (uuid 3c343ab4-b627-4ecf-a990-9dedbce2d114)
  )
  (wire (pts (xy 60.7314 66.802) (xy 54.229 66.802))
    (stroke (width 0) (type default) (color 0 0 0 0))
    (uuid 3ccb552c-26b8-4795-9c9a-a9ee2c0634b5)
  )
  (wire (pts (xy 97.663 60.706) (xy 103.124 60.706))
    (stroke (width 0) (type default) (color 0 0 0 0))
    (uuid 3f89f120-c1ba-4157-b64c-4625206af10d)
  )
  (wire (pts (xy 97.536 66.548) (xy 100.33 66.548))
    (stroke (width 0) (type default) (color 0 0 0 0))
    (uuid 4312b48b-7cc4-4fa4-9160-e930c3598f24)
  )
  (polyline (pts (xy 174.117 71.247) (xy 171.45 71.247))
    (stroke (width 0) (type default) (color 0 0 0 0))
    (uuid 497f3732-001e-4605-9823-22c385878741)
  )

  (wire (pts (xy 112.7252 82.4484) (xy 112.7252 77.5462))
    (stroke (width 0) (type default) (color 0 0 0 0))
    (uuid 4e1766cb-0ccc-4e50-9b21-b7a794d0ab63)
  )
  (wire (pts (xy 112.7252 66.548) (xy 129.413 66.548))
    (stroke (width 0) (type default) (color 0 0 0 0))
    (uuid 4e4fa44b-2176-47f4-b0c0-4f9f086db3a8)
  )
  (polyline (pts (xy 165.5826 91.9988) (xy 20.5486 91.9988))
    (stroke (width 0) (type default) (color 0 0 0 0))
    (uuid 4ef4ae12-a59f-4cda-afc1-e823bf8ad240)
  )

  (wire (pts (xy 112.7252 66.548) (xy 112.7252 72.4662))
    (stroke (width 0) (type default) (color 0 0 0 0))
    (uuid 50ef776e-1890-489b-b3a9-2368d96f2098)
  )
  (wire (pts (xy 230.632 110.744) (xy 232.664 110.744))
    (stroke (width 0) (type default) (color 0 0 0 0))
    (uuid 53c0d7cc-298f-431d-99de-a3106df65f6f)
  )
  (wire (pts (xy 60.579 42.164) (xy 84.582 42.164))
    (stroke (width 0) (type default) (color 0 0 0 0))
    (uuid 5438266b-4cb4-43ae-8bfa-8d1e972b352f)
  )
  (wire (pts (xy 107.569 66.548) (xy 112.7252 66.548))
    (stroke (width 0) (type default) (color 0 0 0 0))
    (uuid 596da397-5125-4715-8b37-7bc0d305c030)
  )
  (wire (pts (xy 70.866 66.802) (xy 72.39 66.802))
    (stroke (width 0) (type default) (color 0 0 0 0))
    (uuid 5c785310-1f91-4f50-8051-e455c4bd131f)
  )
  (wire (pts (xy 87.122 118.872) (xy 90.7034 118.872))
    (stroke (width 0) (type default) (color 0 0 0 0))
    (uuid 61fb14ff-dee2-41eb-a8da-bef0308c1588)
  )
  (polyline (pts (xy 144.653 93.726) (xy 144.653 140.589))
    (stroke (width 0) (type default) (color 0 0 0 0))
    (uuid 633dfaba-658a-43cb-aacf-4cf003967182)
  )
  (polyline (pts (xy 282.9306 17.3482) (xy 282.9306 64.2366))
    (stroke (width 0) (type default) (color 0 0 0 0))
    (uuid 6382d879-b8c2-4624-bc9f-ef4d19b1fb97)
  )

  (wire (pts (xy 68.961 66.802) (xy 70.866 66.802))
    (stroke (width 0) (type default) (color 0 0 0 0))
    (uuid 64b2f477-0d0a-421c-8657-699f0a6abd20)
  )
  (wire (pts (xy 22.0726 60.579) (xy 22.0726 73.9902))
    (stroke (width 0) (type default) (color 0 0 0 0))
    (uuid 6b7f867b-349c-45a6-9010-84b25d15b9b1)
  )
  (wire (pts (xy 66.802 60.579) (xy 72.39 60.579))
    (stroke (width 0) (type default) (color 0 0 0 0))
    (uuid 71a7dbe3-ddd7-4be4-bde8-0133ba5360b9)
  )
  (wire (pts (xy 211.582 110.744) (xy 211.582 113.157))
    (stroke (width 0) (type default) (color 0 0 0 0))
    (uuid 71c14c41-0177-41c7-8645-43df0a5bc578)
  )
  (wire (pts (xy 224.79 110.744) (xy 230.632 110.744))
    (stroke (width 0) (type default) (color 0 0 0 0))
    (uuid 7dc7638c-aad9-4074-bf78-90248f5a2619)
  )
  (wire (pts (xy 211.582 93.726) (xy 211.582 91.948))
    (stroke (width 0) (type default) (color 0 0 0 0))
    (uuid 828acd3f-92ef-438d-8e1b-0efbdbdcdfd5)
  )
  (wire (pts (xy 60.7314 78.1304) (xy 60.7314 82.4738))
    (stroke (width 0) (type default) (color 0 0 0 0))
    (uuid 8495ff12-7ae8-462c-ac90-a118f876eaed)
  )
  (wire (pts (xy 63.881 66.802) (xy 60.7314 66.802))
    (stroke (width 0) (type default) (color 0 0 0 0))
    (uuid 8b13bdce-8569-483f-9499-9fe333e65736)
  )
  (wire (pts (xy 60.7314 66.802) (xy 60.7314 73.0504))
    (stroke (width 0) (type default) (color 0 0 0 0))
    (uuid 905ad2fb-2e98-40ec-aefb-913301884e78)
  )
  (polyline (pts (xy 27.432 98.298) (xy 27.432 140.589))
    (stroke (width 0) (type default) (color 0 0 0 0))
    (uuid 93fb94fb-01bc-4712-9055-300cf50e1da4)
  )
  (polyline (pts (xy 174.6504 17.3482) (xy 282.9306 17.3482))
    (stroke (width 0) (type default) (color 0 0 0 0))
    (uuid 97ad9f00-76cc-4b25-9d96-a87e03ab737a)
  )

  (wire (pts (xy 107.2896 60.706) (xy 110.236 60.706))
    (stroke (width 0) (type default) (color 0 0 0 0))
    (uuid 98bd27a3-72b2-4289-bfd6-2c58606ea3a0)
  )
  (polyline (pts (xy 27.432 93.726) (xy 144.653 93.726))
    (stroke (width 0) (type default) (color 0 0 0 0))
    (uuid 99f41e01-5f28-4054-9e6b-1c32cf32589b)
  )
  (polyline (pts (xy 272.288 132.08) (xy 273.304 132.08))
    (stroke (width 0) (type default) (color 0 0 0 0))
    (uuid 9ccd99b8-f50f-4f87-8b6c-61764f838c39)
  )

  (wire (pts (xy 211.582 101.346) (xy 211.582 101.981))
    (stroke (width 0) (type default) (color 0 0 0 0))
    (uuid 9fdc0999-db50-4d3a-92e6-f706f684a7a8)
  )
  (wire (pts (xy 211.582 107.061) (xy 211.582 108.839))
    (stroke (width 0) (type default) (color 0 0 0 0))
    (uuid a0b8b381-afed-41c6-af3a-d369c3e6aea6)
  )
  (wire (pts (xy 103.124 60.706) (xy 107.2896 60.706))
    (stroke (width 0) (type default) (color 0 0 0 0))
    (uuid a2015f07-a6f5-40c9-b50e-452cc561ffc0)
  )
  (polyline (pts (xy 273.304 71.247) (xy 171.323 71.247))
    (stroke (width 0) (type default) (color 0 0 0 0))
    (uuid a7a6ae66-7ea4-47e7-9b72-b3d2e7f40041)
  )

  (wire (pts (xy 212.09 37.846) (xy 208.026 37.846))
    (stroke (width 0) (type default) (color 0 0 0 0))
    (uuid aea877f5-0ed7-43d1-8662-bec20709999f)
  )
  (wire (pts (xy 211.582 108.839) (xy 211.582 110.744))
    (stroke (width 0) (type default) (color 0 0 0 0))
    (uuid b0085725-4b13-4f87-93a1-b6f1daee2767)
  )
  (polyline (pts (xy 273.304 132.08) (xy 273.304 71.247))
    (stroke (width 0) (type default) (color 0 0 0 0))
    (uuid b4331971-ff14-4cf3-a5b7-6c53d5bf03ce)
  )
  (polyline (pts (xy 20.701 30.353) (xy 165.735 30.353))
    (stroke (width 0) (type default) (color 0 0 0 0))
    (uuid bac82146-c1d1-4042-aa2c-952d74c7f9ca)
  )
  (polyline (pts (xy 171.45 132.08) (xy 273.431 132.08))
    (stroke (width 0) (type default) (color 0 0 0 0))
    (uuid bb4d59b8-7e98-4970-9af7-d95ee8a14f85)
  )
  (polyline (pts (xy 165.735 30.353) (xy 165.5826 91.9988))
    (stroke (width 0) (type default) (color 0 0 0 0))
    (uuid c2fe6f9c-7700-4730-b9a2-c6c562578586)
  )

  (wire (pts (xy 22.0726 73.9902) (xy 22.0726 74.0664))
    (stroke (width 0) (type default) (color 0 0 0 0))
    (uuid c7946870-4cfe-4e80-a061-dfe096641f1d)
  )
  (wire (pts (xy 227.33 28.956) (xy 227.33 32.766))
    (stroke (width 0) (type default) (color 0 0 0 0))
    (uuid cbaea685-93b4-4b40-b1a4-4444c68e60db)
  )
  (wire (pts (xy 60.579 60.579) (xy 60.579 42.164))
    (stroke (width 0) (type default) (color 0 0 0 0))
    (uuid ceff61bf-c817-4ed2-9cf1-0b4972d73cc8)
  )
  (wire (pts (xy 112.7252 82.4738) (xy 112.7252 82.4484))
    (stroke (width 0) (type default) (color 0 0 0 0))
    (uuid d1bcf958-d9b7-4dc6-8a60-c45d9ec6ca87)
  )
  (wire (pts (xy 115.316 60.706) (xy 153.5684 60.706))
    (stroke (width 0) (type default) (color 0 0 0 0))
    (uuid d3792ba7-c441-43d8-b458-cc81f817aa60)
  )
  (wire (pts (xy 92.202 42.164) (xy 107.2896 42.164))
    (stroke (width 0) (type default) (color 0 0 0 0))
    (uuid d6b9c9bf-3634-4454-81ba-3206fd922171)
  )
  (wire (pts (xy 60.579 60.579) (xy 66.802 60.579))
    (stroke (width 0) (type default) (color 0 0 0 0))
    (uuid d8ff5203-017a-4067-8f8c-257c2eafd5e9)
  )
  (wire (pts (xy 217.17 37.846) (xy 219.71 37.846))
    (stroke (width 0) (type default) (color 0 0 0 0))
    (uuid dd038b3d-235a-4247-aa74-054223bdeeec)
  )
  (wire (pts (xy 95.7834 118.872) (xy 109.0168 118.872))
    (stroke (width 0) (type default) (color 0 0 0 0))
    (uuid ddfee742-a307-4135-b9c2-13de0df3a54e)
  )
  (wire (pts (xy 60.7314 82.4738) (xy 112.7252 82.4738))
    (stroke (width 0) (type default) (color 0 0 0 0))
    (uuid e5732497-fe0a-435b-8376-728525c003f0)
  )
  (wire (pts (xy 100.33 66.548) (xy 102.489 66.548))
    (stroke (width 0) (type default) (color 0 0 0 0))
    (uuid e6729182-06fb-4776-99f4-2f328522b18a)
  )
  (polyline (pts (xy 20.701 30.353) (xy 20.5486 91.9988))
    (stroke (width 0) (type default) (color 0 0 0 0))
    (uuid ec353284-cecb-438f-8aec-8e6c994a2947)
  )

  (wire (pts (xy 22.0726 60.579) (xy 60.579 60.579))
    (stroke (width 0) (type default) (color 0 0 0 0))
    (uuid ece22b70-3498-4300-b207-74796b783369)
  )
  (wire (pts (xy 211.582 122.555) (xy 211.582 120.777))
    (stroke (width 0) (type default) (color 0 0 0 0))
    (uuid f545156b-0248-46f8-b130-54bb8dbaa66f)
  )
  (polyline (pts (xy 171.45 71.247) (xy 171.45 132.08))
    (stroke (width 0) (type default) (color 0 0 0 0))
    (uuid f6a3e924-2772-40c5-ba76-d46f1a981331)
  )
  (polyline (pts (xy 27.432 98.806) (xy 27.432 93.726))
    (stroke (width 0) (type default) (color 0 0 0 0))
    (uuid faadf84b-7f15-421d-b0b5-871a74dc33fd)
  )

  (text "VSS is connected to ground" (at 31.3944 60.0456 0)
    (effects (font (size 1.27 1.27)) (justify left bottom))
    (uuid 050dc09c-24ea-4f6e-990c-42fb5d1d78e4)
  )
  (text "ANALOGUE BATTERY VOLTAGE SENSOR SCHEMATIC" (at 59.436 103.886 0)
    (effects (font (size 2 2) (thickness 0.4) bold) (justify left bottom))
    (uuid 099d9797-344f-455a-b64a-dca166d57536)
  )
  (text "Pull up resistors connected to VDD.\nIncluded after Justin's comments highlighting \nthat the pull up resistos built into\nthe STM32f0 may not be strong enough"
    (at 116.5352 91.3384 0)
    (effects (font (size 1.27 1.27)) (justify left bottom))
    (uuid 1afa651d-e45f-4fe9-bacf-045fc1406804)
  )
  (text "VDD takes in 3V and is therefore, \nconnected to the 3V output of the \nMOSFET switching circuit.\n"
    (at 118.364 57.658 0)
    (effects (font (size 1.27 1.27)) (justify left bottom))
    (uuid 2e49379d-a10e-4f07-bf32-9f45b572cf3a)
  )
  (text "The zero ohm resistors are placed here \nto allow these wires to be broken \nincase of a faulty trace or design error"
    (at 218.5924 95.4278 0)
    (effects (font (size 1.27 1.27)) (justify left bottom))
    (uuid 370513c4-f24c-4cf2-acd2-506c8255130c)
  )
  (text "The zero ohm resistors are placed here \nto allow these wires to be broken \nincase of a faulty trace or design error"
    (at 117.1956 40.8686 0)
    (effects (font (size 1.27 1.27)) (justify left bottom))
    (uuid 4c23f5e1-e97d-4119-a522-6baa7694891c)
  )
  (text "Vout is connected to an ADC pin on the\n stm32discovery board\ncurrently it is planned to be connected\n to pin 15 PA0) which is a GPIO pin with an ADC"
    (at 223.774 121.793 0)
    (effects (font (size 1.27 1.27)) (justify left bottom))
    (uuid 68a5d272-b1fa-4e1b-81b0-38b69a8bdbff)
  )
  (text "DIGITAL TEMPERATURE AND HUMIDITY SENSOR" (at 56.134 26.797 0)
    (effects (font (size 2 2) (thickness 0.4) bold) (justify left bottom))
    (uuid 6ec534cb-d4bc-44ca-85f2-25d6e09f662d)
  )
  (text "The MOSFET switch requires a 3V \ninput such that when the FET is on\nand the switch is \"closed\" that it may supply 3V.\nIt gets this from the 3V pin (pin 1) \non our STM32Discovery board"
    (at 232.41 52.832 0)
    (effects (font (size 1.27 1.27)) (justify left bottom))
    (uuid 718cab42-c353-4e40-9d13-53ec599d0616)
  )
  (text "Vbat is connected to the Vbat pin\non the discovery board (pin 3)"
    (at 104.3686 116.4336 0)
    (effects (font (size 1.27 1.27)) (justify left bottom))
    (uuid 7790796e-2bc7-4e1a-9e28-f9266112d31b)
  )
  (text "SDA is connected to pin 31 (pb11)\non the microcontroller\nThis pin outputs an I2C signal"
    (at 22.6314 69.5198 0)
    (effects (font (size 1.27 1.27)) (justify left bottom))
    (uuid 7a2ebfa2-512d-4d45-a8a9-396653b27ef5)
  )
  (text "The zero ohm resistors are placed here \nto allow these wires to be broken \nincase of a faulty trace or design error"
    (at 82.677 131.318 0)
    (effects (font (size 1.27 1.27)) (justify left bottom))
    (uuid 88bbe7ac-c48e-48df-9766-3851e38c9749)
  )
  (text "The positive battery terminal\n is connected directly to the \npositive terminal on the 18650 battery"
    (at 43.815 116.205 0)
    (effects (font (size 1.27 1.27)) (justify left bottom))
    (uuid 8ba80b37-cb67-40c5-931e-62570f7eae7f)
  )
  (text "The MOSFET gate is controlled by the PB12 \nGPIO pin on the stm32f0discovery board\nWhen the GPIO pin is set to high, \nthen the gate voltage will be high,\nand the MOSFET will be turned off, \nturning on the SHT20.\nWhen the GPIO pin is set low then the \ngate voltage of the MOSFET will be\nset low, and the MOSFET will turn off, \nturning off the SHT20"
    (at 180.1114 62.4332 0)
    (effects (font (size 1.27 1.27)) (justify left bottom))
    (uuid b2c05ed4-5166-45e0-82d7-57d85f469a1c)
  )
  (text "The switch_out pin supplies 3V\nto the SHT20" (at 236.5248 27.0256 0)
    (effects (font (size 1.27 1.27)) (justify left bottom))
    (uuid d57401dd-2d55-4ba5-86e6-9860508e4c16)
  )
  (text "The analogue LDR circuit also runs off of the 3V pin (pin 1)\n on the stm32Discovery Board."
    (at 176.53 87.376 0)
    (effects (font (size 1.27 1.27)) (justify left bottom))
    (uuid ec2e55ac-d0a5-4116-91e5-3069de01cf40)
  )
  (text "SCL is connected to pin 30 (pb10) \non the stm32discovery board"
    (at 114.808 72.517 0)
    (effects (font (size 1.27 1.27)) (justify left bottom))
    (uuid ee35353a-52eb-4858-8e1c-d8cbd5a46b5a)
  )
  (text "ANALOGUE LDR SENSOR CIRCUIT" (at 194.564 77.089 0)
    (effects (font (size 2 2) (thickness 0.4) bold) (justify left bottom))
    (uuid f8a3664b-dfe5-47bc-95d7-b0899889d680)
  )
  (text "MOSFET SWITCH" (at 212.344 22.098 0)
    (effects (font (size 2 2) (thickness 0.4) bold) (justify left bottom))
    (uuid fd2909ae-0c03-4952-b0d4-bcbd05e1e541)
  )

  (label "Switch_out" (at 227.33 28.956 0)
    (effects (font (size 1.27 1.27)) (justify left bottom))
    (uuid 16713e75-c25b-4ea2-ada4-bcff69e51aff)
  )
  (label "Switch_out" (at 130.3782 60.706 0)
    (effects (font (size 1.27 1.27)) (justify left bottom))
    (uuid d55bec9c-0040-4285-b3f5-be7105a535ee)
  )

  (hierarchical_label "VOUT" (shape input) (at 232.664 110.744 0)
    (effects (font (size 1.27 1.27)) (justify left))
    (uuid 02047877-ee12-45ba-b84b-c474c2c49731)
  )
  (hierarchical_label "3V" (shape input) (at 227.33 48.006 0)
    (effects (font (size 1.27 1.27)) (justify left))
    (uuid 0c9093e8-a858-4db7-89b7-838ffa54faeb)
  )
  (hierarchical_label "VBAT" (shape input) (at 109.0168 118.872 0)
    (effects (font (size 1.27 1.27) bold) (justify left))
    (uuid 16716d7b-5c01-4304-83b6-670a3cb6fa16)
  )
  (hierarchical_label "3V" (shape input) (at 211.582 91.948 0)
    (effects (font (size 1.27 1.27)) (justify left))
    (uuid 72314950-f98a-4fd6-954a-cfe983b81bd5)
  )
  (hierarchical_label "Positive_Battery_Terminal" (shape input) (at 87.122 118.872 180)
    (effects (font (size 1.27 1.27) bold) (justify right))
    (uuid 763e4645-cb45-4d3a-96de-7801c032f61e)
  )
  (hierarchical_label "SDA" (shape input) (at 54.229 66.802 180)
    (effects (font (size 1.27 1.27) bold) (justify right))
    (uuid 880348c9-a957-4217-8306-189ccf0d3c3b)
  )
  (hierarchical_label "SCL" (shape input) (at 129.413 66.548 0)
    (effects (font (size 1.27 1.27) bold) (justify left))
    (uuid a85effe4-cc6c-4698-8d43-b6c487029e12)
  )
  (hierarchical_label "Microcontroller GPIO pin" (shape input) (at 208.026 37.846 180)
    (effects (font (size 1.27 1.27)) (justify right))
    (uuid fc5cf660-bbcf-4209-8817-010c0d71d183)
  )

  (symbol (lib_id "Device:R_Small_US") (at 112.776 60.706 270) (mirror x) (unit 1)
    (in_bom yes) (on_board yes)
    (uuid 0cc9cc21-369a-42b3-a906-23bc9036dee8)
    (property "Reference" "R10" (id 0) (at 112.776 56.007 90))
    (property "Value" "0" (id 1) (at 112.776 58.166 90))
    (property "Footprint" "Resistor_SMD:R_0805_2012Metric" (id 2) (at 112.776 60.706 0)
      (effects (font (size 1.27 1.27)) hide)
    )
    (property "Datasheet" "https://datasheet.lcsc.com/lcsc/2110251730_UNI-ROYAL-Uniroyal-Elec-0805W8F0000T5E_C17477.pdf" (id 3) (at 112.776 60.706 0)
      (effects (font (size 1.27 1.27)) hide)
    )
    (property "LCSC" "C17477" (id 4) (at 112.776 60.706 0)
      (effects (font (size 1.27 1.27)) hide)
    )
    (property "Price" "0.0024" (id 5) (at 112.776 60.706 0)
      (effects (font (size 1.27 1.27)) hide)
    )
    (property "Extended" "N" (id 6) (at 112.776 60.706 0)
      (effects (font (size 1.27 1.27)) hide)
    )
    (property "Populate" "P" (id 7) (at 112.776 60.706 0)
      (effects (font (size 1.27 1.27)) hide)
    )
    (pin "1" (uuid 51212d90-e5f8-4236-af5e-2a434be1a954))
    (pin "2" (uuid 982ac00c-df4b-4d26-b0ec-683e74b6f7ea))
  )

  (symbol (lib_id "power:GND") (at 211.582 122.555 0) (unit 1)
    (in_bom yes) (on_board yes)
    (uuid 0fe28f34-6514-48d6-9511-89c35772524f)
    (property "Reference" "#PWR029" (id 0) (at 211.582 128.905 0)
      (effects (font (size 1.27 1.27)) hide)
    )
    (property "Value" "GND" (id 1) (at 211.709 126.9492 0))
    (property "Footprint" "" (id 2) (at 211.582 122.555 0)
      (effects (font (size 1.27 1.27)) hide)
    )
    (property "Datasheet" "" (id 3) (at 211.582 122.555 0)
      (effects (font (size 1.27 1.27)) hide)
    )
    (pin "1" (uuid 29d44d89-ef2d-4c22-a9f0-df5360a62892))
  )

  (symbol (lib_id "Connector:TestPoint") (at 66.802 60.579 0) (unit 1)
    (in_bom yes) (on_board yes)
    (uuid 13dcaf14-94ae-4c14-829c-eee3d84248c9)
    (property "Reference" "TP5" (id 0) (at 68.58 52.959 0)
      (effects (font (size 1.27 1.27)) (justify right))
    )
    (property "Value" "TestPoint" (id 1) (at 70.866 54.737 0)
      (effects (font (size 1.27 1.27)) (justify right))
    )
    (property "Footprint" "TestPoint:TestPoint_THTPad_D2.5mm_Drill1.2mm" (id 2) (at 71.882 60.579 0)
      (effects (font (size 1.27 1.27)) hide)
    )
    (property "Datasheet" "~" (id 3) (at 71.882 60.579 0)
      (effects (font (size 1.27 1.27)) hide)
    )
    (pin "1" (uuid ded0ae08-c4ae-4645-8d5f-bcf791249480))
  )

  (symbol (lib_id "Device:R_Small_US") (at 112.7252 75.0062 0) (mirror y) (unit 1)
    (in_bom yes) (on_board yes)
    (uuid 2a78269f-5283-4914-96bf-604b95e8eacc)
    (property "Reference" "R24" (id 0) (at 108.0262 75.0062 90))
    (property "Value" "10k" (id 1) (at 110.1852 75.0062 90))
    (property "Footprint" "Resistor_SMD:R_0805_2012Metric" (id 2) (at 112.7252 75.0062 0)
      (effects (font (size 1.27 1.27)) hide)
    )
    (property "Datasheet" "https://datasheet.lcsc.com/lcsc/2110251730_UNI-ROYAL-Uniroyal-Elec-0805W8F1002T5E_C17414.pdf" (id 3) (at 112.7252 75.0062 0)
      (effects (font (size 1.27 1.27)) hide)
    )
    (property "LCSC" "C17414" (id 4) (at 112.7252 75.0062 0)
      (effects (font (size 1.27 1.27)) hide)
    )
    (property "Price" "0.0021" (id 5) (at 112.7252 75.0062 0)
      (effects (font (size 1.27 1.27)) hide)
    )
    (property "Extended" "N" (id 6) (at 112.7252 75.0062 0)
      (effects (font (size 1.27 1.27)) hide)
    )
    (property "Populate" "P" (id 7) (at 112.7252 75.0062 0)
      (effects (font (size 1.27 1.27)) hide)
    )
    (pin "1" (uuid d15dd58e-76a8-4a86-bf2e-7e1c057889fe))
    (pin "2" (uuid fbeaeb38-eb42-4fdd-a884-1b897d4abaef))
  )

  (symbol (lib_id "power:GND") (at 22.0726 73.9902 0) (unit 1)
    (in_bom yes) (on_board yes)
    (uuid 3b3c9cf3-4468-436c-80a1-98762eb3a092)
    (property "Reference" "#PWR027" (id 0) (at 22.0726 80.3402 0)
      (effects (font (size 1.27 1.27)) hide)
    )
    (property "Value" "GND" (id 1) (at 22.1996 78.3844 0))
    (property "Footprint" "" (id 2) (at 22.0726 73.9902 0)
      (effects (font (size 1.27 1.27)) hide)
    )
    (property "Datasheet" "" (id 3) (at 22.0726 73.9902 0)
      (effects (font (size 1.27 1.27)) hide)
    )
    (pin "1" (uuid f139859c-7794-458b-bd0c-9eac744401c5))
  )

  (symbol (lib_id "Connector:TestPoint") (at 103.124 60.706 0) (unit 1)
    (in_bom yes) (on_board yes)
    (uuid 585a554e-a230-4b0a-8977-924baff860e8)
    (property "Reference" "TP9" (id 0) (at 104.902 53.086 0)
      (effects (font (size 1.27 1.27)) (justify right))
    )
    (property "Value" "TestPoint" (id 1) (at 107.188 54.864 0)
      (effects (font (size 1.27 1.27)) (justify right))
    )
    (property "Footprint" "TestPoint:TestPoint_THTPad_D2.5mm_Drill1.2mm" (id 2) (at 108.204 60.706 0)
      (effects (font (size 1.27 1.27)) hide)
    )
    (property "Datasheet" "~" (id 3) (at 108.204 60.706 0)
      (effects (font (size 1.27 1.27)) hide)
    )
    (pin "1" (uuid 9059a246-95b1-43e2-bf4d-c89d4695b97d))
  )

  (symbol (lib_id "Custom:SHT20") (at 84.963 60.706 0) (unit 1)
    (in_bom yes) (on_board yes) (fields_autoplaced)
    (uuid 5b006346-a541-4015-8eab-100c52743b34)
    (property "Reference" "U3" (id 0) (at 84.963 45.72 0))
    (property "Value" "SHT20" (id 1) (at 84.963 48.26 0))
    (property "Footprint" "3088HAT:XDCR_SHT20" (id 2) (at 67.183 61.976 90)
      (effects (font (size 1.27 1.27)) hide)
    )
    (property "Datasheet" "https://datasheet.lcsc.com/lcsc/1809192317_Sensirion-SHT20_C53865.pdf" (id 3) (at 84.963 41.656 0)
      (effects (font (size 1.27 1.27)) hide)
    )
    (property "LCSC" "C53865" (id 4) (at 84.963 60.706 0)
      (effects (font (size 1.27 1.27)) hide)
    )
    (property "Price" "2.0753" (id 5) (at 84.963 64.516 0)
      (effects (font (size 1.27 1.27)) hide)
    )
    (property "Extended" "Y" (id 6) (at 84.963 67.056 0)
      (effects (font (size 1.27 1.27)) hide)
    )
    (pin "1" (uuid 1f2b2f7a-eb33-49fa-b50b-b41db33716ef))
    (pin "2" (uuid d3adaceb-e8f2-4905-8a21-856b3518823d))
    (pin "3" (uuid b83576b6-077b-4249-9b51-8c0445e8d24e))
    (pin "4" (uuid d3c533fa-b377-4028-8743-c3c8edfe831b))
    (pin "5" (uuid bed5f86c-34ec-4d3b-952a-0dfc8fa7580b))
    (pin "6" (uuid 3e5c0b20-185f-44ef-9342-ac7333fa65d9))
    (pin "7" (uuid 500c5917-f823-41b7-bf1c-b980f09e2acf))
  )

  (symbol (lib_id "Connector:TestPoint") (at 230.632 110.744 0) (unit 1)
    (in_bom yes) (on_board yes)
    (uuid 60b38054-850f-4f43-8833-7b4e69089f16)
    (property "Reference" "TP11" (id 0) (at 232.664 103.632 0)
      (effects (font (size 1.27 1.27)) (justify right))
    )
    (property "Value" "TestPoint" (id 1) (at 236.982 105.41 0)
      (effects (font (size 1.27 1.27)) (justify right))
    )
    (property "Footprint" "TestPoint:TestPoint_THTPad_D2.5mm_Drill1.2mm" (id 2) (at 235.712 110.744 0)
      (effects (font (size 1.27 1.27)) hide)
    )
    (property "Datasheet" "~" (id 3) (at 235.712 110.744 0)
      (effects (font (size 1.27 1.27)) hide)
    )
    (pin "1" (uuid 62a9b422-fa69-4ef7-9373-e8b88e975c8f))
  )

  (symbol (lib_id "Connector:TestPoint") (at 100.33 66.548 180) (unit 1)
    (in_bom yes) (on_board yes)
    (uuid 6a30dc8a-7361-4ec8-8671-b53814081e57)
    (property "Reference" "TP8" (id 0) (at 98.552 74.168 0)
      (effects (font (size 1.27 1.27)) (justify right))
    )
    (property "Value" "TestPoint" (id 1) (at 96.266 72.39 0)
      (effects (font (size 1.27 1.27)) (justify right))
    )
    (property "Footprint" "TestPoint:TestPoint_THTPad_D2.5mm_Drill1.2mm" (id 2) (at 95.25 66.548 0)
      (effects (font (size 1.27 1.27)) hide)
    )
    (property "Datasheet" "~" (id 3) (at 95.25 66.548 0)
      (effects (font (size 1.27 1.27)) hide)
    )
    (pin "1" (uuid ddc72af3-63f5-49a7-8f5d-10dd9672551c))
  )

  (symbol (lib_id "Device:R_Small_US") (at 66.421 66.802 90) (unit 1)
    (in_bom yes) (on_board yes)
    (uuid 6d0b1945-4118-4521-bdab-359577cbe15d)
    (property "Reference" "R7" (id 0) (at 66.548 64.262 90))
    (property "Value" "0" (id 1) (at 66.548 69.469 90))
    (property "Footprint" "Resistor_SMD:R_0805_2012Metric" (id 2) (at 66.421 66.802 0)
      (effects (font (size 1.27 1.27)) hide)
    )
    (property "Datasheet" "https://datasheet.lcsc.com/lcsc/2110251730_UNI-ROYAL-Uniroyal-Elec-0805W8F0000T5E_C17477.pdf" (id 3) (at 66.421 66.802 0)
      (effects (font (size 1.27 1.27)) hide)
    )
    (property "LCSC" "C17477" (id 4) (at 66.421 66.802 0)
      (effects (font (size 1.27 1.27)) hide)
    )
    (property "Price" "0.0024" (id 5) (at 66.421 66.802 0)
      (effects (font (size 1.27 1.27)) hide)
    )
    (property "Extended" "N" (id 6) (at 66.421 66.802 0)
      (effects (font (size 1.27 1.27)) hide)
    )
    (property "Populate" "P" (id 7) (at 66.421 66.802 0)
      (effects (font (size 1.27 1.27)) hide)
    )
    (pin "1" (uuid e90ce246-f40e-4266-ba2d-0fca6d36e1db))
    (pin "2" (uuid b8d19eed-2111-44f9-a0b0-447b8788f60e))
  )

  (symbol (lib_id "Connector:TestPoint") (at 211.582 108.839 90) (unit 1)
    (in_bom yes) (on_board yes)
    (uuid 7a335320-b95e-4561-84f1-190d67c2443d)
    (property "Reference" "TP10" (id 0) (at 203.962 107.061 0)
      (effects (font (size 1.27 1.27)) (justify right))
    )
    (property "Value" "TestPoint" (id 1) (at 205.74 104.775 0)
      (effects (font (size 1.27 1.27)) (justify right))
    )
    (property "Footprint" "TestPoint:TestPoint_THTPad_D2.5mm_Drill1.2mm" (id 2) (at 211.582 103.759 0)
      (effects (font (size 1.27 1.27)) hide)
    )
    (property "Datasheet" "~" (id 3) (at 211.582 103.759 0)
      (effects (font (size 1.27 1.27)) hide)
    )
    (pin "1" (uuid ad6ddb3d-2159-4176-8841-f6f17657344c))
  )

  (symbol (lib_id "Device:R_Small_US") (at 60.7314 75.5904 0) (mirror y) (unit 1)
    (in_bom yes) (on_board yes)
    (uuid 7b909064-4048-472a-8278-72231e1c1d0b)
    (property "Reference" "R21" (id 0) (at 56.0324 75.5904 90))
    (property "Value" "10k" (id 1) (at 58.1914 75.5904 90))
    (property "Footprint" "Resistor_SMD:R_0805_2012Metric" (id 2) (at 60.7314 75.5904 0)
      (effects (font (size 1.27 1.27)) hide)
    )
    (property "Datasheet" "https://datasheet.lcsc.com/lcsc/2110251730_UNI-ROYAL-Uniroyal-Elec-0805W8F1002T5E_C17414.pdf" (id 3) (at 60.7314 75.5904 0)
      (effects (font (size 1.27 1.27)) hide)
    )
    (property "LCSC" "C17414" (id 4) (at 60.7314 75.5904 0)
      (effects (font (size 1.27 1.27)) hide)
    )
    (property "Price" "0.0024" (id 5) (at 60.7314 75.5904 0)
      (effects (font (size 1.27 1.27)) hide)
    )
    (property "Extended" "N" (id 6) (at 60.7314 75.5904 0)
      (effects (font (size 1.27 1.27)) hide)
    )
    (property "Populate" "P" (id 7) (at 60.7314 75.5904 0)
      (effects (font (size 1.27 1.27)) hide)
    )
    (pin "1" (uuid 5dbffd9b-898c-4196-85a1-1ee3ece1857c))
    (pin "2" (uuid 1dd98e73-1a5e-4b9c-baa0-cc7e0b0834f3))
  )

  (symbol (lib_id "Device:R_Small_US") (at 222.25 110.744 90) (unit 1)
    (in_bom yes) (on_board yes)
    (uuid 971773fb-790f-45dc-b65d-f4b0af5a4c57)
    (property "Reference" "R14" (id 0) (at 222.123 106.299 90))
    (property "Value" "0" (id 1) (at 222.25 108.204 90))
    (property "Footprint" "Resistor_SMD:R_0805_2012Metric" (id 2) (at 222.25 110.744 0)
      (effects (font (size 1.27 1.27)) hide)
    )
    (property "Datasheet" "https://datasheet.lcsc.com/lcsc/2110251730_UNI-ROYAL-Uniroyal-Elec-0805W8F0000T5E_C17477.pdf" (id 3) (at 222.25 110.744 0)
      (effects (font (size 1.27 1.27)) hide)
    )
    (property "LCSC" "C17477" (id 4) (at 222.25 110.744 0)
      (effects (font (size 1.27 1.27)) hide)
    )
    (property "Price" "0.0024" (id 5) (at 222.25 110.744 0)
      (effects (font (size 1.27 1.27)) hide)
    )
    (property "Extended" "N" (id 6) (at 222.25 110.744 0)
      (effects (font (size 1.27 1.27)) hide)
    )
    (property "Populate" "P" (id 7) (at 222.25 110.744 0)
      (effects (font (size 1.27 1.27)) hide)
    )
    (pin "1" (uuid 73ef7c5b-00af-4ef2-9122-2b949dfcfcb9))
    (pin "2" (uuid 767acd3e-7619-43a5-b4ff-ea4dcbdaefb5))
  )

  (symbol (lib_id "Transistor_FET:AO3401A") (at 224.79 37.846 0) (unit 1)
    (in_bom yes) (on_board yes) (fields_autoplaced)
    (uuid b5f646d5-398c-4da1-8a09-e7087e5417bc)
    (property "Reference" "Q2" (id 0) (at 231.14 36.5759 0)
      (effects (font (size 1.27 1.27)) (justify left))
    )
    (property "Value" "AO3401A" (id 1) (at 231.14 39.1159 0)
      (effects (font (size 1.27 1.27)) (justify left))
    )
    (property "Footprint" "Package_TO_SOT_SMD:SOT-23" (id 2) (at 229.87 39.751 0)
      (effects (font (size 1.27 1.27) italic) (justify left) hide)
    )
    (property "Datasheet" "http://www.aosmd.com/pdfs/datasheet/AO3401A.pdf" (id 3) (at 224.79 37.846 0)
      (effects (font (size 1.27 1.27)) (justify left) hide)
    )
    (property "Extended" "N" (id 4) (at 224.79 37.846 0)
      (effects (font (size 1.27 1.27)) hide)
    )
    (property "LCSC" "C15127" (id 5) (at 224.79 37.846 0)
      (effects (font (size 1.27 1.27)) hide)
    )
    (property "Populate" "P" (id 6) (at 224.79 37.846 0)
      (effects (font (size 1.27 1.27)) hide)
    )
    (property "Price" "0.1774" (id 7) (at 224.79 37.846 0)
      (effects (font (size 1.27 1.27)) hide)
    )
    (pin "1" (uuid cb7b7273-b8c4-4866-8621-9ea5d6e085cd))
    (pin "2" (uuid f7777655-8f50-4c74-b5ae-dc2b56bb3fde))
    (pin "3" (uuid f28eabf3-8d8e-4ad2-806b-186d5bb19f5f))
  )

  (symbol (lib_id "Device:R_Small_US") (at 105.029 66.548 90) (unit 1)
    (in_bom yes) (on_board yes)
    (uuid bcf9058f-95c0-4579-8e0d-4386222222e5)
    (property "Reference" "R9" (id 0) (at 107.442 65.2526 90))
    (property "Value" "0" (id 1) (at 105.029 69.469 90))
    (property "Footprint" "Resistor_SMD:R_0805_2012Metric" (id 2) (at 105.029 66.548 0)
      (effects (font (size 1.27 1.27)) hide)
    )
    (property "Datasheet" "https://datasheet.lcsc.com/lcsc/2110251730_UNI-ROYAL-Uniroyal-Elec-0805W8F0000T5E_C17477.pdf" (id 3) (at 105.029 66.548 0)
      (effects (font (size 1.27 1.27)) hide)
    )
    (property "LCSC" "C17477" (id 4) (at 105.029 66.548 0)
      (effects (font (size 1.27 1.27)) hide)
    )
    (property "Price" "0.0024" (id 5) (at 105.029 66.548 0)
      (effects (font (size 1.27 1.27)) hide)
    )
    (property "Extended" "N" (id 6) (at 105.029 66.548 0)
      (effects (font (size 1.27 1.27)) hide)
    )
    (property "Populate" "P" (id 7) (at 105.029 66.548 0)
      (effects (font (size 1.27 1.27)) hide)
    )
    (pin "1" (uuid 71d0034e-d5f2-4cba-946b-44119067e667))
    (pin "2" (uuid 781d0367-b14c-4767-809c-0454883c0487))
  )

  (symbol (lib_id "Device:R_Small_US") (at 214.63 37.846 90) (unit 1)
    (in_bom yes) (on_board yes)
    (uuid c11472cb-a02e-4b6b-8999-049b6c4ce733)
    (property "Reference" "R13" (id 0) (at 214.757 35.306 90))
    (property "Value" "220" (id 1) (at 214.757 40.513 90))
    (property "Footprint" "Resistor_SMD:R_0805_2012Metric" (id 2) (at 214.63 37.846 0)
      (effects (font (size 1.27 1.27)) hide)
    )
    (property "Datasheet" "https://datasheet.lcsc.com/lcsc/2110260030_UNI-ROYAL-Uniroyal-Elec-0402WGF5101TCE_C25905.pdf" (id 3) (at 214.63 37.846 0)
      (effects (font (size 1.27 1.27)) hide)
    )
    (property "LCSC" "C17557" (id 4) (at 214.63 37.846 0)
      (effects (font (size 1.27 1.27)) hide)
    )
    (property "Price" "0.0007" (id 5) (at 214.63 37.846 0)
      (effects (font (size 1.27 1.27)) hide)
    )
    (property "Populate" "P" (id 6) (at 214.63 37.846 0)
      (effects (font (size 1.27 1.27)) hide)
    )
    (property "Extended" "N" (id 7) (at 214.63 37.846 0)
      (effects (font (size 1.27 1.27)) hide)
    )
    (pin "1" (uuid 258b90c6-23cd-4f8b-a586-c799d1720a05))
    (pin "2" (uuid 175251d7-c0b1-4a52-a423-956aa985ba24))
  )

  (symbol (lib_id "Custom:R_PHOTO") (at 211.582 116.967 0) (unit 1)
    (in_bom yes) (on_board yes) (fields_autoplaced)
    (uuid c7264f35-3b38-4527-9545-52b3cd1d093e)
    (property "Reference" "GL1" (id 0) (at 213.36 115.6969 0)
      (effects (font (size 1.27 1.27)) (justify left))
    )
    (property "Value" "R_PHOTO" (id 1) (at 213.36 118.2369 0)
      (effects (font (size 1.27 1.27)) (justify left))
    )
    (property "Footprint" "3088HAT:INDRD500W70D900H1220" (id 2) (at 212.852 123.317 90)
      (effects (font (size 1.27 1.27)) (justify left) hide)
    )
    (property "Datasheet" "~" (id 3) (at 211.582 118.237 0)
      (effects (font (size 1.27 1.27)) hide)
    )
    (property "LCSC" "C125626" (id 4) (at 211.582 116.967 0)
      (effects (font (size 1.27 1.27)) hide)
    )
    (property "Price" "0.0498" (id 5) (at 211.582 116.967 0)
      (effects (font (size 1.27 1.27)) hide)
    )
    (property "Extended" "Y" (id 6) (at 211.582 116.967 0)
      (effects (font (size 1.27 1.27)) hide)
    )
    (property "Populate" "P" (id 7) (at 211.582 116.967 0)
      (effects (font (size 1.27 1.27)) hide)
    )
    (pin "1" (uuid 32f0ba59-292b-4fb4-821b-19d483161d9c))
    (pin "2" (uuid 76a1161e-110e-46ee-8b6e-20d6db2b88a9))
  )

  (symbol (lib_id "Connector:TestPoint") (at 70.866 66.802 180) (unit 1)
    (in_bom yes) (on_board yes)
    (uuid ca85088c-e15b-4702-848a-a44386366aaf)
    (property "Reference" "TP6" (id 0) (at 69.088 74.422 0)
      (effects (font (size 1.27 1.27)) (justify right))
    )
    (property "Value" "TestPoint" (id 1) (at 66.802 72.644 0)
      (effects (font (size 1.27 1.27)) (justify right))
    )
    (property "Footprint" "TestPoint:TestPoint_THTPad_D2.5mm_Drill1.2mm" (id 2) (at 65.786 66.802 0)
      (effects (font (size 1.27 1.27)) hide)
    )
    (property "Datasheet" "~" (id 3) (at 65.786 66.802 0)
      (effects (font (size 1.27 1.27)) hide)
    )
    (pin "1" (uuid f5a6731b-d91f-4ef1-98f1-c52e6404fd5b))
  )

  (symbol (lib_id "Device:C") (at 88.392 42.164 270) (unit 1)
    (in_bom yes) (on_board yes)
    (uuid d3e74152-bb8a-4280-a8b8-a82d2488f31b)
    (property "Reference" "C5" (id 0) (at 88.392 35.7632 90))
    (property "Value" "100nF" (id 1) (at 88.392 38.0746 90))
    (property "Footprint" "Capacitor_SMD:C_0201_0603Metric" (id 2) (at 84.582 43.1292 0)
      (effects (font (size 1.27 1.27)) hide)
    )
    (property "Datasheet" "https://datasheet.lcsc.com/lcsc/1809301912_YAGEO-CC0603KRX7R9BB104_C14663.pdf" (id 3) (at 88.392 42.164 0)
      (effects (font (size 1.27 1.27)) hide)
    )
    (property "LCSC" "C14663" (id 4) (at 88.392 42.164 0)
      (effects (font (size 1.27 1.27)) hide)
    )
    (property "Price" "0.0026" (id 5) (at 88.392 42.164 0)
      (effects (font (size 1.27 1.27)) hide)
    )
    (property "Extended" "N" (id 6) (at 88.392 42.164 0)
      (effects (font (size 1.27 1.27)) hide)
    )
    (property "Populate" "P" (id 7) (at 88.392 42.164 0)
      (effects (font (size 1.27 1.27)) hide)
    )
    (pin "1" (uuid 12b187ce-c61a-4929-9da3-2090dc714aa2))
    (pin "2" (uuid 99bfcdd8-a084-473b-9aa0-54c33e09126d))
  )

  (symbol (lib_id "Device:R_US") (at 211.582 97.536 0) (unit 1)
    (in_bom yes) (on_board yes)
    (uuid e4270f5a-5b6d-4209-b818-6cc03a02f3aa)
    (property "Reference" "R11" (id 0) (at 213.3092 96.3676 0)
      (effects (font (size 1.27 1.27)) (justify left))
    )
    (property "Value" "15k" (id 1) (at 213.3092 98.679 0)
      (effects (font (size 1.27 1.27)) (justify left))
    )
    (property "Footprint" "Resistor_SMD:R_0201_0603Metric" (id 2) (at 212.598 97.79 90)
      (effects (font (size 1.27 1.27)) hide)
    )
    (property "Datasheet" "https://datasheet.lcsc.com/lcsc/2110252030_UNI-ROYAL-Uniroyal-Elec-0603WAF1502T5E_C22809.pdf" (id 3) (at 211.582 97.536 0)
      (effects (font (size 1.27 1.27)) hide)
    )
    (property "Price" "0.0013" (id 4) (at 211.582 97.536 0)
      (effects (font (size 1.27 1.27)) hide)
    )
    (property "LCSC" "C22809" (id 5) (at 211.582 97.536 0)
      (effects (font (size 1.27 1.27)) hide)
    )
    (property "Extended" "N" (id 6) (at 211.582 97.536 0)
      (effects (font (size 1.27 1.27)) hide)
    )
    (property "Populate" "P" (id 7) (at 211.582 97.536 0)
      (effects (font (size 1.27 1.27)) hide)
    )
    (pin "1" (uuid 1d492caa-b9a3-4e4e-a501-62b47b563426))
    (pin "2" (uuid 13498cf5-6c74-4e9c-b682-1adf90fce80e))
  )

  (symbol (lib_id "Device:R_Small_US") (at 93.2434 118.872 90) (unit 1)
    (in_bom yes) (on_board yes) (fields_autoplaced)
    (uuid ec97d689-ec93-405c-a5e6-fc755ccccc16)
    (property "Reference" "R8" (id 0) (at 93.2434 112.522 90))
    (property "Value" "0" (id 1) (at 93.2434 115.062 90))
    (property "Footprint" "Resistor_SMD:R_0805_2012Metric" (id 2) (at 93.2434 118.872 0)
      (effects (font (size 1.27 1.27)) hide)
    )
    (property "Datasheet" "https://datasheet.lcsc.com/lcsc/2110251730_UNI-ROYAL-Uniroyal-Elec-0805W8F0000T5E_C17477.pdf" (id 3) (at 93.2434 118.872 0)
      (effects (font (size 1.27 1.27)) hide)
    )
    (property "LCSC" "C17477" (id 4) (at 93.2434 118.872 0)
      (effects (font (size 1.27 1.27)) hide)
    )
    (property "Price" "0.0024" (id 5) (at 93.2434 118.872 0)
      (effects (font (size 1.27 1.27)) hide)
    )
    (property "Extended" "N" (id 6) (at 93.2434 118.872 0)
      (effects (font (size 1.27 1.27)) hide)
    )
    (property "Populate" "P" (id 7) (at 93.2434 118.872 0)
      (effects (font (size 1.27 1.27)) hide)
    )
    (pin "1" (uuid 9ed40cd5-707b-4510-9b03-859f94897bdf))
    (pin "2" (uuid 9fa9243a-4e2d-48a4-995a-80834820eb7e))
  )

  (symbol (lib_id "Device:R_Small_US") (at 211.582 104.521 0) (unit 1)
    (in_bom yes) (on_board yes)
    (uuid f13f3d30-8834-45d3-afb9-4d04d371d35c)
    (property "Reference" "R12" (id 0) (at 216.027 104.394 90))
    (property "Value" "0" (id 1) (at 214.122 104.521 90))
    (property "Footprint" "Resistor_SMD:R_0805_2012Metric" (id 2) (at 211.582 104.521 0)
      (effects (font (size 1.27 1.27)) hide)
    )
    (property "Datasheet" "https://datasheet.lcsc.com/lcsc/2110251730_UNI-ROYAL-Uniroyal-Elec-0805W8F0000T5E_C17477.pdf" (id 3) (at 211.582 104.521 0)
      (effects (font (size 1.27 1.27)) hide)
    )
    (property "LCSC" "C17477" (id 4) (at 211.582 104.521 0)
      (effects (font (size 1.27 1.27)) hide)
    )
    (property "Price" "0.0024" (id 5) (at 211.582 104.521 0)
      (effects (font (size 1.27 1.27)) hide)
    )
    (property "Extended" "N" (id 6) (at 211.582 104.521 0)
      (effects (font (size 1.27 1.27)) hide)
    )
    (property "Populate" "P" (id 7) (at 211.582 104.521 0)
      (effects (font (size 1.27 1.27)) hide)
    )
    (pin "1" (uuid fc7854d7-bd0d-43e1-be4e-a4db43257916))
    (pin "2" (uuid dc55ef74-5df8-4ec6-bc26-56a03e3a184e))
  )
)
