%!PS-Adobe-3.0
%%Creator: PCBNEW
%%CreationDate: Sun Mar 20 15:54:16 2022
%%Title: ()
%%Pages: 1
%%PageOrder: Ascend
%%BoundingBox: 0 0 596 842
%%DocumentMedia: A4 595 842 0 () ()
%%Orientation: Landscape
%%EndComments
%%BeginProlog
/line { newpath moveto lineto stroke } bind def
/cir0 { newpath 0 360 arc stroke } bind def
/cir1 { newpath 0 360 arc gsave fill grestore stroke } bind def
/cir2 { newpath 0 360 arc gsave fill grestore stroke } bind def
/arc0 { newpath arc stroke } bind def
/arc1 { newpath 4 index 4 index moveto arc closepath gsave fill
    grestore stroke } bind def
/arc2 { newpath 4 index 4 index moveto arc closepath gsave fill
    grestore stroke } bind def
/poly0 { stroke } bind def
/poly1 { closepath gsave fill grestore stroke } bind def
/poly2 { closepath gsave fill grestore stroke } bind def
/rect0 { rectstroke } bind def
/rect1 { rectfill } bind def
/rect2 { rectfill } bind def
/linemode0 { 0 setlinecap 0 setlinejoin 0 setlinewidth } bind def
/linemode1 { 1 setlinecap 1 setlinejoin } bind def
/dashedline { [200] 100 setdash } bind def
/solidline { [] 0 setdash } bind def
/phantomshow { moveto
    /KicadFont findfont 0.000001 scalefont setfont
    show } bind def
/textshow { gsave
    findfont exch scalefont setfont concat 1 scale 0 0 moveto show
    } bind def
/reencodefont {
  findfont dup length dict begin
  { 1 index /FID ne
    { def }
    { pop pop } ifelse
  } forall
  /Encoding ISOLatin1Encoding def
  currentdict
  end } bind def
/KicadFont /Helvetica reencodefont definefont pop
/KicadFont-Bold /Helvetica-Bold reencodefont definefont pop
/KicadFont-Oblique /Helvetica-Oblique reencodefont definefont pop
/KicadFont-BoldOblique /Helvetica-BoldOblique reencodefont definefont pop
%%EndProlog
%%Page: 1 1
%%BeginPageSetup
gsave
0.0072 0.0072 scale
linemode1
82680 0 translate 90 rotate
91.1597 setlinewidth
%%EndPageSetup
0 0 0 setrgbcolor
91.1597 setlinewidth
newpath
35675.1 80665.9 moveto
81254.9 80665.9 lineto
stroke
newpath
81254.9 80665.9 moveto
81254.9 35086.1 lineto
stroke
newpath
81254.9 35086.1 moveto
35675.1 35086.1 lineto
stroke
newpath
35675.1 35086.1 moveto
35675.1 80665.9 lineto
stroke
18.2319 setlinewidth
newpath
38906.7 51235 moveto
39089 51052.7 lineto
stroke
newpath
39089 51235 moveto
38906.7 51052.7 lineto
stroke
newpath
40411.7 51235 moveto
40594.1 51052.7 lineto
stroke
newpath
40594.1 51235 moveto
40411.7 51052.7 lineto
stroke
newpath
40518 60128.3 moveto
40700.3 59946 lineto
stroke
newpath
40700.3 60128.3 moveto
40518 59946 lineto
stroke
newpath
40990.6 51003.5 moveto
41172.9 50821.2 lineto
stroke
newpath
41172.9 51003.5 moveto
40990.6 50821.2 lineto
stroke
newpath
40990.6 46777.8 moveto
41172.9 46595.4 lineto
stroke
newpath
41172.9 46777.8 moveto
40990.6 46595.4 lineto
stroke
newpath
41569.5 51003.5 moveto
41751.8 50821.2 lineto
stroke
newpath
41751.8 51003.5 moveto
41569.5 50821.2 lineto
stroke
newpath
42148.3 61770.3 moveto
42330.7 61588 lineto
stroke
newpath
42330.7 61770.3 moveto
42148.3 61588 lineto
stroke
newpath
42148.3 51003.5 moveto
42330.7 50821.2 lineto
stroke
newpath
42330.7 51003.5 moveto
42148.3 50821.2 lineto
stroke
newpath
43074.5 58528.7 moveto
43256.8 58346.4 lineto
stroke
newpath
43256.8 58528.7 moveto
43074.5 58346.4 lineto
stroke
newpath
43421.8 50887.7 moveto
43604.2 50705.4 lineto
stroke
newpath
43604.2 50887.7 moveto
43421.8 50705.4 lineto
stroke
newpath
45390 58528.7 moveto
45572.3 58346.4 lineto
stroke
newpath
45572.3 58528.7 moveto
45390 58346.4 lineto
stroke
newpath
48515.8 56097.5 moveto
48698.2 55915.2 lineto
stroke
newpath
48698.2 56097.5 moveto
48515.8 55915.2 lineto
stroke
newpath
53841.4 37458.1 moveto
54023.7 37275.7 lineto
stroke
newpath
54023.7 37458.1 moveto
53841.4 37275.7 lineto
stroke
newpath
54793.3 36821.3 moveto
54975.6 36639 lineto
stroke
newpath
54975.6 36821.3 moveto
54793.3 36639 lineto
stroke
newpath
55346.4 38036.9 moveto
55528.7 37854.6 lineto
stroke
newpath
55528.7 38036.9 moveto
55346.4 37854.6 lineto
stroke
newpath
55719.5 36821.3 moveto
55901.8 36639 lineto
stroke
newpath
55901.8 36821.3 moveto
55719.5 36639 lineto
stroke
newpath
55835.3 38673.7 moveto
56017.6 38491.4 lineto
stroke
newpath
56017.6 38673.7 moveto
55835.3 38491.4 lineto
stroke
newpath
61019.3 38615.8 moveto
61201.6 38433.5 lineto
stroke
newpath
61201.6 38615.8 moveto
61019.3 38433.5 lineto
stroke
newpath
66692.2 62117.7 moveto
66874.5 61935.3 lineto
stroke
newpath
66874.5 62117.7 moveto
66692.2 61935.3 lineto
stroke
newpath
70396.9 36184.6 moveto
70579.2 36002.2 lineto
stroke
newpath
70579.2 36184.6 moveto
70396.9 36002.2 lineto
stroke
newpath
70512.7 56676.3 moveto
70695 56494 lineto
stroke
newpath
70695 56676.3 moveto
70512.7 56494 lineto
stroke
newpath
71901.9 47993.4 moveto
72084.3 47811.1 lineto
stroke
newpath
72084.3 47993.4 moveto
71901.9 47811.1 lineto
stroke
newpath
72828.1 48224.9 moveto
73010.4 48042.6 lineto
stroke
newpath
73010.4 48224.9 moveto
72828.1 48042.6 lineto
stroke
newpath
73696.4 58702.4 moveto
73878.7 58520 lineto
stroke
newpath
73878.7 58702.4 moveto
73696.4 58520 lineto
stroke
newpath
73696.4 57544.6 moveto
73878.7 57362.3 lineto
stroke
newpath
73878.7 57544.6 moveto
73696.4 57362.3 lineto
stroke
newpath
73955.8 59887.9 moveto
74138.1 59705.6 lineto
stroke
newpath
74138.1 59887.9 moveto
73955.8 59705.6 lineto
stroke
newpath
75954 72074.1 moveto
76136.3 71891.8 lineto
stroke
newpath
76136.3 72074.1 moveto
75954 71891.8 lineto
stroke
newpath
76880.2 47414.5 moveto
77062.5 47232.2 lineto
stroke
newpath
77062.5 47414.5 moveto
76880.2 47232.2 lineto
stroke
newpath
77343.3 60728.4 moveto
77525.6 60546.1 lineto
stroke
newpath
77525.6 60728.4 moveto
77343.3 60546.1 lineto
stroke
22.7899 setlinewidth
36509.4 54607.6 113.95 cir0
91.1597 setlinewidth
newpath
36327.1 54539.2 moveto
36691.7 54539.2 lineto
stroke
newpath
36327.1 54676 moveto
36691.7 54676 lineto
stroke
36691.7 54607.6 68.3697 270 450 arc0
36327.1 54607.6 68.3697 90 270 arc0
22.7899 setlinewidth
36509.4 51325.8 113.95 cir0
91.1597 setlinewidth
newpath
36327.1 51257.5 moveto
36691.7 51257.5 lineto
stroke
newpath
36327.1 51394.2 moveto
36691.7 51394.2 lineto
stroke
36691.7 51325.8 68.3697 270 450 arc0
36327.1 51325.8 68.3697 90 270 arc0
31.9059 setlinewidth
newpath
37717.3 54231.6 moveto
37717.3 53912.5 lineto
stroke
newpath
37557.8 54072 moveto
37876.8 54072 lineto
stroke
newpath
37717.3 52020.9 moveto
37717.3 51701.9 lineto
stroke
newpath
37557.8 51861.4 moveto
37876.8 51861.4 lineto
stroke
41.0218 setlinewidth
newpath
37522.1 59448 moveto
37522.1 59738 lineto
37232 59738 lineto
37232 59448 lineto
37522.1 59448 lineto
poly0
newpath
37522.1 58290.2 moveto
37522.1 58580.3 lineto
37232 58580.3 lineto
37232 58290.2 lineto
37522.1 58290.2 lineto
poly0
newpath
37522.1 57016.7 moveto
37522.1 57306.8 lineto
37232 57306.8 lineto
37232 57016.7 lineto
37522.1 57016.7 lineto
poly0
newpath
37522.1 55859 moveto
37522.1 56149.1 lineto
37232 56149.1 lineto
37232 55859 lineto
37522.1 55859 lineto
poly0
newpath
79663.4 69059.4 moveto
79663.4 69349.4 lineto
79373.3 69349.4 lineto
79373.3 69059.4 lineto
79663.4 69059.4 lineto
poly0
newpath
79663.4 67670.1 moveto
79663.4 67960.2 lineto
79373.3 67960.2 lineto
79373.3 67670.1 lineto
79663.4 67670.1 lineto
poly0
45.5798 setlinewidth
newpath
39113.6 67818.8 moveto
39341.5 68046.7 lineto
39113.6 68274.6 lineto
38885.7 68046.7 lineto
39113.6 67818.8 lineto
poly0
newpath
39113.6 63187.9 moveto
39341.5 63415.8 lineto
39113.6 63643.7 lineto
38885.7 63415.8 lineto
39113.6 63187.9 lineto
poly0
newpath
39113.6 44664.2 moveto
39341.5 44892.1 lineto
39113.6 45120 lineto
38885.7 44892.1 lineto
39113.6 44664.2 lineto
poly0
newpath
39113.6 40033.3 moveto
39341.5 40261.2 lineto
39113.6 40489.1 lineto
38885.7 40261.2 lineto
39113.6 40033.3 lineto
poly0
newpath
40271.4 67818.8 moveto
40499.3 68046.7 lineto
40271.4 68274.6 lineto
40043.5 68046.7 lineto
40271.4 67818.8 lineto
poly0
newpath
40271.4 63187.9 moveto
40499.3 63415.8 lineto
40271.4 63643.7 lineto
40043.5 63415.8 lineto
40271.4 63187.9 lineto
poly0
newpath
40271.4 44664.2 moveto
40499.3 44892.1 lineto
40271.4 45120 lineto
40043.5 44892.1 lineto
40271.4 44664.2 lineto
poly0
newpath
40271.4 40033.3 moveto
40499.3 40261.2 lineto
40271.4 40489.1 lineto
40043.5 40261.2 lineto
40271.4 40033.3 lineto
poly0
newpath
41429.1 67818.8 moveto
41657 68046.7 lineto
41429.1 68274.6 lineto
41201.2 68046.7 lineto
41429.1 67818.8 lineto
poly0
newpath
41429.1 63187.9 moveto
41657 63415.8 lineto
41429.1 63643.7 lineto
41201.2 63415.8 lineto
41429.1 63187.9 lineto
poly0
newpath
41429.1 44664.2 moveto
41657 44892.1 lineto
41429.1 45120 lineto
41201.2 44892.1 lineto
41429.1 44664.2 lineto
poly0
newpath
41429.1 40033.3 moveto
41657 40261.2 lineto
41429.1 40489.1 lineto
41201.2 40261.2 lineto
41429.1 40033.3 lineto
poly0
newpath
42586.8 67818.8 moveto
42814.7 68046.7 lineto
42586.8 68274.6 lineto
42358.9 68046.7 lineto
42586.8 67818.8 lineto
poly0
newpath
42586.8 63187.9 moveto
42814.7 63415.8 lineto
42586.8 63643.7 lineto
42358.9 63415.8 lineto
42586.8 63187.9 lineto
poly0
newpath
42586.8 44664.2 moveto
42814.7 44892.1 lineto
42586.8 45120 lineto
42358.9 44892.1 lineto
42586.8 44664.2 lineto
poly0
newpath
42586.8 40033.3 moveto
42814.7 40261.2 lineto
42586.8 40489.1 lineto
42358.9 40261.2 lineto
42586.8 40033.3 lineto
poly0
newpath
43744.5 67818.8 moveto
43972.4 68046.7 lineto
43744.5 68274.6 lineto
43516.6 68046.7 lineto
43744.5 67818.8 lineto
poly0
newpath
43744.5 63187.9 moveto
43972.4 63415.8 lineto
43744.5 63643.7 lineto
43516.6 63415.8 lineto
43744.5 63187.9 lineto
poly0
newpath
43744.5 44664.2 moveto
43972.4 44892.1 lineto
43744.5 45120 lineto
43516.6 44892.1 lineto
43744.5 44664.2 lineto
poly0
newpath
43744.5 40033.3 moveto
43972.4 40261.2 lineto
43744.5 40489.1 lineto
43516.6 40261.2 lineto
43744.5 40033.3 lineto
poly0
newpath
44902.3 67818.8 moveto
45130.2 68046.7 lineto
44902.3 68274.6 lineto
44674.4 68046.7 lineto
44902.3 67818.8 lineto
poly0
newpath
44902.3 63187.9 moveto
45130.2 63415.8 lineto
44902.3 63643.7 lineto
44674.4 63415.8 lineto
44902.3 63187.9 lineto
poly0
newpath
44902.3 44664.2 moveto
45130.2 44892.1 lineto
44902.3 45120 lineto
44674.4 44892.1 lineto
44902.3 44664.2 lineto
poly0
newpath
44902.3 40033.3 moveto
45130.2 40261.2 lineto
44902.3 40489.1 lineto
44674.4 40261.2 lineto
44902.3 40033.3 lineto
poly0
newpath
46060 67818.8 moveto
46287.9 68046.7 lineto
46060 68274.6 lineto
45832.1 68046.7 lineto
46060 67818.8 lineto
poly0
newpath
46060 63187.9 moveto
46287.9 63415.8 lineto
46060 63643.7 lineto
45832.1 63415.8 lineto
46060 63187.9 lineto
poly0
newpath
46060 44664.2 moveto
46287.9 44892.1 lineto
46060 45120 lineto
45832.1 44892.1 lineto
46060 44664.2 lineto
poly0
newpath
46060 40033.3 moveto
46287.9 40261.2 lineto
46060 40489.1 lineto
45832.1 40261.2 lineto
46060 40033.3 lineto
poly0
newpath
47217.7 67818.8 moveto
47445.6 68046.7 lineto
47217.7 68274.6 lineto
46989.8 68046.7 lineto
47217.7 67818.8 lineto
poly0
newpath
47217.7 63187.9 moveto
47445.6 63415.8 lineto
47217.7 63643.7 lineto
46989.8 63415.8 lineto
47217.7 63187.9 lineto
poly0
newpath
47217.7 44664.2 moveto
47445.6 44892.1 lineto
47217.7 45120 lineto
46989.8 44892.1 lineto
47217.7 44664.2 lineto
poly0
newpath
47217.7 40033.3 moveto
47445.6 40261.2 lineto
47217.7 40489.1 lineto
46989.8 40261.2 lineto
47217.7 40033.3 lineto
poly0
newpath
48375.4 67818.8 moveto
48603.3 68046.7 lineto
48375.4 68274.6 lineto
48147.5 68046.7 lineto
48375.4 67818.8 lineto
poly0
newpath
48375.4 63187.9 moveto
48603.3 63415.8 lineto
48375.4 63643.7 lineto
48147.5 63415.8 lineto
48375.4 63187.9 lineto
poly0
newpath
48375.4 44664.2 moveto
48603.3 44892.1 lineto
48375.4 45120 lineto
48147.5 44892.1 lineto
48375.4 44664.2 lineto
poly0
newpath
48375.4 40033.3 moveto
48603.3 40261.2 lineto
48375.4 40489.1 lineto
48147.5 40261.2 lineto
48375.4 40033.3 lineto
poly0
newpath
49533.2 67818.8 moveto
49761.1 68046.7 lineto
49533.2 68274.6 lineto
49305.3 68046.7 lineto
49533.2 67818.8 lineto
poly0
newpath
49533.2 63187.9 moveto
49761.1 63415.8 lineto
49533.2 63643.7 lineto
49305.3 63415.8 lineto
49533.2 63187.9 lineto
poly0
newpath
49533.2 44664.2 moveto
49761.1 44892.1 lineto
49533.2 45120 lineto
49305.3 44892.1 lineto
49533.2 44664.2 lineto
poly0
newpath
49533.2 40033.3 moveto
49761.1 40261.2 lineto
49533.2 40489.1 lineto
49305.3 40261.2 lineto
49533.2 40033.3 lineto
poly0
newpath
50690.9 67818.8 moveto
50918.8 68046.7 lineto
50690.9 68274.6 lineto
50463 68046.7 lineto
50690.9 67818.8 lineto
poly0
newpath
50690.9 63187.9 moveto
50918.8 63415.8 lineto
50690.9 63643.7 lineto
50463 63415.8 lineto
50690.9 63187.9 lineto
poly0
newpath
50690.9 44664.2 moveto
50918.8 44892.1 lineto
50690.9 45120 lineto
50463 44892.1 lineto
50690.9 44664.2 lineto
poly0
newpath
50690.9 40033.3 moveto
50918.8 40261.2 lineto
50690.9 40489.1 lineto
50463 40261.2 lineto
50690.9 40033.3 lineto
poly0
newpath
51848.6 67818.8 moveto
52076.5 68046.7 lineto
51848.6 68274.6 lineto
51620.7 68046.7 lineto
51848.6 67818.8 lineto
poly0
newpath
51848.6 63187.9 moveto
52076.5 63415.8 lineto
51848.6 63643.7 lineto
51620.7 63415.8 lineto
51848.6 63187.9 lineto
poly0
newpath
51848.6 44664.2 moveto
52076.5 44892.1 lineto
51848.6 45120 lineto
51620.7 44892.1 lineto
51848.6 44664.2 lineto
poly0
newpath
51848.6 40033.3 moveto
52076.5 40261.2 lineto
51848.6 40489.1 lineto
51620.7 40261.2 lineto
51848.6 40033.3 lineto
poly0
newpath
53006.4 67818.8 moveto
53234.3 68046.7 lineto
53006.4 68274.6 lineto
52778.5 68046.7 lineto
53006.4 67818.8 lineto
poly0
newpath
53006.4 63187.9 moveto
53234.3 63415.8 lineto
53006.4 63643.7 lineto
52778.5 63415.8 lineto
53006.4 63187.9 lineto
poly0
newpath
53006.4 44664.2 moveto
53234.3 44892.1 lineto
53006.4 45120 lineto
52778.5 44892.1 lineto
53006.4 44664.2 lineto
poly0
newpath
53006.4 40033.3 moveto
53234.3 40261.2 lineto
53006.4 40489.1 lineto
52778.5 40261.2 lineto
53006.4 40033.3 lineto
poly0
newpath
54164.1 67818.8 moveto
54392 68046.7 lineto
54164.1 68274.6 lineto
53936.2 68046.7 lineto
54164.1 67818.8 lineto
poly0
newpath
54164.1 63187.9 moveto
54392 63415.8 lineto
54164.1 63643.7 lineto
53936.2 63415.8 lineto
54164.1 63187.9 lineto
poly0
newpath
54164.1 44664.2 moveto
54392 44892.1 lineto
54164.1 45120 lineto
53936.2 44892.1 lineto
54164.1 44664.2 lineto
poly0
newpath
54164.1 40033.3 moveto
54392 40261.2 lineto
54164.1 40489.1 lineto
53936.2 40261.2 lineto
54164.1 40033.3 lineto
poly0
newpath
55321.8 67818.8 moveto
55549.7 68046.7 lineto
55321.8 68274.6 lineto
55093.9 68046.7 lineto
55321.8 67818.8 lineto
poly0
newpath
55321.8 63187.9 moveto
55549.7 63415.8 lineto
55321.8 63643.7 lineto
55093.9 63415.8 lineto
55321.8 63187.9 lineto
poly0
newpath
55321.8 44664.2 moveto
55549.7 44892.1 lineto
55321.8 45120 lineto
55093.9 44892.1 lineto
55321.8 44664.2 lineto
poly0
newpath
55321.8 40033.3 moveto
55549.7 40261.2 lineto
55321.8 40489.1 lineto
55093.9 40261.2 lineto
55321.8 40033.3 lineto
poly0
newpath
56479.5 67818.8 moveto
56707.4 68046.7 lineto
56479.5 68274.6 lineto
56251.6 68046.7 lineto
56479.5 67818.8 lineto
poly0
newpath
56479.5 63187.9 moveto
56707.4 63415.8 lineto
56479.5 63643.7 lineto
56251.6 63415.8 lineto
56479.5 63187.9 lineto
poly0
newpath
56479.5 44664.2 moveto
56707.4 44892.1 lineto
56479.5 45120 lineto
56251.6 44892.1 lineto
56479.5 44664.2 lineto
poly0
newpath
56479.5 40033.3 moveto
56707.4 40261.2 lineto
56479.5 40489.1 lineto
56251.6 40261.2 lineto
56479.5 40033.3 lineto
poly0
newpath
57637.3 67818.8 moveto
57865.2 68046.7 lineto
57637.3 68274.6 lineto
57409.4 68046.7 lineto
57637.3 67818.8 lineto
poly0
newpath
57637.3 63187.9 moveto
57865.2 63415.8 lineto
57637.3 63643.7 lineto
57409.4 63415.8 lineto
57637.3 63187.9 lineto
poly0
newpath
57637.3 44664.2 moveto
57865.2 44892.1 lineto
57637.3 45120 lineto
57409.4 44892.1 lineto
57637.3 44664.2 lineto
poly0
newpath
57637.3 40033.3 moveto
57865.2 40261.2 lineto
57637.3 40489.1 lineto
57409.4 40261.2 lineto
57637.3 40033.3 lineto
poly0
newpath
58795 67818.8 moveto
59022.9 68046.7 lineto
58795 68274.6 lineto
58567.1 68046.7 lineto
58795 67818.8 lineto
poly0
newpath
58795 63187.9 moveto
59022.9 63415.8 lineto
58795 63643.7 lineto
58567.1 63415.8 lineto
58795 63187.9 lineto
poly0
newpath
58795 44664.2 moveto
59022.9 44892.1 lineto
58795 45120 lineto
58567.1 44892.1 lineto
58795 44664.2 lineto
poly0
newpath
58795 40033.3 moveto
59022.9 40261.2 lineto
58795 40489.1 lineto
58567.1 40261.2 lineto
58795 40033.3 lineto
poly0
newpath
59952.7 67818.8 moveto
60180.6 68046.7 lineto
59952.7 68274.6 lineto
59724.8 68046.7 lineto
59952.7 67818.8 lineto
poly0
newpath
59952.7 63187.9 moveto
60180.6 63415.8 lineto
59952.7 63643.7 lineto
59724.8 63415.8 lineto
59952.7 63187.9 lineto
poly0
newpath
59952.7 44664.2 moveto
60180.6 44892.1 lineto
59952.7 45120 lineto
59724.8 44892.1 lineto
59952.7 44664.2 lineto
poly0
newpath
59952.7 40033.3 moveto
60180.6 40261.2 lineto
59952.7 40489.1 lineto
59724.8 40261.2 lineto
59952.7 40033.3 lineto
poly0
newpath
61110.5 67818.8 moveto
61338.4 68046.7 lineto
61110.5 68274.6 lineto
60882.6 68046.7 lineto
61110.5 67818.8 lineto
poly0
newpath
61110.5 63187.9 moveto
61338.4 63415.8 lineto
61110.5 63643.7 lineto
60882.6 63415.8 lineto
61110.5 63187.9 lineto
poly0
newpath
61110.5 44664.2 moveto
61338.4 44892.1 lineto
61110.5 45120 lineto
60882.6 44892.1 lineto
61110.5 44664.2 lineto
poly0
newpath
61110.5 40033.3 moveto
61338.4 40261.2 lineto
61110.5 40489.1 lineto
60882.6 40261.2 lineto
61110.5 40033.3 lineto
poly0
newpath
62268.2 67818.8 moveto
62496.1 68046.7 lineto
62268.2 68274.6 lineto
62040.3 68046.7 lineto
62268.2 67818.8 lineto
poly0
newpath
62268.2 63187.9 moveto
62496.1 63415.8 lineto
62268.2 63643.7 lineto
62040.3 63415.8 lineto
62268.2 63187.9 lineto
poly0
newpath
62268.2 44664.2 moveto
62496.1 44892.1 lineto
62268.2 45120 lineto
62040.3 44892.1 lineto
62268.2 44664.2 lineto
poly0
newpath
62268.2 40033.3 moveto
62496.1 40261.2 lineto
62268.2 40489.1 lineto
62040.3 40261.2 lineto
62268.2 40033.3 lineto
poly0
newpath
63425.9 67818.8 moveto
63653.8 68046.7 lineto
63425.9 68274.6 lineto
63198 68046.7 lineto
63425.9 67818.8 lineto
poly0
newpath
63425.9 63187.9 moveto
63653.8 63415.8 lineto
63425.9 63643.7 lineto
63198 63415.8 lineto
63425.9 63187.9 lineto
poly0
newpath
63425.9 44664.2 moveto
63653.8 44892.1 lineto
63425.9 45120 lineto
63198 44892.1 lineto
63425.9 44664.2 lineto
poly0
newpath
63425.9 40033.3 moveto
63653.8 40261.2 lineto
63425.9 40489.1 lineto
63198 40261.2 lineto
63425.9 40033.3 lineto
poly0
newpath
64583.6 67818.8 moveto
64811.5 68046.7 lineto
64583.6 68274.6 lineto
64355.7 68046.7 lineto
64583.6 67818.8 lineto
poly0
newpath
64583.6 63187.9 moveto
64811.5 63415.8 lineto
64583.6 63643.7 lineto
64355.7 63415.8 lineto
64583.6 63187.9 lineto
poly0
newpath
64583.6 44664.2 moveto
64811.5 44892.1 lineto
64583.6 45120 lineto
64355.7 44892.1 lineto
64583.6 44664.2 lineto
poly0
newpath
64583.6 40033.3 moveto
64811.5 40261.2 lineto
64583.6 40489.1 lineto
64355.7 40261.2 lineto
64583.6 40033.3 lineto
poly0
newpath
65741.4 67818.8 moveto
65969.3 68046.7 lineto
65741.4 68274.6 lineto
65513.5 68046.7 lineto
65741.4 67818.8 lineto
poly0
newpath
65741.4 63187.9 moveto
65969.3 63415.8 lineto
65741.4 63643.7 lineto
65513.5 63415.8 lineto
65741.4 63187.9 lineto
poly0
newpath
65741.4 44664.2 moveto
65969.3 44892.1 lineto
65741.4 45120 lineto
65513.5 44892.1 lineto
65741.4 44664.2 lineto
poly0
newpath
65741.4 40033.3 moveto
65969.3 40261.2 lineto
65741.4 40489.1 lineto
65513.5 40261.2 lineto
65741.4 40033.3 lineto
poly0
newpath
66899.1 67818.8 moveto
67127 68046.7 lineto
66899.1 68274.6 lineto
66671.2 68046.7 lineto
66899.1 67818.8 lineto
poly0
newpath
66899.1 63187.9 moveto
67127 63415.8 lineto
66899.1 63643.7 lineto
66671.2 63415.8 lineto
66899.1 63187.9 lineto
poly0
newpath
66899.1 44664.2 moveto
67127 44892.1 lineto
66899.1 45120 lineto
66671.2 44892.1 lineto
66899.1 44664.2 lineto
poly0
newpath
66899.1 40033.3 moveto
67127 40261.2 lineto
66899.1 40489.1 lineto
66671.2 40261.2 lineto
66899.1 40033.3 lineto
poly0
newpath
68056.8 67818.8 moveto
68284.7 68046.7 lineto
68056.8 68274.6 lineto
67828.9 68046.7 lineto
68056.8 67818.8 lineto
poly0
newpath
68056.8 63187.9 moveto
68284.7 63415.8 lineto
68056.8 63643.7 lineto
67828.9 63415.8 lineto
68056.8 63187.9 lineto
poly0
newpath
68056.8 44664.2 moveto
68284.7 44892.1 lineto
68056.8 45120 lineto
67828.9 44892.1 lineto
68056.8 44664.2 lineto
poly0
newpath
68056.8 40033.3 moveto
68284.7 40261.2 lineto
68056.8 40489.1 lineto
67828.9 40261.2 lineto
68056.8 40033.3 lineto
poly0
newpath
69214.5 67818.8 moveto
69442.4 68046.7 lineto
69214.5 68274.6 lineto
68986.6 68046.7 lineto
69214.5 67818.8 lineto
poly0
newpath
69214.5 63187.9 moveto
69442.4 63415.8 lineto
69214.5 63643.7 lineto
68986.6 63415.8 lineto
69214.5 63187.9 lineto
poly0
newpath
69214.5 44664.2 moveto
69442.4 44892.1 lineto
69214.5 45120 lineto
68986.6 44892.1 lineto
69214.5 44664.2 lineto
poly0
newpath
69214.5 40033.3 moveto
69442.4 40261.2 lineto
69214.5 40489.1 lineto
68986.6 40261.2 lineto
69214.5 40033.3 lineto
poly0
newpath
70372.3 67818.8 moveto
70600.2 68046.7 lineto
70372.3 68274.6 lineto
70144.4 68046.7 lineto
70372.3 67818.8 lineto
poly0
newpath
70372.3 63187.9 moveto
70600.2 63415.8 lineto
70372.3 63643.7 lineto
70144.4 63415.8 lineto
70372.3 63187.9 lineto
poly0
newpath
70372.3 44664.2 moveto
70600.2 44892.1 lineto
70372.3 45120 lineto
70144.4 44892.1 lineto
70372.3 44664.2 lineto
poly0
newpath
70372.3 40033.3 moveto
70600.2 40261.2 lineto
70372.3 40489.1 lineto
70144.4 40261.2 lineto
70372.3 40033.3 lineto
poly0
newpath
71530 67818.8 moveto
71757.9 68046.7 lineto
71530 68274.6 lineto
71302.1 68046.7 lineto
71530 67818.8 lineto
poly0
newpath
71530 63187.9 moveto
71757.9 63415.8 lineto
71530 63643.7 lineto
71302.1 63415.8 lineto
71530 63187.9 lineto
poly0
newpath
71530 44664.2 moveto
71757.9 44892.1 lineto
71530 45120 lineto
71302.1 44892.1 lineto
71530 44664.2 lineto
poly0
newpath
71530 40033.3 moveto
71757.9 40261.2 lineto
71530 40489.1 lineto
71302.1 40261.2 lineto
71530 40033.3 lineto
poly0
newpath
72687.7 67818.8 moveto
72915.6 68046.7 lineto
72687.7 68274.6 lineto
72459.8 68046.7 lineto
72687.7 67818.8 lineto
poly0
newpath
72687.7 63187.9 moveto
72915.6 63415.8 lineto
72687.7 63643.7 lineto
72459.8 63415.8 lineto
72687.7 63187.9 lineto
poly0
newpath
72687.7 44664.2 moveto
72915.6 44892.1 lineto
72687.7 45120 lineto
72459.8 44892.1 lineto
72687.7 44664.2 lineto
poly0
newpath
72687.7 40033.3 moveto
72915.6 40261.2 lineto
72687.7 40489.1 lineto
72459.8 40261.2 lineto
72687.7 40033.3 lineto
poly0
newpath
73845.5 67818.8 moveto
74073.4 68046.7 lineto
73845.5 68274.6 lineto
73617.6 68046.7 lineto
73845.5 67818.8 lineto
poly0
newpath
73845.5 63187.9 moveto
74073.4 63415.8 lineto
73845.5 63643.7 lineto
73617.6 63415.8 lineto
73845.5 63187.9 lineto
poly0
newpath
73845.5 44664.2 moveto
74073.4 44892.1 lineto
73845.5 45120 lineto
73617.6 44892.1 lineto
73845.5 44664.2 lineto
poly0
newpath
73845.5 40033.3 moveto
74073.4 40261.2 lineto
73845.5 40489.1 lineto
73617.6 40261.2 lineto
73845.5 40033.3 lineto
poly0
newpath
75003.2 67818.8 moveto
75231.1 68046.7 lineto
75003.2 68274.6 lineto
74775.3 68046.7 lineto
75003.2 67818.8 lineto
poly0
newpath
75003.2 63187.9 moveto
75231.1 63415.8 lineto
75003.2 63643.7 lineto
74775.3 63415.8 lineto
75003.2 63187.9 lineto
poly0
newpath
75003.2 44664.2 moveto
75231.1 44892.1 lineto
75003.2 45120 lineto
74775.3 44892.1 lineto
75003.2 44664.2 lineto
poly0
newpath
75003.2 40033.3 moveto
75231.1 40261.2 lineto
75003.2 40489.1 lineto
74775.3 40261.2 lineto
75003.2 40033.3 lineto
poly0
newpath
76160.9 67818.8 moveto
76388.8 68046.7 lineto
76160.9 68274.6 lineto
75933 68046.7 lineto
76160.9 67818.8 lineto
poly0
newpath
76160.9 63187.9 moveto
76388.8 63415.8 lineto
76160.9 63643.7 lineto
75933 63415.8 lineto
76160.9 63187.9 lineto
poly0
newpath
76160.9 44664.2 moveto
76388.8 44892.1 lineto
76160.9 45120 lineto
75933 44892.1 lineto
76160.9 44664.2 lineto
poly0
newpath
76160.9 40033.3 moveto
76388.8 40261.2 lineto
76160.9 40489.1 lineto
75933 40261.2 lineto
76160.9 40033.3 lineto
poly0
54.6958 setlinewidth
newpath
36756.2 65773.2 moveto
37303.2 65226.2 lineto
stroke
newpath
37303.2 65773.2 moveto
36756.2 65226.2 lineto
stroke
37029.7 65499.7 273.479 cir0
newpath
36756.2 61721.1 moveto
37303.2 61174.2 lineto
stroke
newpath
37303.2 61721.1 moveto
36756.2 61174.2 lineto
stroke
37029.7 61447.6 273.479 cir0
newpath
36756.2 49796.5 moveto
37303.2 49249.6 lineto
stroke
newpath
37303.2 49796.5 moveto
36756.2 49249.6 lineto
stroke
37029.7 49523 273.479 cir0
newpath
36756.2 48059.9 moveto
37303.2 47513 lineto
stroke
newpath
37303.2 48059.9 moveto
36756.2 47513 lineto
stroke
37029.7 47786.4 273.479 cir0
newpath
36756.2 46091.8 moveto
37303.2 45544.8 lineto
stroke
newpath
37303.2 46091.8 moveto
36756.2 45544.8 lineto
stroke
37029.7 45818.3 273.479 cir0
newpath
64078.6 36830 moveto
64625.6 36283 lineto
stroke
newpath
64625.6 36830 moveto
64078.6 36283 lineto
stroke
64352.1 36556.5 273.479 cir0
newpath
78897.5 50028.1 moveto
79444.5 49481.1 lineto
stroke
newpath
79444.5 50028.1 moveto
78897.5 49481.1 lineto
stroke
79171 49754.6 273.479 cir0
newpath
78897.5 45628.7 moveto
79444.5 45081.7 lineto
stroke
newpath
79444.5 45628.7 moveto
78897.5 45081.7 lineto
stroke
79171 45355.2 273.479 cir0
newpath
78897.5 43776.3 moveto
79444.5 43229.4 lineto
stroke
newpath
79444.5 43776.3 moveto
78897.5 43229.4 lineto
stroke
79171 43502.9 273.479 cir0
newpath
78897.5 42039.7 moveto
79444.5 41492.8 lineto
stroke
newpath
79444.5 42039.7 moveto
78897.5 41492.8 lineto
stroke
79171 41766.3 273.479 cir0
newpath
79244.8 65657.4 moveto
79791.8 65110.4 lineto
stroke
newpath
79791.8 65657.4 moveto
79244.8 65110.4 lineto
stroke
79518.3 65383.9 273.479 cir0
newpath
79244.8 61952.7 moveto
79791.8 61405.7 lineto
stroke
newpath
79791.8 61952.7 moveto
79244.8 61405.7 lineto
stroke
79518.3 61679.2 273.479 cir0
newpath
79244.8 60100.3 moveto
79791.8 59553.3 lineto
stroke
newpath
79791.8 60100.3 moveto
79244.8 59553.3 lineto
stroke
79518.3 59826.8 273.479 cir0
newpath
79244.8 58132.2 moveto
79791.8 57585.2 lineto
stroke
newpath
79791.8 58132.2 moveto
79244.8 57585.2 lineto
stroke
79518.3 57858.7 273.479 cir0
91.1597 setlinewidth
78.7401 setlinewidth
0 0 0 setrgbcolor
0 0 0 setrgbcolor
newpath
36643.8 33818.2 moveto
36643.8 34605.6 lineto
36831.2 34605.6 lineto
36943.7 34568.1 lineto
37018.7 34493.1 lineto
37056.2 34418.1 lineto
37093.7 34268.1 lineto
37093.7 34155.6 lineto
37056.2 34005.6 lineto
37018.7 33930.6 lineto
36943.7 33855.7 lineto
36831.2 33818.2 lineto
36643.8 33818.2 lineto
stroke
newpath
37431.2 33818.2 moveto
37431.2 34343.1 lineto
stroke
newpath
37431.2 34193.1 moveto
37468.6 34268.1 lineto
37506.1 34305.6 lineto
37581.1 34343.1 lineto
37656.1 34343.1 lineto
stroke
newpath
37918.6 33818.2 moveto
37918.6 34343.1 lineto
stroke
newpath
37918.6 34605.6 moveto
37881.1 34568.1 lineto
37918.6 34530.6 lineto
37956.1 34568.1 lineto
37918.6 34605.6 lineto
37918.6 34530.6 lineto
stroke
newpath
38406 33818.2 moveto
38331 33855.7 lineto
38293.5 33930.6 lineto
38293.5 34605.6 lineto
stroke
newpath
38818.5 33818.2 moveto
38743.5 33855.7 lineto
38706 33930.6 lineto
38706 34605.6 lineto
stroke
newpath
39718.4 33818.2 moveto
39718.4 34605.6 lineto
39980.8 34043.1 lineto
40243.3 34605.6 lineto
40243.3 33818.2 lineto
stroke
newpath
40955.7 33818.2 moveto
40955.7 34230.6 lineto
40918.2 34305.6 lineto
40843.2 34343.1 lineto
40693.2 34343.1 lineto
40618.3 34305.6 lineto
stroke
newpath
40955.7 33855.7 moveto
40880.7 33818.2 lineto
40693.2 33818.2 lineto
40618.3 33855.7 lineto
40580.8 33930.6 lineto
40580.8 34005.6 lineto
40618.3 34080.6 lineto
40693.2 34118.1 lineto
40880.7 34118.1 lineto
40955.7 34155.6 lineto
stroke
newpath
41330.7 34343.1 moveto
41330.7 33555.7 lineto
stroke
newpath
41330.7 34305.6 moveto
41405.7 34343.1 lineto
41555.6 34343.1 lineto
41630.6 34305.6 lineto
41668.1 34268.1 lineto
41705.6 34193.1 lineto
41705.6 33968.1 lineto
41668.1 33893.1 lineto
41630.6 33855.7 lineto
41555.6 33818.2 lineto
41405.7 33818.2 lineto
41330.7 33855.7 lineto
stroke
newpath
42043.1 33893.1 moveto
42080.6 33855.7 lineto
42043.1 33818.2 lineto
42005.6 33855.7 lineto
42043.1 33893.1 lineto
42043.1 33818.2 lineto
stroke
newpath
42043.1 34305.6 moveto
42080.6 34268.1 lineto
42043.1 34230.6 lineto
42005.6 34268.1 lineto
42043.1 34305.6 lineto
42043.1 34230.6 lineto
stroke
18.2319 setlinewidth
newpath
35447.2 32612 moveto
35629.5 32429.7 lineto
stroke
newpath
35629.5 32612 moveto
35447.2 32429.7 lineto
stroke
91.1597 setlinewidth
78.7401 setlinewidth
0 0 0 setrgbcolor
0 0 0 setrgbcolor
newpath
36793.7 32952 moveto
36868.7 32952 lineto
36943.7 32914.5 lineto
36981.2 32877 lineto
37018.7 32802 lineto
37056.2 32652.1 lineto
37056.2 32464.6 lineto
37018.7 32314.6 lineto
36981.2 32239.6 lineto
36943.7 32202.1 lineto
36868.7 32164.6 lineto
36793.7 32164.6 lineto
36718.7 32202.1 lineto
36681.2 32239.6 lineto
36643.8 32314.6 lineto
36606.3 32464.6 lineto
36606.3 32652.1 lineto
36643.8 32802 lineto
36681.2 32877 lineto
36718.7 32914.5 lineto
36793.7 32952 lineto
stroke
newpath
37393.7 32239.6 moveto
37431.2 32202.1 lineto
37393.7 32164.6 lineto
37356.2 32202.1 lineto
37393.7 32239.6 lineto
37393.7 32164.6 lineto
stroke
newpath
38106.1 32689.5 moveto
38106.1 32164.6 lineto
stroke
newpath
37918.6 32989.5 moveto
37731.1 32427.1 lineto
38218.6 32427.1 lineto
stroke
newpath
38668.5 32952 moveto
38743.5 32952 lineto
38818.5 32914.5 lineto
38856 32877 lineto
38893.5 32802 lineto
38931 32652.1 lineto
38931 32464.6 lineto
38893.5 32314.6 lineto
38856 32239.6 lineto
38818.5 32202.1 lineto
38743.5 32164.6 lineto
38668.5 32164.6 lineto
38593.5 32202.1 lineto
38556 32239.6 lineto
38518.5 32314.6 lineto
38481 32464.6 lineto
38481 32652.1 lineto
38518.5 32802 lineto
38556 32877 lineto
38593.5 32914.5 lineto
38668.5 32952 lineto
stroke
newpath
39418.4 32952 moveto
39493.4 32952 lineto
39568.4 32914.5 lineto
39605.9 32877 lineto
39643.4 32802 lineto
39680.9 32652.1 lineto
39680.9 32464.6 lineto
39643.4 32314.6 lineto
39605.9 32239.6 lineto
39568.4 32202.1 lineto
39493.4 32164.6 lineto
39418.4 32164.6 lineto
39343.4 32202.1 lineto
39305.9 32239.6 lineto
39268.4 32314.6 lineto
39230.9 32464.6 lineto
39230.9 32652.1 lineto
39268.4 32802 lineto
39305.9 32877 lineto
39343.4 32914.5 lineto
39418.4 32952 lineto
stroke
newpath
40018.3 32164.6 moveto
40018.3 32689.5 lineto
stroke
newpath
40018.3 32614.6 moveto
40055.8 32652.1 lineto
40130.8 32689.5 lineto
40243.3 32689.5 lineto
40318.3 32652.1 lineto
40355.8 32577.1 lineto
40355.8 32164.6 lineto
stroke
newpath
40355.8 32577.1 moveto
40393.3 32652.1 lineto
40468.3 32689.5 lineto
40580.8 32689.5 lineto
40655.8 32652.1 lineto
40693.2 32577.1 lineto
40693.2 32164.6 lineto
stroke
newpath
41068.2 32164.6 moveto
41068.2 32689.5 lineto
stroke
newpath
41068.2 32614.6 moveto
41105.7 32652.1 lineto
41180.7 32689.5 lineto
41293.2 32689.5 lineto
41368.2 32652.1 lineto
41405.7 32577.1 lineto
41405.7 32164.6 lineto
stroke
newpath
41405.7 32577.1 moveto
41443.2 32652.1 lineto
41518.1 32689.5 lineto
41630.6 32689.5 lineto
41705.6 32652.1 lineto
41743.1 32577.1 lineto
41743.1 32164.6 lineto
stroke
newpath
43280.4 32989.5 moveto
42605.5 31977.1 lineto
stroke
newpath
44292.8 32952 moveto
44367.8 32952 lineto
44442.8 32914.5 lineto
44480.3 32877 lineto
44517.8 32802 lineto
44555.3 32652.1 lineto
44555.3 32464.6 lineto
44517.8 32314.6 lineto
44480.3 32239.6 lineto
44442.8 32202.1 lineto
44367.8 32164.6 lineto
44292.8 32164.6 lineto
44217.8 32202.1 lineto
44180.3 32239.6 lineto
44142.8 32314.6 lineto
44105.3 32464.6 lineto
44105.3 32652.1 lineto
44142.8 32802 lineto
44180.3 32877 lineto
44217.8 32914.5 lineto
44292.8 32952 lineto
stroke
newpath
44892.7 32239.6 moveto
44930.2 32202.1 lineto
44892.7 32164.6 lineto
44855.2 32202.1 lineto
44892.7 32239.6 lineto
44892.7 32164.6 lineto
stroke
newpath
45417.7 32952 moveto
45492.6 32952 lineto
45567.6 32914.5 lineto
45605.1 32877 lineto
45642.6 32802 lineto
45680.1 32652.1 lineto
45680.1 32464.6 lineto
45642.6 32314.6 lineto
45605.1 32239.6 lineto
45567.6 32202.1 lineto
45492.6 32164.6 lineto
45417.7 32164.6 lineto
45342.7 32202.1 lineto
45305.2 32239.6 lineto
45267.7 32314.6 lineto
45230.2 32464.6 lineto
45230.2 32652.1 lineto
45267.7 32802 lineto
45305.2 32877 lineto
45342.7 32914.5 lineto
45417.7 32952 lineto
stroke
newpath
46430 32164.6 moveto
45980.1 32164.6 lineto
stroke
newpath
46205.1 32164.6 moveto
46205.1 32952 lineto
46130.1 32839.5 lineto
46055.1 32764.5 lineto
45980.1 32727 lineto
stroke
newpath
47142.4 32952 moveto
46767.5 32952 lineto
46730 32577.1 lineto
46767.5 32614.6 lineto
46842.5 32652.1 lineto
47030 32652.1 lineto
47104.9 32614.6 lineto
47142.4 32577.1 lineto
47179.9 32502.1 lineto
47179.9 32314.6 lineto
47142.4 32239.6 lineto
47104.9 32202.1 lineto
47030 32164.6 lineto
46842.5 32164.6 lineto
46767.5 32202.1 lineto
46730 32239.6 lineto
stroke
newpath
47442.4 32952 moveto
47967.3 32952 lineto
47629.9 32164.6 lineto
stroke
newpath
48229.8 32952 moveto
48229.8 32802 lineto
stroke
newpath
48529.8 32952 moveto
48529.8 32802 lineto
stroke
newpath
49692.1 31864.7 moveto
49654.6 31902.1 lineto
49579.6 32014.6 lineto
49542.1 32089.6 lineto
49504.6 32202.1 lineto
49467.1 32389.6 lineto
49467.1 32539.6 lineto
49504.6 32727 lineto
49542.1 32839.5 lineto
49579.6 32914.5 lineto
49654.6 33027 lineto
49692.1 33064.5 lineto
stroke
newpath
49954.6 32877 moveto
49992.1 32914.5 lineto
50067.1 32952 lineto
50254.6 32952 lineto
50329.5 32914.5 lineto
50367 32877 lineto
50404.5 32802 lineto
50404.5 32727 lineto
50367 32614.6 lineto
49917.1 32164.6 lineto
50404.5 32164.6 lineto
stroke
newpath
50779.5 32164.6 moveto
50929.5 32164.6 lineto
51004.5 32202.1 lineto
51042 32239.6 lineto
51116.9 32352.1 lineto
51154.4 32502.1 lineto
51154.4 32802 lineto
51116.9 32877 lineto
51079.4 32914.5 lineto
51004.5 32952 lineto
50854.5 32952 lineto
50779.5 32914.5 lineto
50742 32877 lineto
50704.5 32802 lineto
50704.5 32614.6 lineto
50742 32539.6 lineto
50779.5 32502.1 lineto
50854.5 32464.6 lineto
51004.5 32464.6 lineto
51079.4 32502.1 lineto
51116.9 32539.6 lineto
51154.4 32614.6 lineto
stroke
newpath
52091.8 32164.6 moveto
52091.8 32952 lineto
stroke
newpath
52429.3 32164.6 moveto
52429.3 32577.1 lineto
52391.8 32652.1 lineto
52316.8 32689.5 lineto
52204.3 32689.5 lineto
52129.3 32652.1 lineto
52091.8 32614.6 lineto
stroke
newpath
52916.7 32164.6 moveto
52841.7 32202.1 lineto
52804.2 32239.6 lineto
52766.7 32314.6 lineto
52766.7 32539.6 lineto
52804.2 32614.6 lineto
52841.7 32652.1 lineto
52916.7 32689.5 lineto
53029.2 32689.5 lineto
53104.2 32652.1 lineto
53141.7 32614.6 lineto
53179.2 32539.6 lineto
53179.2 32314.6 lineto
53141.7 32239.6 lineto
53104.2 32202.1 lineto
53029.2 32164.6 lineto
52916.7 32164.6 lineto
stroke
newpath
53629.1 32164.6 moveto
53554.1 32202.1 lineto
53516.6 32277.1 lineto
53516.6 32952 lineto
stroke
newpath
54229.1 32202.1 moveto
54154.1 32164.6 lineto
54004.1 32164.6 lineto
53929.1 32202.1 lineto
53891.6 32277.1 lineto
53891.6 32577.1 lineto
53929.1 32652.1 lineto
54004.1 32689.5 lineto
54154.1 32689.5 lineto
54229.1 32652.1 lineto
54266.6 32577.1 lineto
54266.6 32502.1 lineto
53891.6 32427.1 lineto
stroke
newpath
54566.5 32202.1 moveto
54641.5 32164.6 lineto
54791.5 32164.6 lineto
54866.5 32202.1 lineto
54904 32277.1 lineto
54904 32314.6 lineto
54866.5 32389.6 lineto
54791.5 32427.1 lineto
54679 32427.1 lineto
54604 32464.6 lineto
54566.5 32539.6 lineto
54566.5 32577.1 lineto
54604 32652.1 lineto
54679 32689.5 lineto
54791.5 32689.5 lineto
54866.5 32652.1 lineto
stroke
newpath
55166.4 31864.7 moveto
55203.9 31902.1 lineto
55278.9 32014.6 lineto
55316.4 32089.6 lineto
55353.9 32202.1 lineto
55391.4 32389.6 lineto
55391.4 32539.6 lineto
55353.9 32727 lineto
55316.4 32839.5 lineto
55278.9 32914.5 lineto
55203.9 33027 lineto
55166.4 33064.5 lineto
stroke
22.7899 setlinewidth
35515.6 31481.4 113.95 cir0
91.1597 setlinewidth
78.7401 setlinewidth
0 0 0 setrgbcolor
0 0 0 setrgbcolor
newpath
36793.7 31912.6 moveto
36868.7 31912.6 lineto
36943.7 31875.1 lineto
36981.2 31837.7 lineto
37018.7 31762.7 lineto
37056.2 31612.7 lineto
37056.2 31425.2 lineto
37018.7 31275.2 lineto
36981.2 31200.2 lineto
36943.7 31162.7 lineto
36868.7 31125.2 lineto
36793.7 31125.2 lineto
36718.7 31162.7 lineto
36681.2 31200.2 lineto
36643.8 31275.2 lineto
36606.3 31425.2 lineto
36606.3 31612.7 lineto
36643.8 31762.7 lineto
36681.2 31837.7 lineto
36718.7 31875.1 lineto
36793.7 31912.6 lineto
stroke
newpath
37393.7 31200.2 moveto
37431.2 31162.7 lineto
37393.7 31125.2 lineto
37356.2 31162.7 lineto
37393.7 31200.2 lineto
37393.7 31125.2 lineto
stroke
newpath
38143.6 31912.6 moveto
37768.6 31912.6 lineto
37731.1 31537.7 lineto
37768.6 31575.2 lineto
37843.6 31612.7 lineto
38031.1 31612.7 lineto
38106.1 31575.2 lineto
38143.6 31537.7 lineto
38181.1 31462.7 lineto
38181.1 31275.2 lineto
38143.6 31200.2 lineto
38106.1 31162.7 lineto
38031.1 31125.2 lineto
37843.6 31125.2 lineto
37768.6 31162.7 lineto
37731.1 31200.2 lineto
stroke
newpath
38668.5 31912.6 moveto
38743.5 31912.6 lineto
38818.5 31875.1 lineto
38856 31837.7 lineto
38893.5 31762.7 lineto
38931 31612.7 lineto
38931 31425.2 lineto
38893.5 31275.2 lineto
38856 31200.2 lineto
38818.5 31162.7 lineto
38743.5 31125.2 lineto
38668.5 31125.2 lineto
38593.5 31162.7 lineto
38556 31200.2 lineto
38518.5 31275.2 lineto
38481 31425.2 lineto
38481 31612.7 lineto
38518.5 31762.7 lineto
38556 31837.7 lineto
38593.5 31875.1 lineto
38668.5 31912.6 lineto
stroke
newpath
39418.4 31912.6 moveto
39493.4 31912.6 lineto
39568.4 31875.1 lineto
39605.9 31837.7 lineto
39643.4 31762.7 lineto
39680.9 31612.7 lineto
39680.9 31425.2 lineto
39643.4 31275.2 lineto
39605.9 31200.2 lineto
39568.4 31162.7 lineto
39493.4 31125.2 lineto
39418.4 31125.2 lineto
39343.4 31162.7 lineto
39305.9 31200.2 lineto
39268.4 31275.2 lineto
39230.9 31425.2 lineto
39230.9 31612.7 lineto
39268.4 31762.7 lineto
39305.9 31837.7 lineto
39343.4 31875.1 lineto
39418.4 31912.6 lineto
stroke
newpath
40018.3 31125.2 moveto
40018.3 31650.2 lineto
stroke
newpath
40018.3 31575.2 moveto
40055.8 31612.7 lineto
40130.8 31650.2 lineto
40243.3 31650.2 lineto
40318.3 31612.7 lineto
40355.8 31537.7 lineto
40355.8 31125.2 lineto
stroke
newpath
40355.8 31537.7 moveto
40393.3 31612.7 lineto
40468.3 31650.2 lineto
40580.8 31650.2 lineto
40655.8 31612.7 lineto
40693.2 31537.7 lineto
40693.2 31125.2 lineto
stroke
newpath
41068.2 31125.2 moveto
41068.2 31650.2 lineto
stroke
newpath
41068.2 31575.2 moveto
41105.7 31612.7 lineto
41180.7 31650.2 lineto
41293.2 31650.2 lineto
41368.2 31612.7 lineto
41405.7 31537.7 lineto
41405.7 31125.2 lineto
stroke
newpath
41405.7 31537.7 moveto
41443.2 31612.7 lineto
41518.1 31650.2 lineto
41630.6 31650.2 lineto
41705.6 31612.7 lineto
41743.1 31537.7 lineto
41743.1 31125.2 lineto
stroke
newpath
43280.4 31950.1 moveto
42605.5 30937.8 lineto
stroke
newpath
44292.8 31912.6 moveto
44367.8 31912.6 lineto
44442.8 31875.1 lineto
44480.3 31837.7 lineto
44517.8 31762.7 lineto
44555.3 31612.7 lineto
44555.3 31425.2 lineto
44517.8 31275.2 lineto
44480.3 31200.2 lineto
44442.8 31162.7 lineto
44367.8 31125.2 lineto
44292.8 31125.2 lineto
44217.8 31162.7 lineto
44180.3 31200.2 lineto
44142.8 31275.2 lineto
44105.3 31425.2 lineto
44105.3 31612.7 lineto
44142.8 31762.7 lineto
44180.3 31837.7 lineto
44217.8 31875.1 lineto
44292.8 31912.6 lineto
stroke
newpath
44892.7 31200.2 moveto
44930.2 31162.7 lineto
44892.7 31125.2 lineto
44855.2 31162.7 lineto
44892.7 31200.2 lineto
44892.7 31125.2 lineto
stroke
newpath
45417.7 31912.6 moveto
45492.6 31912.6 lineto
45567.6 31875.1 lineto
45605.1 31837.7 lineto
45642.6 31762.7 lineto
45680.1 31612.7 lineto
45680.1 31425.2 lineto
45642.6 31275.2 lineto
45605.1 31200.2 lineto
45567.6 31162.7 lineto
45492.6 31125.2 lineto
45417.7 31125.2 lineto
45342.7 31162.7 lineto
45305.2 31200.2 lineto
45267.7 31275.2 lineto
45230.2 31425.2 lineto
45230.2 31612.7 lineto
45267.7 31762.7 lineto
45305.2 31837.7 lineto
45342.7 31875.1 lineto
45417.7 31912.6 lineto
stroke
newpath
46430 31125.2 moveto
45980.1 31125.2 lineto
stroke
newpath
46205.1 31125.2 moveto
46205.1 31912.6 lineto
46130.1 31800.2 lineto
46055.1 31725.2 lineto
45980.1 31687.7 lineto
stroke
newpath
46805 31125.2 moveto
46955 31125.2 lineto
47030 31162.7 lineto
47067.4 31200.2 lineto
47142.4 31312.7 lineto
47179.9 31462.7 lineto
47179.9 31762.7 lineto
47142.4 31837.7 lineto
47104.9 31875.1 lineto
47030 31912.6 lineto
46880 31912.6 lineto
46805 31875.1 lineto
46767.5 31837.7 lineto
46730 31762.7 lineto
46730 31575.2 lineto
46767.5 31500.2 lineto
46805 31462.7 lineto
46880 31425.2 lineto
47030 31425.2 lineto
47104.9 31462.7 lineto
47142.4 31500.2 lineto
47179.9 31575.2 lineto
stroke
newpath
47442.4 31912.6 moveto
47967.3 31912.6 lineto
47629.9 31125.2 lineto
stroke
newpath
48229.8 31912.6 moveto
48229.8 31762.7 lineto
stroke
newpath
48529.8 31912.6 moveto
48529.8 31762.7 lineto
stroke
newpath
49692.1 30825.3 moveto
49654.6 30862.8 lineto
49579.6 30975.3 lineto
49542.1 31050.3 lineto
49504.6 31162.7 lineto
49467.1 31350.2 lineto
49467.1 31500.2 lineto
49504.6 31687.7 lineto
49542.1 31800.2 lineto
49579.6 31875.1 lineto
49654.6 31987.6 lineto
49692.1 32025.1 lineto
stroke
newpath
50142.1 31912.6 moveto
50217.1 31912.6 lineto
50292 31875.1 lineto
50329.5 31837.7 lineto
50367 31762.7 lineto
50404.5 31612.7 lineto
50404.5 31425.2 lineto
50367 31275.2 lineto
50329.5 31200.2 lineto
50292 31162.7 lineto
50217.1 31125.2 lineto
50142.1 31125.2 lineto
50067.1 31162.7 lineto
50029.6 31200.2 lineto
49992.1 31275.2 lineto
49954.6 31425.2 lineto
49954.6 31612.7 lineto
49992.1 31762.7 lineto
50029.6 31837.7 lineto
50067.1 31875.1 lineto
50142.1 31912.6 lineto
stroke
newpath
51341.9 31125.2 moveto
51341.9 31912.6 lineto
stroke
newpath
51679.4 31125.2 moveto
51679.4 31537.7 lineto
51641.9 31612.7 lineto
51566.9 31650.2 lineto
51454.4 31650.2 lineto
51379.4 31612.7 lineto
51341.9 31575.2 lineto
stroke
newpath
52166.8 31125.2 moveto
52091.8 31162.7 lineto
52054.3 31200.2 lineto
52016.8 31275.2 lineto
52016.8 31500.2 lineto
52054.3 31575.2 lineto
52091.8 31612.7 lineto
52166.8 31650.2 lineto
52279.3 31650.2 lineto
52354.3 31612.7 lineto
52391.8 31575.2 lineto
52429.3 31500.2 lineto
52429.3 31275.2 lineto
52391.8 31200.2 lineto
52354.3 31162.7 lineto
52279.3 31125.2 lineto
52166.8 31125.2 lineto
stroke
newpath
52879.2 31125.2 moveto
52804.2 31162.7 lineto
52766.7 31237.7 lineto
52766.7 31912.6 lineto
stroke
newpath
53479.1 31162.7 moveto
53404.2 31125.2 lineto
53254.2 31125.2 lineto
53179.2 31162.7 lineto
53141.7 31237.7 lineto
53141.7 31537.7 lineto
53179.2 31612.7 lineto
53254.2 31650.2 lineto
53404.2 31650.2 lineto
53479.1 31612.7 lineto
53516.6 31537.7 lineto
53516.6 31462.7 lineto
53141.7 31387.7 lineto
stroke
newpath
53816.6 31162.7 moveto
53891.6 31125.2 lineto
54041.6 31125.2 lineto
54116.6 31162.7 lineto
54154.1 31237.7 lineto
54154.1 31275.2 lineto
54116.6 31350.2 lineto
54041.6 31387.7 lineto
53929.1 31387.7 lineto
53854.1 31425.2 lineto
53816.6 31500.2 lineto
53816.6 31537.7 lineto
53854.1 31612.7 lineto
53929.1 31650.2 lineto
54041.6 31650.2 lineto
54116.6 31612.7 lineto
stroke
newpath
55091.4 31425.2 moveto
55691.4 31425.2 lineto
stroke
newpath
55391.4 31125.2 moveto
55391.4 31725.2 lineto
stroke
newpath
56628.8 31837.7 moveto
56666.3 31875.1 lineto
56741.2 31912.6 lineto
56928.7 31912.6 lineto
57003.7 31875.1 lineto
57041.2 31837.7 lineto
57078.7 31762.7 lineto
57078.7 31687.7 lineto
57041.2 31575.2 lineto
56591.3 31125.2 lineto
57078.7 31125.2 lineto
stroke
newpath
57978.6 31162.7 moveto
58053.6 31125.2 lineto
58203.6 31125.2 lineto
58278.5 31162.7 lineto
58316 31237.7 lineto
58316 31275.2 lineto
58278.5 31350.2 lineto
58203.6 31387.7 lineto
58091.1 31387.7 lineto
58016.1 31425.2 lineto
57978.6 31500.2 lineto
57978.6 31537.7 lineto
58016.1 31612.7 lineto
58091.1 31650.2 lineto
58203.6 31650.2 lineto
58278.5 31612.7 lineto
stroke
newpath
58766 31125.2 moveto
58691 31162.7 lineto
58653.5 31237.7 lineto
58653.5 31912.6 lineto
stroke
newpath
59178.4 31125.2 moveto
59103.4 31162.7 lineto
59066 31200.2 lineto
59028.5 31275.2 lineto
59028.5 31500.2 lineto
59066 31575.2 lineto
59103.4 31612.7 lineto
59178.4 31650.2 lineto
59290.9 31650.2 lineto
59365.9 31612.7 lineto
59403.4 31575.2 lineto
59440.9 31500.2 lineto
59440.9 31275.2 lineto
59403.4 31200.2 lineto
59365.9 31162.7 lineto
59290.9 31125.2 lineto
59178.4 31125.2 lineto
stroke
newpath
59665.9 31650.2 moveto
59965.8 31650.2 lineto
stroke
newpath
59778.4 31912.6 moveto
59778.4 31237.7 lineto
59815.9 31162.7 lineto
59890.8 31125.2 lineto
59965.8 31125.2 lineto
stroke
newpath
60190.8 31162.7 moveto
60265.8 31125.2 lineto
60415.8 31125.2 lineto
60490.8 31162.7 lineto
60528.3 31237.7 lineto
60528.3 31275.2 lineto
60490.8 31350.2 lineto
60415.8 31387.7 lineto
60303.3 31387.7 lineto
60228.3 31425.2 lineto
60190.8 31500.2 lineto
60190.8 31537.7 lineto
60228.3 31612.7 lineto
60303.3 31650.2 lineto
60415.8 31650.2 lineto
60490.8 31612.7 lineto
stroke
newpath
60790.7 30825.3 moveto
60828.2 30862.8 lineto
60903.2 30975.3 lineto
60940.7 31050.3 lineto
60978.2 31162.7 lineto
61015.7 31350.2 lineto
61015.7 31500.2 lineto
60978.2 31687.7 lineto
60940.7 31800.2 lineto
60903.2 31875.1 lineto
60828.2 31987.6 lineto
60790.7 32025.1 lineto
stroke
31.9059 setlinewidth
newpath
35470 30601.6 moveto
35470 30282.5 lineto
stroke
newpath
35310.4 30442.1 moveto
35629.5 30442.1 lineto
stroke
91.1597 setlinewidth
78.7401 setlinewidth
0 0 0 setrgbcolor
0 0 0 setrgbcolor
newpath
36793.7 30873.3 moveto
36868.7 30873.3 lineto
36943.7 30835.8 lineto
36981.2 30798.3 lineto
37018.7 30723.3 lineto
37056.2 30573.3 lineto
37056.2 30385.8 lineto
37018.7 30235.9 lineto
36981.2 30160.9 lineto
36943.7 30123.4 lineto
36868.7 30085.9 lineto
36793.7 30085.9 lineto
36718.7 30123.4 lineto
36681.2 30160.9 lineto
36643.8 30235.9 lineto
36606.3 30385.8 lineto
36606.3 30573.3 lineto
36643.8 30723.3 lineto
36681.2 30798.3 lineto
36718.7 30835.8 lineto
36793.7 30873.3 lineto
stroke
newpath
37393.7 30160.9 moveto
37431.2 30123.4 lineto
37393.7 30085.9 lineto
37356.2 30123.4 lineto
37393.7 30160.9 lineto
37393.7 30085.9 lineto
stroke
newpath
37693.6 30873.3 moveto
38218.6 30873.3 lineto
37881.1 30085.9 lineto
stroke
newpath
38668.5 30873.3 moveto
38743.5 30873.3 lineto
38818.5 30835.8 lineto
38856 30798.3 lineto
38893.5 30723.3 lineto
38931 30573.3 lineto
38931 30385.8 lineto
38893.5 30235.9 lineto
38856 30160.9 lineto
38818.5 30123.4 lineto
38743.5 30085.9 lineto
38668.5 30085.9 lineto
38593.5 30123.4 lineto
38556 30160.9 lineto
38518.5 30235.9 lineto
38481 30385.8 lineto
38481 30573.3 lineto
38518.5 30723.3 lineto
38556 30798.3 lineto
38593.5 30835.8 lineto
38668.5 30873.3 lineto
stroke
newpath
39418.4 30873.3 moveto
39493.4 30873.3 lineto
39568.4 30835.8 lineto
39605.9 30798.3 lineto
39643.4 30723.3 lineto
39680.9 30573.3 lineto
39680.9 30385.8 lineto
39643.4 30235.9 lineto
39605.9 30160.9 lineto
39568.4 30123.4 lineto
39493.4 30085.9 lineto
39418.4 30085.9 lineto
39343.4 30123.4 lineto
39305.9 30160.9 lineto
39268.4 30235.9 lineto
39230.9 30385.8 lineto
39230.9 30573.3 lineto
39268.4 30723.3 lineto
39305.9 30798.3 lineto
39343.4 30835.8 lineto
39418.4 30873.3 lineto
stroke
newpath
40018.3 30085.9 moveto
40018.3 30610.8 lineto
stroke
newpath
40018.3 30535.8 moveto
40055.8 30573.3 lineto
40130.8 30610.8 lineto
40243.3 30610.8 lineto
40318.3 30573.3 lineto
40355.8 30498.3 lineto
40355.8 30085.9 lineto
stroke
newpath
40355.8 30498.3 moveto
40393.3 30573.3 lineto
40468.3 30610.8 lineto
40580.8 30610.8 lineto
40655.8 30573.3 lineto
40693.2 30498.3 lineto
40693.2 30085.9 lineto
stroke
newpath
41068.2 30085.9 moveto
41068.2 30610.8 lineto
stroke
newpath
41068.2 30535.8 moveto
41105.7 30573.3 lineto
41180.7 30610.8 lineto
41293.2 30610.8 lineto
41368.2 30573.3 lineto
41405.7 30498.3 lineto
41405.7 30085.9 lineto
stroke
newpath
41405.7 30498.3 moveto
41443.2 30573.3 lineto
41518.1 30610.8 lineto
41630.6 30610.8 lineto
41705.6 30573.3 lineto
41743.1 30498.3 lineto
41743.1 30085.9 lineto
stroke
newpath
43280.4 30910.8 moveto
42605.5 29898.4 lineto
stroke
newpath
44292.8 30873.3 moveto
44367.8 30873.3 lineto
44442.8 30835.8 lineto
44480.3 30798.3 lineto
44517.8 30723.3 lineto
44555.3 30573.3 lineto
44555.3 30385.8 lineto
44517.8 30235.9 lineto
44480.3 30160.9 lineto
44442.8 30123.4 lineto
44367.8 30085.9 lineto
44292.8 30085.9 lineto
44217.8 30123.4 lineto
44180.3 30160.9 lineto
44142.8 30235.9 lineto
44105.3 30385.8 lineto
44105.3 30573.3 lineto
44142.8 30723.3 lineto
44180.3 30798.3 lineto
44217.8 30835.8 lineto
44292.8 30873.3 lineto
stroke
newpath
44892.7 30160.9 moveto
44930.2 30123.4 lineto
44892.7 30085.9 lineto
44855.2 30123.4 lineto
44892.7 30160.9 lineto
44892.7 30085.9 lineto
stroke
newpath
45417.7 30873.3 moveto
45492.6 30873.3 lineto
45567.6 30835.8 lineto
45605.1 30798.3 lineto
45642.6 30723.3 lineto
45680.1 30573.3 lineto
45680.1 30385.8 lineto
45642.6 30235.9 lineto
45605.1 30160.9 lineto
45567.6 30123.4 lineto
45492.6 30085.9 lineto
45417.7 30085.9 lineto
45342.7 30123.4 lineto
45305.2 30160.9 lineto
45267.7 30235.9 lineto
45230.2 30385.8 lineto
45230.2 30573.3 lineto
45267.7 30723.3 lineto
45305.2 30798.3 lineto
45342.7 30835.8 lineto
45417.7 30873.3 lineto
stroke
newpath
45980.1 30798.3 moveto
46017.6 30835.8 lineto
46092.6 30873.3 lineto
46280 30873.3 lineto
46355 30835.8 lineto
46392.5 30798.3 lineto
46430 30723.3 lineto
46430 30648.3 lineto
46392.5 30535.8 lineto
45942.6 30085.9 lineto
46430 30085.9 lineto
stroke
newpath
46692.5 30873.3 moveto
47217.4 30873.3 lineto
46880 30085.9 lineto
stroke
newpath
47854.9 30873.3 moveto
47704.9 30873.3 lineto
47629.9 30835.8 lineto
47592.4 30798.3 lineto
47517.4 30685.8 lineto
47479.9 30535.8 lineto
47479.9 30235.9 lineto
47517.4 30160.9 lineto
47554.9 30123.4 lineto
47629.9 30085.9 lineto
47779.9 30085.9 lineto
47854.9 30123.4 lineto
47892.3 30160.9 lineto
47929.8 30235.9 lineto
47929.8 30423.3 lineto
47892.3 30498.3 lineto
47854.9 30535.8 lineto
47779.9 30573.3 lineto
47629.9 30573.3 lineto
47554.9 30535.8 lineto
47517.4 30498.3 lineto
47479.9 30423.3 lineto
stroke
newpath
48229.8 30873.3 moveto
48229.8 30723.3 lineto
stroke
newpath
48529.8 30873.3 moveto
48529.8 30723.3 lineto
stroke
newpath
49692.1 29785.9 moveto
49654.6 29823.4 lineto
49579.6 29935.9 lineto
49542.1 30010.9 lineto
49504.6 30123.4 lineto
49467.1 30310.8 lineto
49467.1 30460.8 lineto
49504.6 30648.3 lineto
49542.1 30760.8 lineto
49579.6 30835.8 lineto
49654.6 30948.3 lineto
49692.1 30985.8 lineto
stroke
newpath
49954.6 30798.3 moveto
49992.1 30835.8 lineto
50067.1 30873.3 lineto
50254.6 30873.3 lineto
50329.5 30835.8 lineto
50367 30798.3 lineto
50404.5 30723.3 lineto
50404.5 30648.3 lineto
50367 30535.8 lineto
49917.1 30085.9 lineto
50404.5 30085.9 lineto
stroke
newpath
51341.9 30085.9 moveto
51341.9 30873.3 lineto
stroke
newpath
51679.4 30085.9 moveto
51679.4 30498.3 lineto
51641.9 30573.3 lineto
51566.9 30610.8 lineto
51454.4 30610.8 lineto
51379.4 30573.3 lineto
51341.9 30535.8 lineto
stroke
newpath
52166.8 30085.9 moveto
52091.8 30123.4 lineto
52054.3 30160.9 lineto
52016.8 30235.9 lineto
52016.8 30460.8 lineto
52054.3 30535.8 lineto
52091.8 30573.3 lineto
52166.8 30610.8 lineto
52279.3 30610.8 lineto
52354.3 30573.3 lineto
52391.8 30535.8 lineto
52429.3 30460.8 lineto
52429.3 30235.9 lineto
52391.8 30160.9 lineto
52354.3 30123.4 lineto
52279.3 30085.9 lineto
52166.8 30085.9 lineto
stroke
newpath
52879.2 30085.9 moveto
52804.2 30123.4 lineto
52766.7 30198.4 lineto
52766.7 30873.3 lineto
stroke
newpath
53479.1 30123.4 moveto
53404.2 30085.9 lineto
53254.2 30085.9 lineto
53179.2 30123.4 lineto
53141.7 30198.4 lineto
53141.7 30498.3 lineto
53179.2 30573.3 lineto
53254.2 30610.8 lineto
53404.2 30610.8 lineto
53479.1 30573.3 lineto
53516.6 30498.3 lineto
53516.6 30423.3 lineto
53141.7 30348.3 lineto
stroke
newpath
53816.6 30123.4 moveto
53891.6 30085.9 lineto
54041.6 30085.9 lineto
54116.6 30123.4 lineto
54154.1 30198.4 lineto
54154.1 30235.9 lineto
54116.6 30310.8 lineto
54041.6 30348.3 lineto
53929.1 30348.3 lineto
53854.1 30385.8 lineto
53816.6 30460.8 lineto
53816.6 30498.3 lineto
53854.1 30573.3 lineto
53929.1 30610.8 lineto
54041.6 30610.8 lineto
54116.6 30573.3 lineto
stroke
newpath
54416.5 29785.9 moveto
54454 29823.4 lineto
54529 29935.9 lineto
54566.5 30010.9 lineto
54604 30123.4 lineto
54641.5 30310.8 lineto
54641.5 30460.8 lineto
54604 30648.3 lineto
54566.5 30760.8 lineto
54529 30835.8 lineto
54454 30948.3 lineto
54416.5 30985.8 lineto
stroke
41.0218 setlinewidth
newpath
35569.4 29257.7 moveto
35569.4 29547.7 lineto
35279.4 29547.7 lineto
35279.4 29257.7 lineto
35569.4 29257.7 lineto
poly0
91.1597 setlinewidth
78.7401 setlinewidth
0 0 0 setrgbcolor
0 0 0 setrgbcolor
newpath
36793.7 29833.9 moveto
36868.7 29833.9 lineto
36943.7 29796.4 lineto
36981.2 29758.9 lineto
37018.7 29683.9 lineto
37056.2 29533.9 lineto
37056.2 29346.5 lineto
37018.7 29196.5 lineto
36981.2 29121.5 lineto
36943.7 29084 lineto
36868.7 29046.5 lineto
36793.7 29046.5 lineto
36718.7 29084 lineto
36681.2 29121.5 lineto
36643.8 29196.5 lineto
36606.3 29346.5 lineto
36606.3 29533.9 lineto
36643.8 29683.9 lineto
36681.2 29758.9 lineto
36718.7 29796.4 lineto
36793.7 29833.9 lineto
stroke
newpath
37393.7 29121.5 moveto
37431.2 29084 lineto
37393.7 29046.5 lineto
37356.2 29084 lineto
37393.7 29121.5 lineto
37393.7 29046.5 lineto
stroke
newpath
37806.1 29046.5 moveto
37956.1 29046.5 lineto
38031.1 29084 lineto
38068.6 29121.5 lineto
38143.6 29234 lineto
38181.1 29384 lineto
38181.1 29683.9 lineto
38143.6 29758.9 lineto
38106.1 29796.4 lineto
38031.1 29833.9 lineto
37881.1 29833.9 lineto
37806.1 29796.4 lineto
37768.6 29758.9 lineto
37731.1 29683.9 lineto
37731.1 29496.4 lineto
37768.6 29421.5 lineto
37806.1 29384 lineto
37881.1 29346.5 lineto
38031.1 29346.5 lineto
38106.1 29384 lineto
38143.6 29421.5 lineto
38181.1 29496.4 lineto
stroke
newpath
38668.5 29833.9 moveto
38743.5 29833.9 lineto
38818.5 29796.4 lineto
38856 29758.9 lineto
38893.5 29683.9 lineto
38931 29533.9 lineto
38931 29346.5 lineto
38893.5 29196.5 lineto
38856 29121.5 lineto
38818.5 29084 lineto
38743.5 29046.5 lineto
38668.5 29046.5 lineto
38593.5 29084 lineto
38556 29121.5 lineto
38518.5 29196.5 lineto
38481 29346.5 lineto
38481 29533.9 lineto
38518.5 29683.9 lineto
38556 29758.9 lineto
38593.5 29796.4 lineto
38668.5 29833.9 lineto
stroke
newpath
39418.4 29833.9 moveto
39493.4 29833.9 lineto
39568.4 29796.4 lineto
39605.9 29758.9 lineto
39643.4 29683.9 lineto
39680.9 29533.9 lineto
39680.9 29346.5 lineto
39643.4 29196.5 lineto
39605.9 29121.5 lineto
39568.4 29084 lineto
39493.4 29046.5 lineto
39418.4 29046.5 lineto
39343.4 29084 lineto
39305.9 29121.5 lineto
39268.4 29196.5 lineto
39230.9 29346.5 lineto
39230.9 29533.9 lineto
39268.4 29683.9 lineto
39305.9 29758.9 lineto
39343.4 29796.4 lineto
39418.4 29833.9 lineto
stroke
newpath
40018.3 29046.5 moveto
40018.3 29571.4 lineto
stroke
newpath
40018.3 29496.4 moveto
40055.8 29533.9 lineto
40130.8 29571.4 lineto
40243.3 29571.4 lineto
40318.3 29533.9 lineto
40355.8 29459 lineto
40355.8 29046.5 lineto
stroke
newpath
40355.8 29459 moveto
40393.3 29533.9 lineto
40468.3 29571.4 lineto
40580.8 29571.4 lineto
40655.8 29533.9 lineto
40693.2 29459 lineto
40693.2 29046.5 lineto
stroke
newpath
41068.2 29046.5 moveto
41068.2 29571.4 lineto
stroke
newpath
41068.2 29496.4 moveto
41105.7 29533.9 lineto
41180.7 29571.4 lineto
41293.2 29571.4 lineto
41368.2 29533.9 lineto
41405.7 29459 lineto
41405.7 29046.5 lineto
stroke
newpath
41405.7 29459 moveto
41443.2 29533.9 lineto
41518.1 29571.4 lineto
41630.6 29571.4 lineto
41705.6 29533.9 lineto
41743.1 29459 lineto
41743.1 29046.5 lineto
stroke
newpath
43280.4 29871.4 moveto
42605.5 28859 lineto
stroke
newpath
44292.8 29833.9 moveto
44367.8 29833.9 lineto
44442.8 29796.4 lineto
44480.3 29758.9 lineto
44517.8 29683.9 lineto
44555.3 29533.9 lineto
44555.3 29346.5 lineto
44517.8 29196.5 lineto
44480.3 29121.5 lineto
44442.8 29084 lineto
44367.8 29046.5 lineto
44292.8 29046.5 lineto
44217.8 29084 lineto
44180.3 29121.5 lineto
44142.8 29196.5 lineto
44105.3 29346.5 lineto
44105.3 29533.9 lineto
44142.8 29683.9 lineto
44180.3 29758.9 lineto
44217.8 29796.4 lineto
44292.8 29833.9 lineto
stroke
newpath
44892.7 29121.5 moveto
44930.2 29084 lineto
44892.7 29046.5 lineto
44855.2 29084 lineto
44892.7 29121.5 lineto
44892.7 29046.5 lineto
stroke
newpath
45417.7 29833.9 moveto
45492.6 29833.9 lineto
45567.6 29796.4 lineto
45605.1 29758.9 lineto
45642.6 29683.9 lineto
45680.1 29533.9 lineto
45680.1 29346.5 lineto
45642.6 29196.5 lineto
45605.1 29121.5 lineto
45567.6 29084 lineto
45492.6 29046.5 lineto
45417.7 29046.5 lineto
45342.7 29084 lineto
45305.2 29121.5 lineto
45267.7 29196.5 lineto
45230.2 29346.5 lineto
45230.2 29533.9 lineto
45267.7 29683.9 lineto
45305.2 29758.9 lineto
45342.7 29796.4 lineto
45417.7 29833.9 lineto
stroke
newpath
45942.6 29833.9 moveto
46430 29833.9 lineto
46167.6 29533.9 lineto
46280 29533.9 lineto
46355 29496.4 lineto
46392.5 29459 lineto
46430 29384 lineto
46430 29196.5 lineto
46392.5 29121.5 lineto
46355 29084 lineto
46280 29046.5 lineto
46055.1 29046.5 lineto
45980.1 29084 lineto
45942.6 29121.5 lineto
stroke
newpath
47142.4 29833.9 moveto
46767.5 29833.9 lineto
46730 29459 lineto
46767.5 29496.4 lineto
46842.5 29533.9 lineto
47030 29533.9 lineto
47104.9 29496.4 lineto
47142.4 29459 lineto
47179.9 29384 lineto
47179.9 29196.5 lineto
47142.4 29121.5 lineto
47104.9 29084 lineto
47030 29046.5 lineto
46842.5 29046.5 lineto
46767.5 29084 lineto
46730 29121.5 lineto
stroke
newpath
47854.9 29571.4 moveto
47854.9 29046.5 lineto
stroke
newpath
47667.4 29871.4 moveto
47479.9 29309 lineto
47967.3 29309 lineto
stroke
newpath
48229.8 29833.9 moveto
48229.8 29683.9 lineto
stroke
newpath
48529.8 29833.9 moveto
48529.8 29683.9 lineto
stroke
newpath
49692.1 28746.5 moveto
49654.6 28784 lineto
49579.6 28896.5 lineto
49542.1 28971.5 lineto
49504.6 29084 lineto
49467.1 29271.5 lineto
49467.1 29421.5 lineto
49504.6 29608.9 lineto
49542.1 29721.4 lineto
49579.6 29796.4 lineto
49654.6 29908.9 lineto
49692.1 29946.4 lineto
stroke
newpath
50329.5 29833.9 moveto
50179.6 29833.9 lineto
50104.6 29796.4 lineto
50067.1 29758.9 lineto
49992.1 29646.4 lineto
49954.6 29496.4 lineto
49954.6 29196.5 lineto
49992.1 29121.5 lineto
50029.6 29084 lineto
50104.6 29046.5 lineto
50254.6 29046.5 lineto
50329.5 29084 lineto
50367 29121.5 lineto
50404.5 29196.5 lineto
50404.5 29384 lineto
50367 29459 lineto
50329.5 29496.4 lineto
50254.6 29533.9 lineto
50104.6 29533.9 lineto
50029.6 29496.4 lineto
49992.1 29459 lineto
49954.6 29384 lineto
stroke
newpath
51341.9 29046.5 moveto
51341.9 29833.9 lineto
stroke
newpath
51679.4 29046.5 moveto
51679.4 29459 lineto
51641.9 29533.9 lineto
51566.9 29571.4 lineto
51454.4 29571.4 lineto
51379.4 29533.9 lineto
51341.9 29496.4 lineto
stroke
newpath
52166.8 29046.5 moveto
52091.8 29084 lineto
52054.3 29121.5 lineto
52016.8 29196.5 lineto
52016.8 29421.5 lineto
52054.3 29496.4 lineto
52091.8 29533.9 lineto
52166.8 29571.4 lineto
52279.3 29571.4 lineto
52354.3 29533.9 lineto
52391.8 29496.4 lineto
52429.3 29421.5 lineto
52429.3 29196.5 lineto
52391.8 29121.5 lineto
52354.3 29084 lineto
52279.3 29046.5 lineto
52166.8 29046.5 lineto
stroke
newpath
52879.2 29046.5 moveto
52804.2 29084 lineto
52766.7 29159 lineto
52766.7 29833.9 lineto
stroke
newpath
53479.1 29084 moveto
53404.2 29046.5 lineto
53254.2 29046.5 lineto
53179.2 29084 lineto
53141.7 29159 lineto
53141.7 29459 lineto
53179.2 29533.9 lineto
53254.2 29571.4 lineto
53404.2 29571.4 lineto
53479.1 29533.9 lineto
53516.6 29459 lineto
53516.6 29384 lineto
53141.7 29309 lineto
stroke
newpath
53816.6 29084 moveto
53891.6 29046.5 lineto
54041.6 29046.5 lineto
54116.6 29084 lineto
54154.1 29159 lineto
54154.1 29196.5 lineto
54116.6 29271.5 lineto
54041.6 29309 lineto
53929.1 29309 lineto
53854.1 29346.5 lineto
53816.6 29421.5 lineto
53816.6 29459 lineto
53854.1 29533.9 lineto
53929.1 29571.4 lineto
54041.6 29571.4 lineto
54116.6 29533.9 lineto
stroke
newpath
54416.5 28746.5 moveto
54454 28784 lineto
54529 28896.5 lineto
54566.5 28971.5 lineto
54604 29084 lineto
54641.5 29271.5 lineto
54641.5 29421.5 lineto
54604 29608.9 lineto
54566.5 29721.4 lineto
54529 29796.4 lineto
54454 29908.9 lineto
54416.5 29946.4 lineto
stroke
45.5798 setlinewidth
newpath
35401.6 28135.4 moveto
35629.5 28363.3 lineto
35401.6 28591.2 lineto
35173.7 28363.3 lineto
35401.6 28135.4 lineto
poly0
91.1597 setlinewidth
78.7401 setlinewidth
0 0 0 setrgbcolor
0 0 0 setrgbcolor
newpath
37056.2 28007.1 moveto
36606.3 28007.1 lineto
stroke
newpath
36831.2 28007.1 moveto
36831.2 28794.5 lineto
36756.2 28682 lineto
36681.2 28607.1 lineto
36606.3 28569.6 lineto
stroke
newpath
37393.7 28082.1 moveto
37431.2 28044.6 lineto
37393.7 28007.1 lineto
37356.2 28044.6 lineto
37393.7 28082.1 lineto
37393.7 28007.1 lineto
stroke
newpath
37918.6 28794.5 moveto
37993.6 28794.5 lineto
38068.6 28757 lineto
38106.1 28719.5 lineto
38143.6 28644.6 lineto
38181.1 28494.6 lineto
38181.1 28307.1 lineto
38143.6 28157.1 lineto
38106.1 28082.1 lineto
38068.6 28044.6 lineto
37993.6 28007.1 lineto
37918.6 28007.1 lineto
37843.6 28044.6 lineto
37806.1 28082.1 lineto
37768.6 28157.1 lineto
37731.1 28307.1 lineto
37731.1 28494.6 lineto
37768.6 28644.6 lineto
37806.1 28719.5 lineto
37843.6 28757 lineto
37918.6 28794.5 lineto
stroke
newpath
38668.5 28794.5 moveto
38743.5 28794.5 lineto
38818.5 28757 lineto
38856 28719.5 lineto
38893.5 28644.6 lineto
38931 28494.6 lineto
38931 28307.1 lineto
38893.5 28157.1 lineto
38856 28082.1 lineto
38818.5 28044.6 lineto
38743.5 28007.1 lineto
38668.5 28007.1 lineto
38593.5 28044.6 lineto
38556 28082.1 lineto
38518.5 28157.1 lineto
38481 28307.1 lineto
38481 28494.6 lineto
38518.5 28644.6 lineto
38556 28719.5 lineto
38593.5 28757 lineto
38668.5 28794.5 lineto
stroke
newpath
39418.4 28794.5 moveto
39493.4 28794.5 lineto
39568.4 28757 lineto
39605.9 28719.5 lineto
39643.4 28644.6 lineto
39680.9 28494.6 lineto
39680.9 28307.1 lineto
39643.4 28157.1 lineto
39605.9 28082.1 lineto
39568.4 28044.6 lineto
39493.4 28007.1 lineto
39418.4 28007.1 lineto
39343.4 28044.6 lineto
39305.9 28082.1 lineto
39268.4 28157.1 lineto
39230.9 28307.1 lineto
39230.9 28494.6 lineto
39268.4 28644.6 lineto
39305.9 28719.5 lineto
39343.4 28757 lineto
39418.4 28794.5 lineto
stroke
newpath
40018.3 28007.1 moveto
40018.3 28532.1 lineto
stroke
newpath
40018.3 28457.1 moveto
40055.8 28494.6 lineto
40130.8 28532.1 lineto
40243.3 28532.1 lineto
40318.3 28494.6 lineto
40355.8 28419.6 lineto
40355.8 28007.1 lineto
stroke
newpath
40355.8 28419.6 moveto
40393.3 28494.6 lineto
40468.3 28532.1 lineto
40580.8 28532.1 lineto
40655.8 28494.6 lineto
40693.2 28419.6 lineto
40693.2 28007.1 lineto
stroke
newpath
41068.2 28007.1 moveto
41068.2 28532.1 lineto
stroke
newpath
41068.2 28457.1 moveto
41105.7 28494.6 lineto
41180.7 28532.1 lineto
41293.2 28532.1 lineto
41368.2 28494.6 lineto
41405.7 28419.6 lineto
41405.7 28007.1 lineto
stroke
newpath
41405.7 28419.6 moveto
41443.2 28494.6 lineto
41518.1 28532.1 lineto
41630.6 28532.1 lineto
41705.6 28494.6 lineto
41743.1 28419.6 lineto
41743.1 28007.1 lineto
stroke
newpath
43280.4 28832 moveto
42605.5 27819.7 lineto
stroke
newpath
44292.8 28794.5 moveto
44367.8 28794.5 lineto
44442.8 28757 lineto
44480.3 28719.5 lineto
44517.8 28644.6 lineto
44555.3 28494.6 lineto
44555.3 28307.1 lineto
44517.8 28157.1 lineto
44480.3 28082.1 lineto
44442.8 28044.6 lineto
44367.8 28007.1 lineto
44292.8 28007.1 lineto
44217.8 28044.6 lineto
44180.3 28082.1 lineto
44142.8 28157.1 lineto
44105.3 28307.1 lineto
44105.3 28494.6 lineto
44142.8 28644.6 lineto
44180.3 28719.5 lineto
44217.8 28757 lineto
44292.8 28794.5 lineto
stroke
newpath
44892.7 28082.1 moveto
44930.2 28044.6 lineto
44892.7 28007.1 lineto
44855.2 28044.6 lineto
44892.7 28082.1 lineto
44892.7 28007.1 lineto
stroke
newpath
45417.7 28794.5 moveto
45492.6 28794.5 lineto
45567.6 28757 lineto
45605.1 28719.5 lineto
45642.6 28644.6 lineto
45680.1 28494.6 lineto
45680.1 28307.1 lineto
45642.6 28157.1 lineto
45605.1 28082.1 lineto
45567.6 28044.6 lineto
45492.6 28007.1 lineto
45417.7 28007.1 lineto
45342.7 28044.6 lineto
45305.2 28082.1 lineto
45267.7 28157.1 lineto
45230.2 28307.1 lineto
45230.2 28494.6 lineto
45267.7 28644.6 lineto
45305.2 28719.5 lineto
45342.7 28757 lineto
45417.7 28794.5 lineto
stroke
newpath
45942.6 28794.5 moveto
46430 28794.5 lineto
46167.6 28494.6 lineto
46280 28494.6 lineto
46355 28457.1 lineto
46392.5 28419.6 lineto
46430 28344.6 lineto
46430 28157.1 lineto
46392.5 28082.1 lineto
46355 28044.6 lineto
46280 28007.1 lineto
46055.1 28007.1 lineto
45980.1 28044.6 lineto
45942.6 28082.1 lineto
stroke
newpath
46805 28007.1 moveto
46955 28007.1 lineto
47030 28044.6 lineto
47067.4 28082.1 lineto
47142.4 28194.6 lineto
47179.9 28344.6 lineto
47179.9 28644.6 lineto
47142.4 28719.5 lineto
47104.9 28757 lineto
47030 28794.5 lineto
46880 28794.5 lineto
46805 28757 lineto
46767.5 28719.5 lineto
46730 28644.6 lineto
46730 28457.1 lineto
46767.5 28382.1 lineto
46805 28344.6 lineto
46880 28307.1 lineto
47030 28307.1 lineto
47104.9 28344.6 lineto
47142.4 28382.1 lineto
47179.9 28457.1 lineto
stroke
newpath
47854.9 28532.1 moveto
47854.9 28007.1 lineto
stroke
newpath
47667.4 28832 moveto
47479.9 28269.6 lineto
47967.3 28269.6 lineto
stroke
newpath
48229.8 28794.5 moveto
48229.8 28644.6 lineto
stroke
newpath
48529.8 28794.5 moveto
48529.8 28644.6 lineto
stroke
newpath
49692.1 27707.2 moveto
49654.6 27744.7 lineto
49579.6 27857.2 lineto
49542.1 27932.1 lineto
49504.6 28044.6 lineto
49467.1 28232.1 lineto
49467.1 28382.1 lineto
49504.6 28569.6 lineto
49542.1 28682 lineto
49579.6 28757 lineto
49654.6 28869.5 lineto
49692.1 28907 lineto
stroke
newpath
50404.5 28007.1 moveto
49954.6 28007.1 lineto
stroke
newpath
50179.6 28007.1 moveto
50179.6 28794.5 lineto
50104.6 28682 lineto
50029.6 28607.1 lineto
49954.6 28569.6 lineto
stroke
newpath
50667 28794.5 moveto
51154.4 28794.5 lineto
50892 28494.6 lineto
51004.5 28494.6 lineto
51079.4 28457.1 lineto
51116.9 28419.6 lineto
51154.4 28344.6 lineto
51154.4 28157.1 lineto
51116.9 28082.1 lineto
51079.4 28044.6 lineto
51004.5 28007.1 lineto
50779.5 28007.1 lineto
50704.5 28044.6 lineto
50667 28082.1 lineto
stroke
newpath
51454.4 28719.5 moveto
51491.9 28757 lineto
51566.9 28794.5 lineto
51754.4 28794.5 lineto
51829.4 28757 lineto
51866.9 28719.5 lineto
51904.3 28644.6 lineto
51904.3 28569.6 lineto
51866.9 28457.1 lineto
51416.9 28007.1 lineto
51904.3 28007.1 lineto
stroke
newpath
52841.7 28007.1 moveto
52841.7 28794.5 lineto
stroke
newpath
53179.2 28007.1 moveto
53179.2 28419.6 lineto
53141.7 28494.6 lineto
53066.7 28532.1 lineto
52954.2 28532.1 lineto
52879.2 28494.6 lineto
52841.7 28457.1 lineto
stroke
newpath
53666.6 28007.1 moveto
53591.6 28044.6 lineto
53554.1 28082.1 lineto
53516.6 28157.1 lineto
53516.6 28382.1 lineto
53554.1 28457.1 lineto
53591.6 28494.6 lineto
53666.6 28532.1 lineto
53779.1 28532.1 lineto
53854.1 28494.6 lineto
53891.6 28457.1 lineto
53929.1 28382.1 lineto
53929.1 28157.1 lineto
53891.6 28082.1 lineto
53854.1 28044.6 lineto
53779.1 28007.1 lineto
53666.6 28007.1 lineto
stroke
newpath
54379 28007.1 moveto
54304 28044.6 lineto
54266.6 28119.6 lineto
54266.6 28794.5 lineto
stroke
newpath
54979 28044.6 moveto
54904 28007.1 lineto
54754 28007.1 lineto
54679 28044.6 lineto
54641.5 28119.6 lineto
54641.5 28419.6 lineto
54679 28494.6 lineto
54754 28532.1 lineto
54904 28532.1 lineto
54979 28494.6 lineto
55016.5 28419.6 lineto
55016.5 28344.6 lineto
54641.5 28269.6 lineto
stroke
newpath
55316.4 28044.6 moveto
55391.4 28007.1 lineto
55541.4 28007.1 lineto
55616.4 28044.6 lineto
55653.9 28119.6 lineto
55653.9 28157.1 lineto
55616.4 28232.1 lineto
55541.4 28269.6 lineto
55428.9 28269.6 lineto
55353.9 28307.1 lineto
55316.4 28382.1 lineto
55316.4 28419.6 lineto
55353.9 28494.6 lineto
55428.9 28532.1 lineto
55541.4 28532.1 lineto
55616.4 28494.6 lineto
stroke
newpath
55916.3 27707.2 moveto
55953.8 27744.7 lineto
56028.8 27857.2 lineto
56066.3 27932.1 lineto
56103.8 28044.6 lineto
56141.3 28232.1 lineto
56141.3 28382.1 lineto
56103.8 28569.6 lineto
56066.3 28682 lineto
56028.8 28757 lineto
55953.8 28869.5 lineto
55916.3 28907 lineto
stroke
54.6958 setlinewidth
newpath
35082.5 27597.4 moveto
35629.5 27050.5 lineto
stroke
newpath
35629.5 27597.4 moveto
35082.5 27050.5 lineto
stroke
35356 27324 273.479 cir0
91.1597 setlinewidth
78.7401 setlinewidth
0 0 0 setrgbcolor
0 0 0 setrgbcolor
newpath
37056.2 26967.8 moveto
36606.3 26967.8 lineto
stroke
newpath
36831.2 26967.8 moveto
36831.2 27755.2 lineto
36756.2 27642.7 lineto
36681.2 27567.7 lineto
36606.3 27530.2 lineto
stroke
newpath
37393.7 27042.8 moveto
37431.2 27005.3 lineto
37393.7 26967.8 lineto
37356.2 27005.3 lineto
37393.7 27042.8 lineto
37393.7 26967.8 lineto
stroke
newpath
37731.1 27680.2 moveto
37768.6 27717.7 lineto
37843.6 27755.2 lineto
38031.1 27755.2 lineto
38106.1 27717.7 lineto
38143.6 27680.2 lineto
38181.1 27605.2 lineto
38181.1 27530.2 lineto
38143.6 27417.7 lineto
37693.6 26967.8 lineto
38181.1 26967.8 lineto
stroke
newpath
38668.5 27755.2 moveto
38743.5 27755.2 lineto
38818.5 27717.7 lineto
38856 27680.2 lineto
38893.5 27605.2 lineto
38931 27455.2 lineto
38931 27267.7 lineto
38893.5 27117.7 lineto
38856 27042.8 lineto
38818.5 27005.3 lineto
38743.5 26967.8 lineto
38668.5 26967.8 lineto
38593.5 27005.3 lineto
38556 27042.8 lineto
38518.5 27117.7 lineto
38481 27267.7 lineto
38481 27455.2 lineto
38518.5 27605.2 lineto
38556 27680.2 lineto
38593.5 27717.7 lineto
38668.5 27755.2 lineto
stroke
newpath
39418.4 27755.2 moveto
39493.4 27755.2 lineto
39568.4 27717.7 lineto
39605.9 27680.2 lineto
39643.4 27605.2 lineto
39680.9 27455.2 lineto
39680.9 27267.7 lineto
39643.4 27117.7 lineto
39605.9 27042.8 lineto
39568.4 27005.3 lineto
39493.4 26967.8 lineto
39418.4 26967.8 lineto
39343.4 27005.3 lineto
39305.9 27042.8 lineto
39268.4 27117.7 lineto
39230.9 27267.7 lineto
39230.9 27455.2 lineto
39268.4 27605.2 lineto
39305.9 27680.2 lineto
39343.4 27717.7 lineto
39418.4 27755.2 lineto
stroke
newpath
40018.3 26967.8 moveto
40018.3 27492.7 lineto
stroke
newpath
40018.3 27417.7 moveto
40055.8 27455.2 lineto
40130.8 27492.7 lineto
40243.3 27492.7 lineto
40318.3 27455.2 lineto
40355.8 27380.2 lineto
40355.8 26967.8 lineto
stroke
newpath
40355.8 27380.2 moveto
40393.3 27455.2 lineto
40468.3 27492.7 lineto
40580.8 27492.7 lineto
40655.8 27455.2 lineto
40693.2 27380.2 lineto
40693.2 26967.8 lineto
stroke
newpath
41068.2 26967.8 moveto
41068.2 27492.7 lineto
stroke
newpath
41068.2 27417.7 moveto
41105.7 27455.2 lineto
41180.7 27492.7 lineto
41293.2 27492.7 lineto
41368.2 27455.2 lineto
41405.7 27380.2 lineto
41405.7 26967.8 lineto
stroke
newpath
41405.7 27380.2 moveto
41443.2 27455.2 lineto
41518.1 27492.7 lineto
41630.6 27492.7 lineto
41705.6 27455.2 lineto
41743.1 27380.2 lineto
41743.1 26967.8 lineto
stroke
newpath
43280.4 27792.7 moveto
42605.5 26780.3 lineto
stroke
newpath
44292.8 27755.2 moveto
44367.8 27755.2 lineto
44442.8 27717.7 lineto
44480.3 27680.2 lineto
44517.8 27605.2 lineto
44555.3 27455.2 lineto
44555.3 27267.7 lineto
44517.8 27117.7 lineto
44480.3 27042.8 lineto
44442.8 27005.3 lineto
44367.8 26967.8 lineto
44292.8 26967.8 lineto
44217.8 27005.3 lineto
44180.3 27042.8 lineto
44142.8 27117.7 lineto
44105.3 27267.7 lineto
44105.3 27455.2 lineto
44142.8 27605.2 lineto
44180.3 27680.2 lineto
44217.8 27717.7 lineto
44292.8 27755.2 lineto
stroke
newpath
44892.7 27042.8 moveto
44930.2 27005.3 lineto
44892.7 26967.8 lineto
44855.2 27005.3 lineto
44892.7 27042.8 lineto
44892.7 26967.8 lineto
stroke
newpath
45417.7 27755.2 moveto
45492.6 27755.2 lineto
45567.6 27717.7 lineto
45605.1 27680.2 lineto
45642.6 27605.2 lineto
45680.1 27455.2 lineto
45680.1 27267.7 lineto
45642.6 27117.7 lineto
45605.1 27042.8 lineto
45567.6 27005.3 lineto
45492.6 26967.8 lineto
45417.7 26967.8 lineto
45342.7 27005.3 lineto
45305.2 27042.8 lineto
45267.7 27117.7 lineto
45230.2 27267.7 lineto
45230.2 27455.2 lineto
45267.7 27605.2 lineto
45305.2 27680.2 lineto
45342.7 27717.7 lineto
45417.7 27755.2 lineto
stroke
newpath
46355 27492.7 moveto
46355 26967.8 lineto
stroke
newpath
46167.6 27792.7 moveto
45980.1 27230.2 lineto
46467.5 27230.2 lineto
stroke
newpath
46692.5 27755.2 moveto
47217.4 27755.2 lineto
46880 26967.8 lineto
stroke
newpath
47479.9 27680.2 moveto
47517.4 27717.7 lineto
47592.4 27755.2 lineto
47779.9 27755.2 lineto
47854.9 27717.7 lineto
47892.3 27680.2 lineto
47929.8 27605.2 lineto
47929.8 27530.2 lineto
47892.3 27417.7 lineto
47442.4 26967.8 lineto
47929.8 26967.8 lineto
stroke
newpath
48229.8 27755.2 moveto
48229.8 27605.2 lineto
stroke
newpath
48529.8 27755.2 moveto
48529.8 27605.2 lineto
stroke
newpath
49692.1 26667.8 moveto
49654.6 26705.3 lineto
49579.6 26817.8 lineto
49542.1 26892.8 lineto
49504.6 27005.3 lineto
49467.1 27192.7 lineto
49467.1 27342.7 lineto
49504.6 27530.2 lineto
49542.1 27642.7 lineto
49579.6 27717.7 lineto
49654.6 27830.2 lineto
49692.1 27867.7 lineto
stroke
newpath
50404.5 26967.8 moveto
49954.6 26967.8 lineto
stroke
newpath
50179.6 26967.8 moveto
50179.6 27755.2 lineto
50104.6 27642.7 lineto
50029.6 27567.7 lineto
49954.6 27530.2 lineto
stroke
newpath
51079.4 27492.7 moveto
51079.4 26967.8 lineto
stroke
newpath
50892 27792.7 moveto
50704.5 27230.2 lineto
51191.9 27230.2 lineto
stroke
newpath
52091.8 26967.8 moveto
52091.8 27755.2 lineto
stroke
newpath
52429.3 26967.8 moveto
52429.3 27380.2 lineto
52391.8 27455.2 lineto
52316.8 27492.7 lineto
52204.3 27492.7 lineto
52129.3 27455.2 lineto
52091.8 27417.7 lineto
stroke
newpath
52916.7 26967.8 moveto
52841.7 27005.3 lineto
52804.2 27042.8 lineto
52766.7 27117.7 lineto
52766.7 27342.7 lineto
52804.2 27417.7 lineto
52841.7 27455.2 lineto
52916.7 27492.7 lineto
53029.2 27492.7 lineto
53104.2 27455.2 lineto
53141.7 27417.7 lineto
53179.2 27342.7 lineto
53179.2 27117.7 lineto
53141.7 27042.8 lineto
53104.2 27005.3 lineto
53029.2 26967.8 lineto
52916.7 26967.8 lineto
stroke
newpath
53629.1 26967.8 moveto
53554.1 27005.3 lineto
53516.6 27080.2 lineto
53516.6 27755.2 lineto
stroke
newpath
54229.1 27005.3 moveto
54154.1 26967.8 lineto
54004.1 26967.8 lineto
53929.1 27005.3 lineto
53891.6 27080.2 lineto
53891.6 27380.2 lineto
53929.1 27455.2 lineto
54004.1 27492.7 lineto
54154.1 27492.7 lineto
54229.1 27455.2 lineto
54266.6 27380.2 lineto
54266.6 27305.2 lineto
53891.6 27230.2 lineto
stroke
newpath
54566.5 27005.3 moveto
54641.5 26967.8 lineto
54791.5 26967.8 lineto
54866.5 27005.3 lineto
54904 27080.2 lineto
54904 27117.7 lineto
54866.5 27192.7 lineto
54791.5 27230.2 lineto
54679 27230.2 lineto
54604 27267.7 lineto
54566.5 27342.7 lineto
54566.5 27380.2 lineto
54604 27455.2 lineto
54679 27492.7 lineto
54791.5 27492.7 lineto
54866.5 27455.2 lineto
stroke
newpath
55166.4 26667.8 moveto
55203.9 26705.3 lineto
55278.9 26817.8 lineto
55316.4 26892.8 lineto
55353.9 27005.3 lineto
55391.4 27192.7 lineto
55391.4 27342.7 lineto
55353.9 27530.2 lineto
55316.4 27642.7 lineto
55278.9 27717.7 lineto
55203.9 27830.2 lineto
55166.4 27867.7 lineto
stroke
showpage
grestore
%%EOF
