%!PS-Adobe-3.0
%%Creator: PCBNEW
%%CreationDate: Sun Mar 20 15:54:16 2022
%%Title: ()
%%Pages: 1
%%PageOrder: Ascend
%%BoundingBox: 0 0 596 842
%%DocumentMedia: A4 595 842 0 () ()
%%Orientation: Landscape
%%EndComments
%%BeginProlog
/line { newpath moveto lineto stroke } bind def
/cir0 { newpath 0 360 arc stroke } bind def
/cir1 { newpath 0 360 arc gsave fill grestore stroke } bind def
/cir2 { newpath 0 360 arc gsave fill grestore stroke } bind def
/arc0 { newpath arc stroke } bind def
/arc1 { newpath 4 index 4 index moveto arc closepath gsave fill
    grestore stroke } bind def
/arc2 { newpath 4 index 4 index moveto arc closepath gsave fill
    grestore stroke } bind def
/poly0 { stroke } bind def
/poly1 { closepath gsave fill grestore stroke } bind def
/poly2 { closepath gsave fill grestore stroke } bind def
/rect0 { rectstroke } bind def
/rect1 { rectfill } bind def
/rect2 { rectfill } bind def
/linemode0 { 0 setlinecap 0 setlinejoin 0 setlinewidth } bind def
/linemode1 { 1 setlinecap 1 setlinejoin } bind def
/dashedline { [200] 100 setdash } bind def
/solidline { [] 0 setdash } bind def
/phantomshow { moveto
    /KicadFont findfont 0.000001 scalefont setfont
    show } bind def
/textshow { gsave
    findfont exch scalefont setfont concat 1 scale 0 0 moveto show
    } bind def
/reencodefont {
  findfont dup length dict begin
  { 1 index /FID ne
    { def }
    { pop pop } ifelse
  } forall
  /Encoding ISOLatin1Encoding def
  currentdict
  end } bind def
/KicadFont /Helvetica reencodefont definefont pop
/KicadFont-Bold /Helvetica-Bold reencodefont definefont pop
/KicadFont-Oblique /Helvetica-Oblique reencodefont definefont pop
/KicadFont-BoldOblique /Helvetica-BoldOblique reencodefont definefont pop
%%EndProlog
%%Page: 1 1
%%BeginPageSetup
gsave
0.0072 0.0072 scale
linemode1
82680 0 translate 90 rotate
91.1597 setlinewidth
%%EndPageSetup
0 0 0 setrgbcolor
91.1597 setlinewidth
newpath
35675.1 80665.9 moveto
81254.9 80665.9 lineto
stroke
newpath
81254.9 80665.9 moveto
81254.9 35086.1 lineto
stroke
newpath
81254.9 35086.1 moveto
35675.1 35086.1 lineto
stroke
newpath
35675.1 35086.1 moveto
35675.1 80665.9 lineto
stroke
108.936 setlinewidth
newpath
73006.3 72238.7 moveto
74095.7 71149.3 lineto
stroke
newpath
74095.7 72238.7 moveto
73006.3 71149.3 lineto
stroke
157.25 setlinewidth
44594.1 71694 786.252 cir0
69754.2 78986.8 786.252 cir0
91.1597 setlinewidth
78.7401 setlinewidth
0 0 0 setrgbcolor
0 0 0 setrgbcolor
newpath
36643.8 33818.2 moveto
36643.8 34605.6 lineto
36831.2 34605.6 lineto
36943.7 34568.1 lineto
37018.7 34493.1 lineto
37056.2 34418.1 lineto
37093.7 34268.1 lineto
37093.7 34155.6 lineto
37056.2 34005.6 lineto
37018.7 33930.6 lineto
36943.7 33855.7 lineto
36831.2 33818.2 lineto
36643.8 33818.2 lineto
stroke
newpath
37431.2 33818.2 moveto
37431.2 34343.1 lineto
stroke
newpath
37431.2 34193.1 moveto
37468.6 34268.1 lineto
37506.1 34305.6 lineto
37581.1 34343.1 lineto
37656.1 34343.1 lineto
stroke
newpath
37918.6 33818.2 moveto
37918.6 34343.1 lineto
stroke
newpath
37918.6 34605.6 moveto
37881.1 34568.1 lineto
37918.6 34530.6 lineto
37956.1 34568.1 lineto
37918.6 34605.6 lineto
37918.6 34530.6 lineto
stroke
newpath
38406 33818.2 moveto
38331 33855.7 lineto
38293.5 33930.6 lineto
38293.5 34605.6 lineto
stroke
newpath
38818.5 33818.2 moveto
38743.5 33855.7 lineto
38706 33930.6 lineto
38706 34605.6 lineto
stroke
newpath
39718.4 33818.2 moveto
39718.4 34605.6 lineto
39980.8 34043.1 lineto
40243.3 34605.6 lineto
40243.3 33818.2 lineto
stroke
newpath
40955.7 33818.2 moveto
40955.7 34230.6 lineto
40918.2 34305.6 lineto
40843.2 34343.1 lineto
40693.2 34343.1 lineto
40618.3 34305.6 lineto
stroke
newpath
40955.7 33855.7 moveto
40880.7 33818.2 lineto
40693.2 33818.2 lineto
40618.3 33855.7 lineto
40580.8 33930.6 lineto
40580.8 34005.6 lineto
40618.3 34080.6 lineto
40693.2 34118.1 lineto
40880.7 34118.1 lineto
40955.7 34155.6 lineto
stroke
newpath
41330.7 34343.1 moveto
41330.7 33555.7 lineto
stroke
newpath
41330.7 34305.6 moveto
41405.7 34343.1 lineto
41555.6 34343.1 lineto
41630.6 34305.6 lineto
41668.1 34268.1 lineto
41705.6 34193.1 lineto
41705.6 33968.1 lineto
41668.1 33893.1 lineto
41630.6 33855.7 lineto
41555.6 33818.2 lineto
41405.7 33818.2 lineto
41330.7 33855.7 lineto
stroke
newpath
42043.1 33893.1 moveto
42080.6 33855.7 lineto
42043.1 33818.2 lineto
42005.6 33855.7 lineto
42043.1 33893.1 lineto
42043.1 33818.2 lineto
stroke
newpath
42043.1 34305.6 moveto
42080.6 34268.1 lineto
42043.1 34230.6 lineto
42005.6 34268.1 lineto
42043.1 34305.6 lineto
42043.1 34230.6 lineto
stroke
newpath
34842.1 32914.5 moveto
35629.5 32127.1 lineto
stroke
newpath
35629.5 32914.5 moveto
34842.1 32127.1 lineto
stroke
91.1597 setlinewidth
78.7401 setlinewidth
0 0 0 setrgbcolor
0 0 0 setrgbcolor
newpath
36606.3 32877 moveto
36643.8 32914.5 lineto
36718.7 32952 lineto
36906.2 32952 lineto
36981.2 32914.5 lineto
37018.7 32877 lineto
37056.2 32802 lineto
37056.2 32727 lineto
37018.7 32614.6 lineto
36568.8 32164.6 lineto
37056.2 32164.6 lineto
stroke
newpath
37393.7 32239.6 moveto
37431.2 32202.1 lineto
37393.7 32164.6 lineto
37356.2 32202.1 lineto
37393.7 32239.6 lineto
37393.7 32164.6 lineto
stroke
newpath
37693.6 32952 moveto
38181.1 32952 lineto
37918.6 32652.1 lineto
38031.1 32652.1 lineto
38106.1 32614.6 lineto
38143.6 32577.1 lineto
38181.1 32502.1 lineto
38181.1 32314.6 lineto
38143.6 32239.6 lineto
38106.1 32202.1 lineto
38031.1 32164.6 lineto
37806.1 32164.6 lineto
37731.1 32202.1 lineto
37693.6 32239.6 lineto
stroke
newpath
38556 32164.6 moveto
38706 32164.6 lineto
38781 32202.1 lineto
38818.5 32239.6 lineto
38893.5 32352.1 lineto
38931 32502.1 lineto
38931 32802 lineto
38893.5 32877 lineto
38856 32914.5 lineto
38781 32952 lineto
38631 32952 lineto
38556 32914.5 lineto
38518.5 32877 lineto
38481 32802 lineto
38481 32614.6 lineto
38518.5 32539.6 lineto
38556 32502.1 lineto
38631 32464.6 lineto
38781 32464.6 lineto
38856 32502.1 lineto
38893.5 32539.6 lineto
38931 32614.6 lineto
stroke
newpath
39418.4 32952 moveto
39493.4 32952 lineto
39568.4 32914.5 lineto
39605.9 32877 lineto
39643.4 32802 lineto
39680.9 32652.1 lineto
39680.9 32464.6 lineto
39643.4 32314.6 lineto
39605.9 32239.6 lineto
39568.4 32202.1 lineto
39493.4 32164.6 lineto
39418.4 32164.6 lineto
39343.4 32202.1 lineto
39305.9 32239.6 lineto
39268.4 32314.6 lineto
39230.9 32464.6 lineto
39230.9 32652.1 lineto
39268.4 32802 lineto
39305.9 32877 lineto
39343.4 32914.5 lineto
39418.4 32952 lineto
stroke
newpath
40018.3 32164.6 moveto
40018.3 32689.5 lineto
stroke
newpath
40018.3 32614.6 moveto
40055.8 32652.1 lineto
40130.8 32689.5 lineto
40243.3 32689.5 lineto
40318.3 32652.1 lineto
40355.8 32577.1 lineto
40355.8 32164.6 lineto
stroke
newpath
40355.8 32577.1 moveto
40393.3 32652.1 lineto
40468.3 32689.5 lineto
40580.8 32689.5 lineto
40655.8 32652.1 lineto
40693.2 32577.1 lineto
40693.2 32164.6 lineto
stroke
newpath
41068.2 32164.6 moveto
41068.2 32689.5 lineto
stroke
newpath
41068.2 32614.6 moveto
41105.7 32652.1 lineto
41180.7 32689.5 lineto
41293.2 32689.5 lineto
41368.2 32652.1 lineto
41405.7 32577.1 lineto
41405.7 32164.6 lineto
stroke
newpath
41405.7 32577.1 moveto
41443.2 32652.1 lineto
41518.1 32689.5 lineto
41630.6 32689.5 lineto
41705.6 32652.1 lineto
41743.1 32577.1 lineto
41743.1 32164.6 lineto
stroke
newpath
43280.4 32989.5 moveto
42605.5 31977.1 lineto
stroke
newpath
44292.8 32952 moveto
44367.8 32952 lineto
44442.8 32914.5 lineto
44480.3 32877 lineto
44517.8 32802 lineto
44555.3 32652.1 lineto
44555.3 32464.6 lineto
44517.8 32314.6 lineto
44480.3 32239.6 lineto
44442.8 32202.1 lineto
44367.8 32164.6 lineto
44292.8 32164.6 lineto
44217.8 32202.1 lineto
44180.3 32239.6 lineto
44142.8 32314.6 lineto
44105.3 32464.6 lineto
44105.3 32652.1 lineto
44142.8 32802 lineto
44180.3 32877 lineto
44217.8 32914.5 lineto
44292.8 32952 lineto
stroke
newpath
44892.7 32239.6 moveto
44930.2 32202.1 lineto
44892.7 32164.6 lineto
44855.2 32202.1 lineto
44892.7 32239.6 lineto
44892.7 32164.6 lineto
stroke
newpath
45417.7 32952 moveto
45492.6 32952 lineto
45567.6 32914.5 lineto
45605.1 32877 lineto
45642.6 32802 lineto
45680.1 32652.1 lineto
45680.1 32464.6 lineto
45642.6 32314.6 lineto
45605.1 32239.6 lineto
45567.6 32202.1 lineto
45492.6 32164.6 lineto
45417.7 32164.6 lineto
45342.7 32202.1 lineto
45305.2 32239.6 lineto
45267.7 32314.6 lineto
45230.2 32464.6 lineto
45230.2 32652.1 lineto
45267.7 32802 lineto
45305.2 32877 lineto
45342.7 32914.5 lineto
45417.7 32952 lineto
stroke
newpath
46055.1 32164.6 moveto
46205.1 32164.6 lineto
46280 32202.1 lineto
46317.5 32239.6 lineto
46392.5 32352.1 lineto
46430 32502.1 lineto
46430 32802 lineto
46392.5 32877 lineto
46355 32914.5 lineto
46280 32952 lineto
46130.1 32952 lineto
46055.1 32914.5 lineto
46017.6 32877 lineto
45980.1 32802 lineto
45980.1 32614.6 lineto
46017.6 32539.6 lineto
46055.1 32502.1 lineto
46130.1 32464.6 lineto
46280 32464.6 lineto
46355 32502.1 lineto
46392.5 32539.6 lineto
46430 32614.6 lineto
stroke
newpath
47104.9 32689.5 moveto
47104.9 32164.6 lineto
stroke
newpath
46917.5 32989.5 moveto
46730 32427.1 lineto
47217.4 32427.1 lineto
stroke
newpath
47929.8 32164.6 moveto
47479.9 32164.6 lineto
stroke
newpath
47704.9 32164.6 moveto
47704.9 32952 lineto
47629.9 32839.5 lineto
47554.9 32764.5 lineto
47479.9 32727 lineto
stroke
newpath
48229.8 32952 moveto
48229.8 32802 lineto
stroke
newpath
48529.8 32952 moveto
48529.8 32802 lineto
stroke
newpath
49692.1 31864.7 moveto
49654.6 31902.1 lineto
49579.6 32014.6 lineto
49542.1 32089.6 lineto
49504.6 32202.1 lineto
49467.1 32389.6 lineto
49467.1 32539.6 lineto
49504.6 32727 lineto
49542.1 32839.5 lineto
49579.6 32914.5 lineto
49654.6 33027 lineto
49692.1 33064.5 lineto
stroke
newpath
50404.5 32164.6 moveto
49954.6 32164.6 lineto
stroke
newpath
50179.6 32164.6 moveto
50179.6 32952 lineto
50104.6 32839.5 lineto
50029.6 32764.5 lineto
49954.6 32727 lineto
stroke
newpath
51341.9 32164.6 moveto
51341.9 32952 lineto
stroke
newpath
51679.4 32164.6 moveto
51679.4 32577.1 lineto
51641.9 32652.1 lineto
51566.9 32689.5 lineto
51454.4 32689.5 lineto
51379.4 32652.1 lineto
51341.9 32614.6 lineto
stroke
newpath
52166.8 32164.6 moveto
52091.8 32202.1 lineto
52054.3 32239.6 lineto
52016.8 32314.6 lineto
52016.8 32539.6 lineto
52054.3 32614.6 lineto
52091.8 32652.1 lineto
52166.8 32689.5 lineto
52279.3 32689.5 lineto
52354.3 32652.1 lineto
52391.8 32614.6 lineto
52429.3 32539.6 lineto
52429.3 32314.6 lineto
52391.8 32239.6 lineto
52354.3 32202.1 lineto
52279.3 32164.6 lineto
52166.8 32164.6 lineto
stroke
newpath
52879.2 32164.6 moveto
52804.2 32202.1 lineto
52766.7 32277.1 lineto
52766.7 32952 lineto
stroke
newpath
53479.1 32202.1 moveto
53404.2 32164.6 lineto
53254.2 32164.6 lineto
53179.2 32202.1 lineto
53141.7 32277.1 lineto
53141.7 32577.1 lineto
53179.2 32652.1 lineto
53254.2 32689.5 lineto
53404.2 32689.5 lineto
53479.1 32652.1 lineto
53516.6 32577.1 lineto
53516.6 32502.1 lineto
53141.7 32427.1 lineto
stroke
newpath
53779.1 31864.7 moveto
53816.6 31902.1 lineto
53891.6 32014.6 lineto
53929.1 32089.6 lineto
53966.6 32202.1 lineto
54004.1 32389.6 lineto
54004.1 32539.6 lineto
53966.6 32727 lineto
53929.1 32839.5 lineto
53891.6 32914.5 lineto
53816.6 33027 lineto
53779.1 33064.5 lineto
stroke
newpath
55203.9 31864.7 moveto
55166.4 31902.1 lineto
55091.4 32014.6 lineto
55054 32089.6 lineto
55016.5 32202.1 lineto
54979 32389.6 lineto
54979 32539.6 lineto
55016.5 32727 lineto
55054 32839.5 lineto
55091.4 32914.5 lineto
55166.4 33027 lineto
55203.9 33064.5 lineto
stroke
newpath
55503.9 32689.5 moveto
55503.9 32164.6 lineto
stroke
newpath
55503.9 32614.6 moveto
55541.4 32652.1 lineto
55616.4 32689.5 lineto
55728.9 32689.5 lineto
55803.9 32652.1 lineto
55841.4 32577.1 lineto
55841.4 32164.6 lineto
stroke
newpath
56328.8 32164.6 moveto
56253.8 32202.1 lineto
56216.3 32239.6 lineto
56178.8 32314.6 lineto
56178.8 32539.6 lineto
56216.3 32614.6 lineto
56253.8 32652.1 lineto
56328.8 32689.5 lineto
56441.3 32689.5 lineto
56516.3 32652.1 lineto
56553.8 32614.6 lineto
56591.3 32539.6 lineto
56591.3 32314.6 lineto
56553.8 32239.6 lineto
56516.3 32202.1 lineto
56441.3 32164.6 lineto
56328.8 32164.6 lineto
stroke
newpath
56816.2 32689.5 moveto
57116.2 32689.5 lineto
stroke
newpath
56928.7 32952 moveto
56928.7 32277.1 lineto
56966.2 32202.1 lineto
57041.2 32164.6 lineto
57116.2 32164.6 lineto
stroke
newpath
57978.6 32689.5 moveto
57978.6 31902.1 lineto
stroke
newpath
57978.6 32652.1 moveto
58053.6 32689.5 lineto
58203.6 32689.5 lineto
58278.5 32652.1 lineto
58316 32614.6 lineto
58353.5 32539.6 lineto
58353.5 32314.6 lineto
58316 32239.6 lineto
58278.5 32202.1 lineto
58203.6 32164.6 lineto
58053.6 32164.6 lineto
57978.6 32202.1 lineto
stroke
newpath
58803.5 32164.6 moveto
58728.5 32202.1 lineto
58691 32277.1 lineto
58691 32952 lineto
stroke
newpath
59440.9 32164.6 moveto
59440.9 32577.1 lineto
59403.4 32652.1 lineto
59328.4 32689.5 lineto
59178.4 32689.5 lineto
59103.4 32652.1 lineto
stroke
newpath
59440.9 32202.1 moveto
59365.9 32164.6 lineto
59178.4 32164.6 lineto
59103.4 32202.1 lineto
59066 32277.1 lineto
59066 32352.1 lineto
59103.4 32427.1 lineto
59178.4 32464.6 lineto
59365.9 32464.6 lineto
59440.9 32502.1 lineto
stroke
newpath
59703.4 32689.5 moveto
60003.3 32689.5 lineto
stroke
newpath
59815.9 32952 moveto
59815.9 32277.1 lineto
59853.4 32202.1 lineto
59928.3 32164.6 lineto
60003.3 32164.6 lineto
stroke
newpath
60565.8 32202.1 moveto
60490.8 32164.6 lineto
60340.8 32164.6 lineto
60265.8 32202.1 lineto
60228.3 32277.1 lineto
60228.3 32577.1 lineto
60265.8 32652.1 lineto
60340.8 32689.5 lineto
60490.8 32689.5 lineto
60565.8 32652.1 lineto
60603.3 32577.1 lineto
60603.3 32502.1 lineto
60228.3 32427.1 lineto
stroke
newpath
61278.2 32164.6 moveto
61278.2 32952 lineto
stroke
newpath
61278.2 32202.1 moveto
61203.2 32164.6 lineto
61053.2 32164.6 lineto
60978.2 32202.1 lineto
60940.7 32239.6 lineto
60903.2 32314.6 lineto
60903.2 32539.6 lineto
60940.7 32614.6 lineto
60978.2 32652.1 lineto
61053.2 32689.5 lineto
61203.2 32689.5 lineto
61278.2 32652.1 lineto
stroke
newpath
61578.1 31864.7 moveto
61615.6 31902.1 lineto
61690.6 32014.6 lineto
61728.1 32089.6 lineto
61765.6 32202.1 lineto
61803.1 32389.6 lineto
61803.1 32539.6 lineto
61765.6 32727 lineto
61728.1 32839.5 lineto
61690.6 32914.5 lineto
61615.6 33027 lineto
61578.1 33064.5 lineto
stroke
35235.8 31261 393.701 cir0
91.1597 setlinewidth
78.7401 setlinewidth
0 0 0 setrgbcolor
0 0 0 setrgbcolor
newpath
36568.8 31692.2 moveto
37056.2 31692.2 lineto
36793.7 31392.2 lineto
36906.2 31392.2 lineto
36981.2 31354.7 lineto
37018.7 31317.2 lineto
37056.2 31242.2 lineto
37056.2 31054.8 lineto
37018.7 30979.8 lineto
36981.2 30942.3 lineto
36906.2 30904.8 lineto
36681.2 30904.8 lineto
36606.3 30942.3 lineto
36568.8 30979.8 lineto
stroke
newpath
37393.7 30979.8 moveto
37431.2 30942.3 lineto
37393.7 30904.8 lineto
37356.2 30942.3 lineto
37393.7 30979.8 lineto
37393.7 30904.8 lineto
stroke
newpath
38106.1 31429.7 moveto
38106.1 30904.8 lineto
stroke
newpath
37918.6 31729.7 moveto
37731.1 31167.2 lineto
38218.6 31167.2 lineto
stroke
newpath
38893.5 31692.2 moveto
38518.5 31692.2 lineto
38481 31317.2 lineto
38518.5 31354.7 lineto
38593.5 31392.2 lineto
38781 31392.2 lineto
38856 31354.7 lineto
38893.5 31317.2 lineto
38931 31242.2 lineto
38931 31054.8 lineto
38893.5 30979.8 lineto
38856 30942.3 lineto
38781 30904.8 lineto
38593.5 30904.8 lineto
38518.5 30942.3 lineto
38481 30979.8 lineto
stroke
newpath
39418.4 31692.2 moveto
39493.4 31692.2 lineto
39568.4 31654.7 lineto
39605.9 31617.2 lineto
39643.4 31542.2 lineto
39680.9 31392.2 lineto
39680.9 31204.7 lineto
39643.4 31054.8 lineto
39605.9 30979.8 lineto
39568.4 30942.3 lineto
39493.4 30904.8 lineto
39418.4 30904.8 lineto
39343.4 30942.3 lineto
39305.9 30979.8 lineto
39268.4 31054.8 lineto
39230.9 31204.7 lineto
39230.9 31392.2 lineto
39268.4 31542.2 lineto
39305.9 31617.2 lineto
39343.4 31654.7 lineto
39418.4 31692.2 lineto
stroke
newpath
40018.3 30904.8 moveto
40018.3 31429.7 lineto
stroke
newpath
40018.3 31354.7 moveto
40055.8 31392.2 lineto
40130.8 31429.7 lineto
40243.3 31429.7 lineto
40318.3 31392.2 lineto
40355.8 31317.2 lineto
40355.8 30904.8 lineto
stroke
newpath
40355.8 31317.2 moveto
40393.3 31392.2 lineto
40468.3 31429.7 lineto
40580.8 31429.7 lineto
40655.8 31392.2 lineto
40693.2 31317.2 lineto
40693.2 30904.8 lineto
stroke
newpath
41068.2 30904.8 moveto
41068.2 31429.7 lineto
stroke
newpath
41068.2 31354.7 moveto
41105.7 31392.2 lineto
41180.7 31429.7 lineto
41293.2 31429.7 lineto
41368.2 31392.2 lineto
41405.7 31317.2 lineto
41405.7 30904.8 lineto
stroke
newpath
41405.7 31317.2 moveto
41443.2 31392.2 lineto
41518.1 31429.7 lineto
41630.6 31429.7 lineto
41705.6 31392.2 lineto
41743.1 31317.2 lineto
41743.1 30904.8 lineto
stroke
newpath
43280.4 31729.7 moveto
42605.5 30717.3 lineto
stroke
newpath
44292.8 31692.2 moveto
44367.8 31692.2 lineto
44442.8 31654.7 lineto
44480.3 31617.2 lineto
44517.8 31542.2 lineto
44555.3 31392.2 lineto
44555.3 31204.7 lineto
44517.8 31054.8 lineto
44480.3 30979.8 lineto
44442.8 30942.3 lineto
44367.8 30904.8 lineto
44292.8 30904.8 lineto
44217.8 30942.3 lineto
44180.3 30979.8 lineto
44142.8 31054.8 lineto
44105.3 31204.7 lineto
44105.3 31392.2 lineto
44142.8 31542.2 lineto
44180.3 31617.2 lineto
44217.8 31654.7 lineto
44292.8 31692.2 lineto
stroke
newpath
44892.7 30979.8 moveto
44930.2 30942.3 lineto
44892.7 30904.8 lineto
44855.2 30942.3 lineto
44892.7 30979.8 lineto
44892.7 30904.8 lineto
stroke
newpath
45680.1 30904.8 moveto
45230.2 30904.8 lineto
stroke
newpath
45455.2 30904.8 moveto
45455.2 31692.2 lineto
45380.2 31579.7 lineto
45305.2 31504.7 lineto
45230.2 31467.2 lineto
stroke
newpath
45942.6 31692.2 moveto
46430 31692.2 lineto
46167.6 31392.2 lineto
46280 31392.2 lineto
46355 31354.7 lineto
46392.5 31317.2 lineto
46430 31242.2 lineto
46430 31054.8 lineto
46392.5 30979.8 lineto
46355 30942.3 lineto
46280 30904.8 lineto
46055.1 30904.8 lineto
45980.1 30942.3 lineto
45942.6 30979.8 lineto
stroke
newpath
47142.4 31692.2 moveto
46767.5 31692.2 lineto
46730 31317.2 lineto
46767.5 31354.7 lineto
46842.5 31392.2 lineto
47030 31392.2 lineto
47104.9 31354.7 lineto
47142.4 31317.2 lineto
47179.9 31242.2 lineto
47179.9 31054.8 lineto
47142.4 30979.8 lineto
47104.9 30942.3 lineto
47030 30904.8 lineto
46842.5 30904.8 lineto
46767.5 30942.3 lineto
46730 30979.8 lineto
stroke
newpath
47629.9 31354.7 moveto
47554.9 31392.2 lineto
47517.4 31429.7 lineto
47479.9 31504.7 lineto
47479.9 31542.2 lineto
47517.4 31617.2 lineto
47554.9 31654.7 lineto
47629.9 31692.2 lineto
47779.9 31692.2 lineto
47854.9 31654.7 lineto
47892.3 31617.2 lineto
47929.8 31542.2 lineto
47929.8 31504.7 lineto
47892.3 31429.7 lineto
47854.9 31392.2 lineto
47779.9 31354.7 lineto
47629.9 31354.7 lineto
47554.9 31317.2 lineto
47517.4 31279.7 lineto
47479.9 31204.7 lineto
47479.9 31054.8 lineto
47517.4 30979.8 lineto
47554.9 30942.3 lineto
47629.9 30904.8 lineto
47779.9 30904.8 lineto
47854.9 30942.3 lineto
47892.3 30979.8 lineto
47929.8 31054.8 lineto
47929.8 31204.7 lineto
47892.3 31279.7 lineto
47854.9 31317.2 lineto
47779.9 31354.7 lineto
stroke
newpath
48229.8 31692.2 moveto
48229.8 31542.2 lineto
stroke
newpath
48529.8 31692.2 moveto
48529.8 31542.2 lineto
stroke
newpath
49692.1 30604.8 moveto
49654.6 30642.3 lineto
49579.6 30754.8 lineto
49542.1 30829.8 lineto
49504.6 30942.3 lineto
49467.1 31129.7 lineto
49467.1 31279.7 lineto
49504.6 31467.2 lineto
49542.1 31579.7 lineto
49579.6 31654.7 lineto
49654.6 31767.2 lineto
49692.1 31804.7 lineto
stroke
newpath
49954.6 31617.2 moveto
49992.1 31654.7 lineto
50067.1 31692.2 lineto
50254.6 31692.2 lineto
50329.5 31654.7 lineto
50367 31617.2 lineto
50404.5 31542.2 lineto
50404.5 31467.2 lineto
50367 31354.7 lineto
49917.1 30904.8 lineto
50404.5 30904.8 lineto
stroke
newpath
51341.9 30904.8 moveto
51341.9 31692.2 lineto
stroke
newpath
51679.4 30904.8 moveto
51679.4 31317.2 lineto
51641.9 31392.2 lineto
51566.9 31429.7 lineto
51454.4 31429.7 lineto
51379.4 31392.2 lineto
51341.9 31354.7 lineto
stroke
newpath
52166.8 30904.8 moveto
52091.8 30942.3 lineto
52054.3 30979.8 lineto
52016.8 31054.8 lineto
52016.8 31279.7 lineto
52054.3 31354.7 lineto
52091.8 31392.2 lineto
52166.8 31429.7 lineto
52279.3 31429.7 lineto
52354.3 31392.2 lineto
52391.8 31354.7 lineto
52429.3 31279.7 lineto
52429.3 31054.8 lineto
52391.8 30979.8 lineto
52354.3 30942.3 lineto
52279.3 30904.8 lineto
52166.8 30904.8 lineto
stroke
newpath
52879.2 30904.8 moveto
52804.2 30942.3 lineto
52766.7 31017.3 lineto
52766.7 31692.2 lineto
stroke
newpath
53479.1 30942.3 moveto
53404.2 30904.8 lineto
53254.2 30904.8 lineto
53179.2 30942.3 lineto
53141.7 31017.3 lineto
53141.7 31317.2 lineto
53179.2 31392.2 lineto
53254.2 31429.7 lineto
53404.2 31429.7 lineto
53479.1 31392.2 lineto
53516.6 31317.2 lineto
53516.6 31242.2 lineto
53141.7 31167.2 lineto
stroke
newpath
53816.6 30942.3 moveto
53891.6 30904.8 lineto
54041.6 30904.8 lineto
54116.6 30942.3 lineto
54154.1 31017.3 lineto
54154.1 31054.8 lineto
54116.6 31129.7 lineto
54041.6 31167.2 lineto
53929.1 31167.2 lineto
53854.1 31204.7 lineto
53816.6 31279.7 lineto
53816.6 31317.2 lineto
53854.1 31392.2 lineto
53929.1 31429.7 lineto
54041.6 31429.7 lineto
54116.6 31392.2 lineto
stroke
newpath
54416.5 30604.8 moveto
54454 30642.3 lineto
54529 30754.8 lineto
54566.5 30829.8 lineto
54604 30942.3 lineto
54641.5 31129.7 lineto
54641.5 31279.7 lineto
54604 31467.2 lineto
54566.5 31579.7 lineto
54529 31654.7 lineto
54454 31767.2 lineto
54416.5 31804.7 lineto
stroke
newpath
55841.4 30604.8 moveto
55803.9 30642.3 lineto
55728.9 30754.8 lineto
55691.4 30829.8 lineto
55653.9 30942.3 lineto
55616.4 31129.7 lineto
55616.4 31279.7 lineto
55653.9 31467.2 lineto
55691.4 31579.7 lineto
55728.9 31654.7 lineto
55803.9 31767.2 lineto
55841.4 31804.7 lineto
stroke
newpath
56141.3 31429.7 moveto
56141.3 30904.8 lineto
stroke
newpath
56141.3 31354.7 moveto
56178.8 31392.2 lineto
56253.8 31429.7 lineto
56366.3 31429.7 lineto
56441.3 31392.2 lineto
56478.8 31317.2 lineto
56478.8 30904.8 lineto
stroke
newpath
56966.2 30904.8 moveto
56891.2 30942.3 lineto
56853.7 30979.8 lineto
56816.2 31054.8 lineto
56816.2 31279.7 lineto
56853.7 31354.7 lineto
56891.2 31392.2 lineto
56966.2 31429.7 lineto
57078.7 31429.7 lineto
57153.7 31392.2 lineto
57191.2 31354.7 lineto
57228.7 31279.7 lineto
57228.7 31054.8 lineto
57191.2 30979.8 lineto
57153.7 30942.3 lineto
57078.7 30904.8 lineto
56966.2 30904.8 lineto
stroke
newpath
57453.7 31429.7 moveto
57753.6 31429.7 lineto
stroke
newpath
57566.1 31692.2 moveto
57566.1 31017.3 lineto
57603.6 30942.3 lineto
57678.6 30904.8 lineto
57753.6 30904.8 lineto
stroke
newpath
58616 31429.7 moveto
58616 30642.3 lineto
stroke
newpath
58616 31392.2 moveto
58691 31429.7 lineto
58841 31429.7 lineto
58916 31392.2 lineto
58953.5 31354.7 lineto
58991 31279.7 lineto
58991 31054.8 lineto
58953.5 30979.8 lineto
58916 30942.3 lineto
58841 30904.8 lineto
58691 30904.8 lineto
58616 30942.3 lineto
stroke
newpath
59440.9 30904.8 moveto
59365.9 30942.3 lineto
59328.4 31017.3 lineto
59328.4 31692.2 lineto
stroke
newpath
60078.3 30904.8 moveto
60078.3 31317.2 lineto
60040.8 31392.2 lineto
59965.8 31429.7 lineto
59815.9 31429.7 lineto
59740.9 31392.2 lineto
stroke
newpath
60078.3 30942.3 moveto
60003.3 30904.8 lineto
59815.9 30904.8 lineto
59740.9 30942.3 lineto
59703.4 31017.3 lineto
59703.4 31092.2 lineto
59740.9 31167.2 lineto
59815.9 31204.7 lineto
60003.3 31204.7 lineto
60078.3 31242.2 lineto
stroke
newpath
60340.8 31429.7 moveto
60640.8 31429.7 lineto
stroke
newpath
60453.3 31692.2 moveto
60453.3 31017.3 lineto
60490.8 30942.3 lineto
60565.8 30904.8 lineto
60640.8 30904.8 lineto
stroke
newpath
61203.2 30942.3 moveto
61128.2 30904.8 lineto
60978.2 30904.8 lineto
60903.2 30942.3 lineto
60865.7 31017.3 lineto
60865.7 31317.2 lineto
60903.2 31392.2 lineto
60978.2 31429.7 lineto
61128.2 31429.7 lineto
61203.2 31392.2 lineto
61240.7 31317.2 lineto
61240.7 31242.2 lineto
60865.7 31167.2 lineto
stroke
newpath
61915.6 30904.8 moveto
61915.6 31692.2 lineto
stroke
newpath
61915.6 30942.3 moveto
61840.6 30904.8 lineto
61690.6 30904.8 lineto
61615.6 30942.3 lineto
61578.1 30979.8 lineto
61540.6 31054.8 lineto
61540.6 31279.7 lineto
61578.1 31354.7 lineto
61615.6 31392.2 lineto
61690.6 31429.7 lineto
61840.6 31429.7 lineto
61915.6 31392.2 lineto
stroke
newpath
62215.6 30604.8 moveto
62253.1 30642.3 lineto
62328 30754.8 lineto
62365.5 30829.8 lineto
62403 30942.3 lineto
62440.5 31129.7 lineto
62440.5 31279.7 lineto
62403 31467.2 lineto
62365.5 31579.7 lineto
62328 31654.7 lineto
62253.1 31767.2 lineto
62215.6 31804.7 lineto
stroke
showpage
grestore
%%EOF
