%TF.GenerationSoftware,KiCad,Pcbnew,(6.0.2)*%
%TF.CreationDate,2022-03-20T15:54:48+02:00*%
%TF.ProjectId,main,6d61696e-2e6b-4696-9361-645f70636258,V2.0*%
%TF.SameCoordinates,Original*%
%TF.FileFunction,Soldermask,Top*%
%TF.FilePolarity,Negative*%
%FSLAX46Y46*%
G04 Gerber Fmt 4.6, Leading zero omitted, Abs format (unit mm)*
G04 Created by KiCad (PCBNEW (6.0.2)) date 2022-03-20 15:54:48*
%MOMM*%
%LPD*%
G01*
G04 APERTURE LIST*
G04 Aperture macros list*
%AMRoundRect*
0 Rectangle with rounded corners*
0 $1 Rounding radius*
0 $2 $3 $4 $5 $6 $7 $8 $9 X,Y pos of 4 corners*
0 Add a 4 corners polygon primitive as box body*
4,1,4,$2,$3,$4,$5,$6,$7,$8,$9,$2,$3,0*
0 Add four circle primitives for the rounded corners*
1,1,$1+$1,$2,$3*
1,1,$1+$1,$4,$5*
1,1,$1+$1,$6,$7*
1,1,$1+$1,$8,$9*
0 Add four rect primitives between the rounded corners*
20,1,$1+$1,$2,$3,$4,$5,0*
20,1,$1+$1,$4,$5,$6,$7,0*
20,1,$1+$1,$6,$7,$8,$9,0*
20,1,$1+$1,$8,$9,$2,$3,0*%
G04 Aperture macros list end*
%ADD10C,0.120000*%
%ADD11C,0.010000*%
%ADD12R,1.800000X1.800000*%
%ADD13C,1.800000*%
%ADD14C,2.500000*%
%ADD15C,2.390000*%
%ADD16C,3.450000*%
%ADD17R,7.340000X6.350000*%
%ADD18RoundRect,0.250000X-0.250000X-0.475000X0.250000X-0.475000X0.250000X0.475000X-0.250000X0.475000X0*%
%ADD19RoundRect,0.100000X-0.130000X-0.100000X0.130000X-0.100000X0.130000X0.100000X-0.130000X0.100000X0*%
%ADD20RoundRect,0.100000X0.130000X0.100000X-0.130000X0.100000X-0.130000X-0.100000X0.130000X-0.100000X0*%
%ADD21RoundRect,0.250000X0.262500X0.450000X-0.262500X0.450000X-0.262500X-0.450000X0.262500X-0.450000X0*%
%ADD22R,0.450000X0.600000*%
%ADD23RoundRect,0.100000X0.100000X-0.130000X0.100000X0.130000X-0.100000X0.130000X-0.100000X-0.130000X0*%
%ADD24RoundRect,0.250000X0.450000X-0.262500X0.450000X0.262500X-0.450000X0.262500X-0.450000X-0.262500X0*%
%ADD25R,1.250000X0.400000*%
%ADD26R,1.350000X0.600000*%
%ADD27C,1.300000*%
%ADD28O,2.140000X1.070000*%
%ADD29RoundRect,0.250000X-0.450000X0.262500X-0.450000X-0.262500X0.450000X-0.262500X0.450000X0.262500X0*%
%ADD30RoundRect,0.150000X-0.150000X0.825000X-0.150000X-0.825000X0.150000X-0.825000X0.150000X0.825000X0*%
%ADD31RoundRect,0.100000X-0.100000X0.130000X-0.100000X-0.130000X0.100000X-0.130000X0.100000X0.130000X0*%
%ADD32R,1.550000X0.600000*%
%ADD33RoundRect,0.250000X-0.262500X-0.450000X0.262500X-0.450000X0.262500X0.450000X-0.262500X0.450000X0*%
%ADD34R,0.600000X1.200000*%
%ADD35R,1.700000X1.700000*%
%ADD36O,1.700000X1.700000*%
%ADD37RoundRect,0.150000X0.150000X-0.587500X0.150000X0.587500X-0.150000X0.587500X-0.150000X-0.587500X0*%
%ADD38R,0.600000X0.450000*%
%ADD39R,1.000000X1.150000*%
%ADD40C,1.350000*%
%ADD41RoundRect,0.250000X-0.475000X0.250000X-0.475000X-0.250000X0.475000X-0.250000X0.475000X0.250000X0*%
%ADD42RoundRect,0.042000X0.943000X0.258000X-0.943000X0.258000X-0.943000X-0.258000X0.943000X-0.258000X0*%
%ADD43R,2.413000X3.302000*%
%ADD44RoundRect,0.150000X-0.587500X-0.150000X0.587500X-0.150000X0.587500X0.150000X-0.587500X0.150000X0*%
%ADD45R,0.600000X0.400000*%
G04 APERTURE END LIST*
D10*
%TO.C,GL1*%
X190881000Y-65024000D02*
G75*
G03*
X190881000Y-65024000I-3175000J0D01*
G01*
D11*
%TO.C,U3*%
X188302000Y-112152000D02*
X188302000Y-110052000D01*
X188302000Y-110052000D02*
X188302000Y-110047000D01*
X188302000Y-110047000D02*
X188301000Y-110042000D01*
X188301000Y-110042000D02*
X188301000Y-110036000D01*
X188301000Y-110036000D02*
X188300000Y-110031000D01*
X188300000Y-110031000D02*
X188299000Y-110026000D01*
X188299000Y-110026000D02*
X188297000Y-110021000D01*
X188297000Y-110021000D02*
X188295000Y-110016000D01*
X188295000Y-110016000D02*
X188293000Y-110011000D01*
X188293000Y-110011000D02*
X188291000Y-110007000D01*
X188291000Y-110007000D02*
X188289000Y-110002000D01*
X188289000Y-110002000D02*
X188286000Y-109998000D01*
X188286000Y-109998000D02*
X188283000Y-109993000D01*
X188283000Y-109993000D02*
X188280000Y-109989000D01*
X188280000Y-109989000D02*
X188276000Y-109985000D01*
X188276000Y-109985000D02*
X188273000Y-109981000D01*
X188273000Y-109981000D02*
X188269000Y-109978000D01*
X188269000Y-109978000D02*
X188265000Y-109974000D01*
X188265000Y-109974000D02*
X188261000Y-109971000D01*
X188261000Y-109971000D02*
X188256000Y-109968000D01*
X188256000Y-109968000D02*
X188252000Y-109965000D01*
X188252000Y-109965000D02*
X188247000Y-109963000D01*
X188247000Y-109963000D02*
X188243000Y-109961000D01*
X188243000Y-109961000D02*
X188238000Y-109959000D01*
X188238000Y-109959000D02*
X188233000Y-109957000D01*
X188233000Y-109957000D02*
X188228000Y-109955000D01*
X188228000Y-109955000D02*
X188223000Y-109954000D01*
X188223000Y-109954000D02*
X188218000Y-109953000D01*
X188218000Y-109953000D02*
X188212000Y-109953000D01*
X188212000Y-109953000D02*
X188207000Y-109952000D01*
X188207000Y-109952000D02*
X188202000Y-109952000D01*
X188202000Y-109952000D02*
X186702000Y-109952000D01*
X186702000Y-109952000D02*
X186697000Y-109952000D01*
X186697000Y-109952000D02*
X186692000Y-109953000D01*
X186692000Y-109953000D02*
X186686000Y-109953000D01*
X186686000Y-109953000D02*
X186681000Y-109954000D01*
X186681000Y-109954000D02*
X186676000Y-109955000D01*
X186676000Y-109955000D02*
X186671000Y-109957000D01*
X186671000Y-109957000D02*
X186666000Y-109959000D01*
X186666000Y-109959000D02*
X186661000Y-109961000D01*
X186661000Y-109961000D02*
X186657000Y-109963000D01*
X186657000Y-109963000D02*
X186652000Y-109965000D01*
X186652000Y-109965000D02*
X186648000Y-109968000D01*
X186648000Y-109968000D02*
X186643000Y-109971000D01*
X186643000Y-109971000D02*
X186639000Y-109974000D01*
X186639000Y-109974000D02*
X186635000Y-109978000D01*
X186635000Y-109978000D02*
X186631000Y-109981000D01*
X186631000Y-109981000D02*
X186628000Y-109985000D01*
X186628000Y-109985000D02*
X186624000Y-109989000D01*
X186624000Y-109989000D02*
X186621000Y-109993000D01*
X186621000Y-109993000D02*
X186618000Y-109998000D01*
X186618000Y-109998000D02*
X186615000Y-110002000D01*
X186615000Y-110002000D02*
X186613000Y-110007000D01*
X186613000Y-110007000D02*
X186611000Y-110011000D01*
X186611000Y-110011000D02*
X186609000Y-110016000D01*
X186609000Y-110016000D02*
X186607000Y-110021000D01*
X186607000Y-110021000D02*
X186605000Y-110026000D01*
X186605000Y-110026000D02*
X186604000Y-110031000D01*
X186604000Y-110031000D02*
X186603000Y-110036000D01*
X186603000Y-110036000D02*
X186603000Y-110042000D01*
X186603000Y-110042000D02*
X186602000Y-110047000D01*
X186602000Y-110047000D02*
X186602000Y-110052000D01*
X186602000Y-110052000D02*
X186602000Y-112452000D01*
X186602000Y-112452000D02*
X186602000Y-112457000D01*
X186602000Y-112457000D02*
X186603000Y-112462000D01*
X186603000Y-112462000D02*
X186603000Y-112468000D01*
X186603000Y-112468000D02*
X186604000Y-112473000D01*
X186604000Y-112473000D02*
X186605000Y-112478000D01*
X186605000Y-112478000D02*
X186607000Y-112483000D01*
X186607000Y-112483000D02*
X186609000Y-112488000D01*
X186609000Y-112488000D02*
X186611000Y-112493000D01*
X186611000Y-112493000D02*
X186613000Y-112497000D01*
X186613000Y-112497000D02*
X186615000Y-112502000D01*
X186615000Y-112502000D02*
X186618000Y-112506000D01*
X186618000Y-112506000D02*
X186621000Y-112511000D01*
X186621000Y-112511000D02*
X186624000Y-112515000D01*
X186624000Y-112515000D02*
X186628000Y-112519000D01*
X186628000Y-112519000D02*
X186631000Y-112523000D01*
X186631000Y-112523000D02*
X186635000Y-112526000D01*
X186635000Y-112526000D02*
X186639000Y-112530000D01*
X186639000Y-112530000D02*
X186643000Y-112533000D01*
X186643000Y-112533000D02*
X186648000Y-112536000D01*
X186648000Y-112536000D02*
X186652000Y-112539000D01*
X186652000Y-112539000D02*
X186657000Y-112541000D01*
X186657000Y-112541000D02*
X186661000Y-112543000D01*
X186661000Y-112543000D02*
X186666000Y-112545000D01*
X186666000Y-112545000D02*
X186671000Y-112547000D01*
X186671000Y-112547000D02*
X186676000Y-112549000D01*
X186676000Y-112549000D02*
X186681000Y-112550000D01*
X186681000Y-112550000D02*
X186686000Y-112551000D01*
X186686000Y-112551000D02*
X186692000Y-112551000D01*
X186692000Y-112551000D02*
X186697000Y-112552000D01*
X186697000Y-112552000D02*
X186702000Y-112552000D01*
X186702000Y-112552000D02*
X187973000Y-112552000D01*
X187973000Y-112552000D02*
X188302000Y-112223000D01*
X188302000Y-112223000D02*
X188302000Y-112152000D01*
X188302000Y-112152000D02*
X188302000Y-112152000D01*
G36*
X188212000Y-109953000D02*
G01*
X188218000Y-109953000D01*
X188228000Y-109955000D01*
X188243000Y-109961000D01*
X188247000Y-109963000D01*
X188252000Y-109965000D01*
X188256000Y-109968000D01*
X188261000Y-109971000D01*
X188265000Y-109974000D01*
X188269000Y-109978000D01*
X188273000Y-109981000D01*
X188276000Y-109985000D01*
X188280000Y-109989000D01*
X188283000Y-109993000D01*
X188286000Y-109998000D01*
X188289000Y-110002000D01*
X188291000Y-110007000D01*
X188293000Y-110011000D01*
X188299000Y-110026000D01*
X188301000Y-110036000D01*
X188301000Y-110042000D01*
X188302000Y-110047000D01*
X188302000Y-112223000D01*
X187973000Y-112552000D01*
X186697000Y-112552000D01*
X186692000Y-112551000D01*
X186686000Y-112551000D01*
X186676000Y-112549000D01*
X186661000Y-112543000D01*
X186657000Y-112541000D01*
X186652000Y-112539000D01*
X186648000Y-112536000D01*
X186643000Y-112533000D01*
X186639000Y-112530000D01*
X186635000Y-112526000D01*
X186631000Y-112523000D01*
X186628000Y-112519000D01*
X186624000Y-112515000D01*
X186621000Y-112511000D01*
X186618000Y-112506000D01*
X186615000Y-112502000D01*
X186613000Y-112497000D01*
X186611000Y-112493000D01*
X186605000Y-112478000D01*
X186603000Y-112468000D01*
X186603000Y-112462000D01*
X186602000Y-112457000D01*
X186602000Y-110047000D01*
X186603000Y-110042000D01*
X186603000Y-110036000D01*
X186605000Y-110026000D01*
X186611000Y-110011000D01*
X186613000Y-110007000D01*
X186615000Y-110002000D01*
X186618000Y-109998000D01*
X186621000Y-109993000D01*
X186624000Y-109989000D01*
X186628000Y-109985000D01*
X186631000Y-109981000D01*
X186635000Y-109978000D01*
X186639000Y-109974000D01*
X186643000Y-109971000D01*
X186648000Y-109968000D01*
X186652000Y-109965000D01*
X186657000Y-109963000D01*
X186661000Y-109961000D01*
X186676000Y-109955000D01*
X186686000Y-109953000D01*
X186692000Y-109953000D01*
X186697000Y-109952000D01*
X188207000Y-109952000D01*
X188212000Y-109953000D01*
G37*
X188212000Y-109953000D02*
X188218000Y-109953000D01*
X188228000Y-109955000D01*
X188243000Y-109961000D01*
X188247000Y-109963000D01*
X188252000Y-109965000D01*
X188256000Y-109968000D01*
X188261000Y-109971000D01*
X188265000Y-109974000D01*
X188269000Y-109978000D01*
X188273000Y-109981000D01*
X188276000Y-109985000D01*
X188280000Y-109989000D01*
X188283000Y-109993000D01*
X188286000Y-109998000D01*
X188289000Y-110002000D01*
X188291000Y-110007000D01*
X188293000Y-110011000D01*
X188299000Y-110026000D01*
X188301000Y-110036000D01*
X188301000Y-110042000D01*
X188302000Y-110047000D01*
X188302000Y-112223000D01*
X187973000Y-112552000D01*
X186697000Y-112552000D01*
X186692000Y-112551000D01*
X186686000Y-112551000D01*
X186676000Y-112549000D01*
X186661000Y-112543000D01*
X186657000Y-112541000D01*
X186652000Y-112539000D01*
X186648000Y-112536000D01*
X186643000Y-112533000D01*
X186639000Y-112530000D01*
X186635000Y-112526000D01*
X186631000Y-112523000D01*
X186628000Y-112519000D01*
X186624000Y-112515000D01*
X186621000Y-112511000D01*
X186618000Y-112506000D01*
X186615000Y-112502000D01*
X186613000Y-112497000D01*
X186611000Y-112493000D01*
X186605000Y-112478000D01*
X186603000Y-112468000D01*
X186603000Y-112462000D01*
X186602000Y-112457000D01*
X186602000Y-110047000D01*
X186603000Y-110042000D01*
X186603000Y-110036000D01*
X186605000Y-110026000D01*
X186611000Y-110011000D01*
X186613000Y-110007000D01*
X186615000Y-110002000D01*
X186618000Y-109998000D01*
X186621000Y-109993000D01*
X186624000Y-109989000D01*
X186628000Y-109985000D01*
X186631000Y-109981000D01*
X186635000Y-109978000D01*
X186639000Y-109974000D01*
X186643000Y-109971000D01*
X186648000Y-109968000D01*
X186652000Y-109965000D01*
X186657000Y-109963000D01*
X186661000Y-109961000D01*
X186676000Y-109955000D01*
X186686000Y-109953000D01*
X186692000Y-109953000D01*
X186697000Y-109952000D01*
X188207000Y-109952000D01*
X188212000Y-109953000D01*
%TD*%
D12*
%TO.C,D2*%
X95250000Y-87127000D03*
D13*
X95250000Y-84587000D03*
%TD*%
D14*
%TO.C,TP2*%
X187706000Y-88392000D03*
%TD*%
D15*
%TO.C,BT1*%
X174614000Y-58038000D03*
D16*
X166284000Y-42038000D03*
X111084000Y-58038000D03*
D17*
X178014000Y-50038000D03*
X99354000Y-50038000D03*
%TD*%
D18*
%TO.C,C4*%
X167706000Y-111506000D03*
X169606000Y-111506000D03*
%TD*%
D14*
%TO.C,TP12*%
X94488000Y-106680000D03*
%TD*%
D19*
%TO.C,R16*%
X151064000Y-81280000D03*
X151704000Y-81280000D03*
%TD*%
D20*
%TO.C,R6*%
X170058000Y-108458000D03*
X169418000Y-108458000D03*
%TD*%
D21*
%TO.C,R14*%
X177950500Y-79248000D03*
X176125500Y-79248000D03*
%TD*%
D22*
%TO.C,D6*%
X100330000Y-87088000D03*
X100330000Y-89188000D03*
%TD*%
D23*
%TO.C,R15*%
X110236000Y-80584000D03*
X110236000Y-79944000D03*
%TD*%
D24*
%TO.C,R13*%
X160020000Y-113688500D03*
X160020000Y-111863500D03*
%TD*%
D14*
%TO.C,TP9*%
X186944000Y-106172000D03*
%TD*%
D25*
%TO.C,U4*%
X95971500Y-97824750D03*
X95971500Y-98474750D03*
X95971500Y-99124750D03*
X95971500Y-99774750D03*
X95971500Y-100424750D03*
D26*
X93321500Y-98324750D03*
D27*
X95996500Y-101549750D03*
D26*
X93321500Y-99924750D03*
D27*
X95996500Y-96699750D03*
D28*
X93346500Y-95524750D03*
X93346500Y-102724750D03*
%TD*%
D14*
%TO.C,TP8*%
X186944000Y-115824000D03*
%TD*%
D19*
%TO.C,R11*%
X184592000Y-76200000D03*
X185232000Y-76200000D03*
%TD*%
D14*
%TO.C,TP17*%
X154432000Y-135128000D03*
%TD*%
D23*
%TO.C,C7*%
X103378000Y-114584000D03*
X103378000Y-113944000D03*
%TD*%
D29*
%TO.C,R8*%
X180086000Y-59031500D03*
X180086000Y-60856500D03*
%TD*%
D22*
%TO.C,D4*%
X181356000Y-88104000D03*
X181356000Y-90204000D03*
%TD*%
D30*
%TO.C,U5*%
X107315000Y-105856000D03*
X106045000Y-105856000D03*
X104775000Y-105856000D03*
X103505000Y-105856000D03*
X102235000Y-105856000D03*
X100965000Y-105856000D03*
X99695000Y-105856000D03*
X98425000Y-105856000D03*
X98425000Y-110806000D03*
X99695000Y-110806000D03*
X100965000Y-110806000D03*
X102235000Y-110806000D03*
X103505000Y-110806000D03*
X104775000Y-110806000D03*
X106045000Y-110806000D03*
X107315000Y-110806000D03*
%TD*%
D18*
%TO.C,C1*%
X104460000Y-81534000D03*
X106360000Y-81534000D03*
%TD*%
D31*
%TO.C,R3*%
X176276000Y-88326000D03*
X176276000Y-88966000D03*
%TD*%
D32*
%TO.C,U6*%
X144996500Y-134620000D03*
X144996500Y-133350000D03*
X144996500Y-132080000D03*
X144996500Y-130810000D03*
X139596500Y-130810000D03*
X139596500Y-132080000D03*
X139596500Y-133350000D03*
X139596500Y-134620000D03*
%TD*%
D33*
%TO.C,R12*%
X187047500Y-75692000D03*
X188872500Y-75692000D03*
%TD*%
D34*
%TO.C,U2*%
X168197000Y-106964000D03*
X169147000Y-106964000D03*
X170097000Y-106964000D03*
X170097000Y-104364000D03*
X169147000Y-104364000D03*
X168197000Y-104364000D03*
%TD*%
D35*
%TO.C,J2*%
X180340000Y-76200000D03*
D36*
X177800000Y-76200000D03*
X175260000Y-76200000D03*
X172720000Y-76200000D03*
X170180000Y-76200000D03*
X167640000Y-76200000D03*
X165100000Y-76200000D03*
X162560000Y-76200000D03*
X160020000Y-76200000D03*
X157480000Y-76200000D03*
X154940000Y-76200000D03*
X152400000Y-76200000D03*
X149860000Y-76200000D03*
X147320000Y-76200000D03*
X144780000Y-76200000D03*
X142240000Y-76200000D03*
X139700000Y-76200000D03*
X137160000Y-76200000D03*
X134620000Y-76200000D03*
X132080000Y-76200000D03*
X129540000Y-76200000D03*
X127000000Y-76200000D03*
X124460000Y-76200000D03*
X121920000Y-76200000D03*
X119380000Y-76200000D03*
X116840000Y-76200000D03*
X114300000Y-76200000D03*
X111760000Y-76200000D03*
X109220000Y-76200000D03*
X106680000Y-76200000D03*
X104140000Y-76200000D03*
X101600000Y-76200000D03*
X99060000Y-76200000D03*
%TD*%
D23*
%TO.C,R23*%
X133660500Y-136337000D03*
X133660500Y-135697000D03*
%TD*%
D37*
%TO.C,Q2*%
X178628000Y-111681500D03*
X180528000Y-111681500D03*
X179578000Y-109806500D03*
%TD*%
D14*
%TO.C,TP6*%
X186944000Y-119888000D03*
%TD*%
D33*
%TO.C,R10*%
X179427500Y-106934000D03*
X181252500Y-106934000D03*
%TD*%
D38*
%TO.C,D3*%
X166658000Y-109220000D03*
X164558000Y-109220000D03*
%TD*%
D31*
%TO.C,R4*%
X177546000Y-85278000D03*
X177546000Y-85918000D03*
%TD*%
D14*
%TO.C,TP5*%
X186944000Y-123698000D03*
%TD*%
D23*
%TO.C,R22*%
X135692500Y-136337000D03*
X135692500Y-135697000D03*
%TD*%
D14*
%TO.C,TP13*%
X94488000Y-110490000D03*
%TD*%
%TO.C,TP15*%
X94488000Y-71628000D03*
%TD*%
D23*
%TO.C,C6*%
X107442000Y-114493000D03*
X107442000Y-113853000D03*
%TD*%
D39*
%TO.C,L1*%
X165928000Y-104489000D03*
X165928000Y-106839000D03*
%TD*%
D35*
%TO.C,J1*%
X180340000Y-66040000D03*
D36*
X177800000Y-66040000D03*
X175260000Y-66040000D03*
X172720000Y-66040000D03*
X170180000Y-66040000D03*
X167640000Y-66040000D03*
X165100000Y-66040000D03*
X162560000Y-66040000D03*
X160020000Y-66040000D03*
X157480000Y-66040000D03*
X154940000Y-66040000D03*
X152400000Y-66040000D03*
X149860000Y-66040000D03*
X147320000Y-66040000D03*
X144780000Y-66040000D03*
X142240000Y-66040000D03*
X139700000Y-66040000D03*
X137160000Y-66040000D03*
X134620000Y-66040000D03*
X132080000Y-66040000D03*
X129540000Y-66040000D03*
X127000000Y-66040000D03*
X124460000Y-66040000D03*
X121920000Y-66040000D03*
X119380000Y-66040000D03*
X116840000Y-66040000D03*
X114300000Y-66040000D03*
X111760000Y-66040000D03*
X109220000Y-66040000D03*
X106680000Y-66040000D03*
X104140000Y-66040000D03*
X101600000Y-66040000D03*
X99060000Y-66040000D03*
%TD*%
D24*
%TO.C,R19*%
X142240000Y-81430500D03*
X142240000Y-79605500D03*
%TD*%
D14*
%TO.C,TP11*%
X187706000Y-80010000D03*
%TD*%
D33*
%TO.C,R1*%
X114808000Y-87122000D03*
X116633000Y-87122000D03*
%TD*%
D40*
%TO.C,GL1*%
X187706000Y-66548000D03*
X187706000Y-63500000D03*
%TD*%
D19*
%TO.C,C5*%
X187132000Y-108712000D03*
X187772000Y-108712000D03*
%TD*%
D21*
%TO.C,R20*%
X166116000Y-136144000D03*
X164291000Y-136144000D03*
%TD*%
D22*
%TO.C,D5*%
X100330000Y-92710000D03*
X100330000Y-94810000D03*
%TD*%
D20*
%TO.C,C8*%
X142453500Y-136271000D03*
X141813500Y-136271000D03*
%TD*%
D35*
%TO.C,J4*%
X180340000Y-127000000D03*
D36*
X177800000Y-127000000D03*
X175260000Y-127000000D03*
X172720000Y-127000000D03*
X170180000Y-127000000D03*
X167640000Y-127000000D03*
X165100000Y-127000000D03*
X162560000Y-127000000D03*
X160020000Y-127000000D03*
X157480000Y-127000000D03*
X154940000Y-127000000D03*
X152400000Y-127000000D03*
X149860000Y-127000000D03*
X147320000Y-127000000D03*
X144780000Y-127000000D03*
X142240000Y-127000000D03*
X139700000Y-127000000D03*
X137160000Y-127000000D03*
X134620000Y-127000000D03*
X132080000Y-127000000D03*
X129540000Y-127000000D03*
X127000000Y-127000000D03*
X124460000Y-127000000D03*
X121920000Y-127000000D03*
X119380000Y-127000000D03*
X116840000Y-127000000D03*
X114300000Y-127000000D03*
X111760000Y-127000000D03*
X109220000Y-127000000D03*
X106680000Y-127000000D03*
X104140000Y-127000000D03*
X101600000Y-127000000D03*
X99060000Y-127000000D03*
%TD*%
D23*
%TO.C,R5*%
X171262000Y-109032000D03*
X171262000Y-108392000D03*
%TD*%
D41*
%TO.C,C2*%
X182880000Y-58994000D03*
X182880000Y-60894000D03*
%TD*%
D35*
%TO.C,J3*%
X180340000Y-116840000D03*
D36*
X177800000Y-116840000D03*
X175260000Y-116840000D03*
X172720000Y-116840000D03*
X170180000Y-116840000D03*
X167640000Y-116840000D03*
X165100000Y-116840000D03*
X162560000Y-116840000D03*
X160020000Y-116840000D03*
X157480000Y-116840000D03*
X154940000Y-116840000D03*
X152400000Y-116840000D03*
X149860000Y-116840000D03*
X147320000Y-116840000D03*
X144780000Y-116840000D03*
X142240000Y-116840000D03*
X139700000Y-116840000D03*
X137160000Y-116840000D03*
X134620000Y-116840000D03*
X132080000Y-116840000D03*
X129540000Y-116840000D03*
X127000000Y-116840000D03*
X124460000Y-116840000D03*
X121920000Y-116840000D03*
X119380000Y-116840000D03*
X116840000Y-116840000D03*
X114300000Y-116840000D03*
X111760000Y-116840000D03*
X109220000Y-116840000D03*
X106680000Y-116840000D03*
X104140000Y-116840000D03*
X101600000Y-116840000D03*
X99060000Y-116840000D03*
%TD*%
D42*
%TO.C,U1*%
X172909000Y-89281000D03*
X172909000Y-88011000D03*
X172909000Y-86741000D03*
X172909000Y-85471000D03*
X167959000Y-85471000D03*
X167959000Y-86741000D03*
X167959000Y-88011000D03*
X167959000Y-89281000D03*
D43*
X170434000Y-87376000D03*
%TD*%
D21*
%TO.C,R9*%
X164639000Y-113538000D03*
X162814000Y-113538000D03*
%TD*%
D44*
%TO.C,Q1*%
X180672500Y-84140000D03*
X180672500Y-86040000D03*
X182547500Y-85090000D03*
%TD*%
D33*
%TO.C,R17*%
X100433500Y-81534000D03*
X102258500Y-81534000D03*
%TD*%
D12*
%TO.C,D1*%
X95250000Y-92461000D03*
D13*
X95250000Y-89921000D03*
%TD*%
D14*
%TO.C,TP1*%
X187706000Y-84074000D03*
%TD*%
D33*
%TO.C,R2*%
X113133500Y-92202000D03*
X114958500Y-92202000D03*
%TD*%
D45*
%TO.C,U3*%
X188852000Y-112252000D03*
X188852000Y-111252000D03*
X188852000Y-110252000D03*
X186052000Y-110252000D03*
X186052000Y-111252000D03*
X186052000Y-112252000D03*
%TD*%
D14*
%TO.C,TP10*%
X187706000Y-71882000D03*
%TD*%
%TO.C,TP16*%
X94488000Y-114808000D03*
%TD*%
D20*
%TO.C,R21*%
X134140500Y-133350000D03*
X133500500Y-133350000D03*
%TD*%
D14*
%TO.C,TP14*%
X94488000Y-80518000D03*
%TD*%
D33*
%TO.C,R18*%
X111713000Y-110744000D03*
X113538000Y-110744000D03*
%TD*%
%TO.C,R7*%
X165203500Y-120142000D03*
X167028500Y-120142000D03*
%TD*%
D18*
%TO.C,C3*%
X169550000Y-102362000D03*
X171450000Y-102362000D03*
%TD*%
M02*
